VeloUTTrackChecker_e54039ad            INFO Results
VeloUTTrackChecker_e54039ad            INFO **** VeloUT                                     1743 tracks including            329 ghosts [18.88 %], Event average 18.20 % ****
VeloUTTrackChecker_e54039ad            INFO   01_velo                                  :    1345 from     7233 [ 18.60 %]     17 clones [ 1.25 %], purity: 96.86 %, hitEff: 81.50 %
VeloUTTrackChecker_e54039ad            INFO   02_velo+UT                               :    1342 from     6261 [ 21.43 %]     17 clones [ 1.25 %], purity: 96.88 %, hitEff: 81.46 %
VeloUTTrackChecker_e54039ad            INFO   03_velo+UT_P>5GeV                        :     713 from     3289 [ 21.68 %]     10 clones [ 1.38 %], purity: 97.02 %, hitEff: 83.31 %
VeloUTTrackChecker_e54039ad            INFO   04_velo+notLong                          :     283 from     3050 [  9.28 %]      8 clones [ 2.75 %], purity: 95.75 %, hitEff: 78.26 %
VeloUTTrackChecker_e54039ad            INFO   05_velo+UT+notLong                       :     280 from     2132 [ 13.13 %]      8 clones [ 2.78 %], purity: 95.82 %, hitEff: 78.03 %
VeloUTTrackChecker_e54039ad            INFO   05_velo+UT+notLong_electron              :       6 from      825 [  0.73 %]      0 clones [ 0.00 %], purity: 95.15 %, hitEff: 80.83 %
VeloUTTrackChecker_e54039ad            INFO   05_velo+UT+notLong_electron_pairprod     :       5 from      757 [  0.66 %]      0 clones [ 0.00 %], purity: 96.18 %, hitEff: 85.00 %
VeloUTTrackChecker_e54039ad            INFO   06_velo+UT+notLong_P>5GeV                :      97 from      573 [ 16.93 %]      3 clones [ 3.00 %], purity: 95.71 %, hitEff: 81.15 %
VeloUTTrackChecker_e54039ad            INFO   06_velo+UT+notLong_electron_P>5GeV       :       1 from       38 [  2.63 %]      0 clones [ 0.00 %], purity: 90.00 %, hitEff: 60.00 %
VeloUTTrackChecker_e54039ad            INFO   07_long                                  :    1062 from     4183 [ 25.39 %]      9 clones [ 0.84 %], purity: 97.17 %, hitEff: 82.38 %
VeloUTTrackChecker_e54039ad            INFO   07_long_strange                          :      44 from      240 [ 18.33 %]      0 clones [ 0.00 %], purity: 96.73 %, hitEff: 80.45 %
VeloUTTrackChecker_e54039ad            INFO   08_long_P>5GeV                           :     616 from     2759 [ 22.33 %]      7 clones [ 1.12 %], purity: 97.23 %, hitEff: 83.66 %
VeloUTTrackChecker_e54039ad            INFO   08_long_strange_P>5GeV                   :      19 from      114 [ 16.67 %]      0 clones [ 0.00 %], purity: 97.75 %, hitEff: 84.21 %
VeloUTTrackChecker_e54039ad            INFO   09_long_fromB                            :     100 from      326 [ 30.67 %]      1 clones [ 0.99 %], purity: 96.96 %, hitEff: 81.57 %
VeloUTTrackChecker_e54039ad            INFO   09_long_fromD                            :      38 from      132 [ 28.79 %]      0 clones [ 0.00 %], purity: 96.97 %, hitEff: 82.46 %
VeloUTTrackChecker_e54039ad            INFO   10_long_fromB_P>5GeV                     :      87 from      267 [ 32.58 %]      1 clones [ 1.14 %], purity: 97.09 %, hitEff: 81.97 %
VeloUTTrackChecker_e54039ad            INFO   10_long_fromD_P>5GeV                     :      27 from       95 [ 28.42 %]      0 clones [ 0.00 %], purity: 96.84 %, hitEff: 82.16 %
VeloUTTrackChecker_e54039ad            INFO   11_long_electrons                        :      22 from      289 [  7.61 %]      0 clones [ 0.00 %], purity: 95.22 %, hitEff: 75.15 %
VeloUTTrackChecker_e54039ad            INFO   12_long_fromB_electrons                  :       4 from       22 [ 18.18 %]      0 clones [ 0.00 %], purity: 93.20 %, hitEff: 72.92 %
VeloUTTrackChecker_e54039ad            INFO   13_long_fromB_electrons_P>5GeV           :       3 from       13 [ 23.08 %]      0 clones [ 0.00 %], purity: 95.69 %, hitEff: 80.56 %
VeloUTTrackChecker_e54039ad            INFO   14_long_fromB_P>3GeV_Pt>0.5GeV           :      92 from      238 [ 38.66 %]      1 clones [ 1.08 %], purity: 97.04 %, hitEff: 82.13 %
VeloUTTrackChecker_e54039ad            INFO   14_long_fromB_electrons_P>3GeV_Pt>0.5GeV :       2 from        5 [ 40.00 %]      0 clones [ 0.00 %], purity: 96.87 %, hitEff: 87.50 %
VeloUTTrackChecker_e54039ad            INFO   14_long_fromD_P>3GeV_Pt>0.5GeV           :      31 from       77 [ 40.26 %]      0 clones [ 0.00 %], purity: 96.53 %, hitEff: 82.04 %
VeloUTTrackChecker_e54039ad            INFO   14_long_strange_P>3GeV_Pt>0.5GeV         :      18 from       64 [ 28.12 %]      0 clones [ 0.00 %], purity: 96.79 %, hitEff: 87.78 %
VeloUTTrackChecker_e54039ad            INFO   15_UT_long_fromB_P>3GeV_Pt>0.5GeV        :      92 from      238 [ 38.66 %]      1 clones [ 1.08 %], purity: 97.04 %, hitEff: 82.13 %
VeloUTTrackChecker_e54039ad            INFO
ApplicationMgr                         INFO Application Manager Finalized successfully
ApplicationMgr                         INFO Application Manager Terminated successfully
DefaultGECFilter                       INFO Number of counters : 2
 |    Counter                                      |     #     |    sum     | mean/eff^* | rms/err^*  |     min     |     max     |
 | "Nb Events Processed"                           |       100 |
 | "Nb events removed"                             |        37 |
HLTControlFlowMgr                      INFO Number of counters : 1
 |    Counter                                      |     #     |    sum     | mean/eff^* | rms/err^*  |     min     |     max     |
 | "Processed events"                              |       100 |
PrLHCbID2MCParticleVPUT_22912182       INFO Number of counters : 1
 |    Counter                                      |     #     |    sum     | mean/eff^* | rms/err^*  |     min     |     max     |
 | "#removed null MCParticles"                     |    219598 |          0 |     0.0000 |
PrStoreUTHit_6220b56a                  INFO Number of counters : 1
 |    Counter                                      |     #     |    sum     | mean/eff^* | rms/err^*  |     min     |     max     |
 | "#banks"                                        |        63 |      13608 |     216.00 |
PrTrackAssociator_e8ee1aaf             INFO Number of counters : 2
 |    Counter                                      |     #     |    sum     | mean/eff^* | rms/err^*  |     min     |     max     |
 |*"Efficiency"                                    |      1743 |       1414 |( 81.12450 +- 0.9372956)% |
 | "MC particles per track"                        |      1414 |       1414 |     1.0000 |
VeloUTTrackChecker_e54039ad.LoKi...    INFO Number of counters : 1
 |    Counter                                      |     #     |    sum     | mean/eff^* | rms/err^*  |     min     |     max     |
 | "# loaded from PYTHON"                          |        25 |
fromV3TrackV1Track_da7c1795            INFO Number of counters : 1
 |    Counter                                      |     #     |    sum     | mean/eff^* | rms/err^*  |     min     |     max     |
 | "Nb of Produced Tracks"                         |        63 |       1743 |     27.667 |
velo_consolidate_tracks                INFO Number of counters : 1
 |    Counter                                      |     #     |    sum     | mean/eff^* | rms/err^*  |     min     |     max     |
 | "n_velo_tracks"                                 |        63 |      16975 |     269.44 |
