PrimaryVertexChecker_a611350f          INFO      ************************************
PrimaryVertexChecker_a611350f          INFO  MC PV is reconstructible if at least 4  tracks are reconstructed
PrimaryVertexChecker_a611350f          INFO  MC PV is isolated if dz to closest reconstructible MC PV >  10 mm
PrimaryVertexChecker_a611350f          INFO  MC efficiency split by tracks with threshold: (4,10), >= 10
PrimaryVertexChecker_a611350f          INFO  MC efficiency split by z position: <-50, (-50,50), >50
PrimaryVertexChecker_a611350f          INFO  REC and MC vertices matched:  by distance
PrimaryVertexChecker_a611350f          INFO
PrimaryVertexChecker_a611350f          INFO 00 all                    :      287 from      528 (     772-244     ) [ 54.36 %], false   93 from reco.      380 (     287+93  ) [ 24.47 %]
PrimaryVertexChecker_a611350f          INFO 01 isolated               :      176 from      300 (     436-136     ) [ 58.67 %], false    0 from reco.      176 (     176+0   ) [  0.00 %]
PrimaryVertexChecker_a611350f          INFO 02 close                  :      111 from      228 (     336-108     ) [ 48.68 %], false   93 from reco.      204 (     111+93  ) [ 45.59 %]
PrimaryVertexChecker_a611350f          INFO 03 ntracks<10             :       13 from       55 (      55-0       ) [ 23.64 %], false   93 from reco.      106 (      13+93  ) [ 87.74 %]
PrimaryVertexChecker_a611350f          INFO 04 ntracks>=10            :      274 from      473 (     473-0       ) [ 57.93 %], false    0 from reco.      274 (     274+0   ) [  0.00 %]
PrimaryVertexChecker_a611350f          INFO 05 z<-50.0                :       72 from      110 (     171-61      ) [ 65.45 %], false   17 from reco.       89 (      72+17  ) [ 19.10 %]
PrimaryVertexChecker_a611350f          INFO 06 z in (-50.0, 50.0)     :      153 from      305 (     432-127     ) [ 50.16 %], false   58 from reco.      211 (     153+58  ) [ 27.49 %]
PrimaryVertexChecker_a611350f          INFO 07 z >=50.0               :       62 from      113 (     169-56      ) [ 54.87 %], false   18 from reco.       80 (      62+18  ) [ 22.50 %]
PrimaryVertexChecker_a611350f          INFO 08 decayBeauty            :        2 from        4 (       4-0       ) [ 50.00 %], false    1 from reco.       95 (      94+1   ) [  1.05 %]
PrimaryVertexChecker_a611350f          INFO 09 decayCharm             :       51 from       79 (      79-0       ) [ 64.56 %], false   20 from reco.      144 (     124+20  ) [ 13.89 %]
PrimaryVertexChecker_a611350f          INFO 10 decayStrange           :      287 from      525 (     567-42      ) [ 54.67 %], false   92 from reco.      380 (     288+92  ) [ 24.21 %]
PrimaryVertexChecker_a611350f          INFO 11 other                  :        0 from        3 (     205-202     ) [  0.00 %], false    1 from reco.       93 (      92+1   ) [  1.08 %]
PrimaryVertexChecker_a611350f          INFO 12 1MCPV                  :       66 from      100 (     100-0       ) [ 66.00 %], false   35 from reco.      101 (      66+35  ) [ 34.65 %]
PrimaryVertexChecker_a611350f          INFO 13 2MCPV                  :       59 from       99 (     100-1       ) [ 59.60 %], false   22 from reco.       81 (      59+22  ) [ 27.16 %]
PrimaryVertexChecker_a611350f          INFO 14 3MCPV                  :       55 from       94 (     100-6       ) [ 58.51 %], false   15 from reco.       70 (      55+15  ) [ 21.43 %]
PrimaryVertexChecker_a611350f          INFO 15 4MCPV                  :       36 from       76 (      99-23      ) [ 47.37 %], false   14 from reco.       50 (      36+14  ) [ 28.00 %]
PrimaryVertexChecker_a611350f          INFO 16 5MCPV                  :       31 from       61 (      90-29      ) [ 50.82 %], false    1 from reco.       32 (      31+1   ) [  3.12 %]
PrimaryVertexChecker_a611350f          INFO
PrimaryVertexChecker_a611350f          INFO 00 all                    : av. PV tracks:   1.00 [MC:  31.95]
PrimaryVertexChecker_a611350f          INFO 01 isolated               : av. PV tracks:   1.00 [MC:  32.07]
PrimaryVertexChecker_a611350f          INFO 02 close                  : av. PV tracks:   1.00 [MC:  31.80]
PrimaryVertexChecker_a611350f          INFO 03 ntracks<10             : av. PV tracks:   1.00 [MC:   6.73]
PrimaryVertexChecker_a611350f          INFO 04 ntracks>=10            : av. PV tracks:   1.00 [MC:  34.88]
PrimaryVertexChecker_a611350f          INFO 05 z<-50.0                : av. PV tracks:   1.00 [MC:  33.64]
PrimaryVertexChecker_a611350f          INFO 06 z in (-50.0, 50.0)     : av. PV tracks:   1.00 [MC:  31.51]
PrimaryVertexChecker_a611350f          INFO 07 z >=50.0               : av. PV tracks:   1.00 [MC:  31.50]
PrimaryVertexChecker_a611350f          INFO 08 decayBeauty            : av. PV tracks:   1.00 [MC:  64.50]
PrimaryVertexChecker_a611350f          INFO 09 decayCharm             : av. PV tracks:   1.00 [MC:  50.35]
PrimaryVertexChecker_a611350f          INFO 10 decayStrange           : av. PV tracks:   1.00 [MC:  32.08]
PrimaryVertexChecker_a611350f          INFO 11 other                  : av. PV tracks:   0.00 [MC:   9.67]
PrimaryVertexChecker_a611350f          INFO 12 1MCPV                  : av. PV tracks:   1.00 [MC:  64.42]
PrimaryVertexChecker_a611350f          INFO 13 2MCPV                  : av. PV tracks:   1.00 [MC:  40.14]
PrimaryVertexChecker_a611350f          INFO 14 3MCPV                  : av. PV tracks:   1.00 [MC:  27.84]
PrimaryVertexChecker_a611350f          INFO 15 4MCPV                  : av. PV tracks:   1.00 [MC:  20.97]
PrimaryVertexChecker_a611350f          INFO 16 5MCPV                  : av. PV tracks:   1.00 [MC:  16.51]
PrimaryVertexChecker_a611350f          INFO
PrimaryVertexChecker_a611350f          INFO 1_res_all                 :  x: +0.092, y: +0.089, z: +0.240
PrimaryVertexChecker_a611350f          INFO 2_res_ntracks<10          :  x: +0.089, y: +0.086, z: +0.233
PrimaryVertexChecker_a611350f          INFO 3_res_ntracks(10,30)      :  x: +0.095, y: +0.086, z: +0.251
PrimaryVertexChecker_a611350f          INFO 4_res_ntracks>30          :  x: +0.089, y: +0.090, z: +0.232
PrimaryVertexChecker_a611350f          INFO 5_res_z<-50               :  x: +0.096, y: +0.087, z: +0.221
PrimaryVertexChecker_a611350f          INFO 6_res_z(-50,50)           :  x: +0.093, y: +0.090, z: +0.252
PrimaryVertexChecker_a611350f          INFO 7_res_z>50                :  x: +0.085, y: +0.087, z: +0.203
PrimaryVertexChecker_a611350f          INFO
PrimaryVertexChecker_a611350f          INFO 1_pull_width_all          :  x: +2.641, y: +2.782, z: +2.503
PrimaryVertexChecker_a611350f          INFO 1_pull_mean_all           :  x: +0.098, y: -0.097, z: +0.882
PrimaryVertexChecker_a611350f          INFO
PrimaryVertexChecker_a611350f       SUCCESS Booked 2 N-Tuples and 0 Event Tag Collections
PrimaryVertexChecker_a611350f       SUCCESS List of booked N-Tuples in directory "FILE1/PrimaryVertexChecker_a611350f"
PrimaryVertexChecker_a611350f       SUCCESS  ID=101           Title="PV_nTuple"                               #items=38 {reco,isol,ntracks,nrectrmc,dzclose,nmcpv,mtruemcpv,nmcallpv,nrecpv,decayCharm,dec}
PrimaryVertexChecker_a611350f       SUCCESS  ID=102           Title="PV_nTuple2"                              #items=12 {fake,r,x,y,z,errr,errz,errx,erry,mother,chi2,nDoF}
RFileCnv                               INFO dumping contents of /NTUPLES/FILE1
TFile: name=Hlt1_PVperformance_Allen.root, title=Gaudi Trees, option=CREATE
NTupleSvc                              INFO NTuples saved successfully
ApplicationMgr                         INFO Application Manager Finalized successfully
ApplicationMgr                         INFO Application Manager Terminated successfully
GaudiAllenPVsToPrimaryVertexCont...    INFO Number of counters : 1
 |    Counter                                      |     #     |    sum     | mean/eff^* | rms/err^*  |     min     |     max     |
 | "Nb PVs"                                        |       100 |        380 |     3.8000 |
HLTControlFlowMgr                      INFO Number of counters : 1
 |    Counter                                      |     #     |    sum     | mean/eff^* | rms/err^*  |     min     |     max     |
 | "Processed events"                              |       100 |
PrimaryVertexChecker_a611350f          INFO Number of counters : 1
 |    Counter                                      |     #     |    sum     | mean/eff^* | rms/err^*  |     min     |     max     |
 | "nEvents"                                       |       100 |
fromV3TrackV1Track_12472ea9            INFO Number of counters : 1
 |    Counter                                      |     #     |    sum     | mean/eff^* | rms/err^*  |     min     |     max     |
 | "Nb of Produced Tracks"                         |       100 |       6761 |     67.610 |
fromV3TrackV1Track_39119efd            INFO Number of counters : 1
 |    Counter                                      |     #     |    sum     | mean/eff^* | rms/err^*  |     min     |     max     |
 | "Nb of Produced Tracks"                         |       100 |      15016 |     150.16 |
pv_beamline_cleanup                    INFO Number of counters : 1
 |    Counter                                      |     #     |    sum     | mean/eff^* | rms/err^*  |     min     |     max     |
 | "n_PVs"                                         |        99 |        379 |     3.8283 |
velo_consolidate_tracks                INFO Number of counters : 1
 |    Counter                                      |     #     |    sum     | mean/eff^* | rms/err^*  |     min     |     max     |
 | "n_velo_tracks"                                 |       100 |      21777 |     217.77 |
