SeedAndMatchTrackChecker_83ffadf3      INFO Results
SeedAndMatchTrackChecker_83ffadf3      INFO **** SeedAndMatch                              29263 tracks including           1735 ghosts [ 5.93 %], Event average  5.47 % ****
SeedAndMatchTrackChecker_83ffadf3      INFO   01_long                                  :   25970 from    40913 [ 63.48 %]      0 clones [ 0.00 %], purity: 99.77 %, hitEff: 98.28 %
SeedAndMatchTrackChecker_83ffadf3      INFO   02_long_P>5GeV                           :   20919 from    26774 [ 78.13 %]      0 clones [ 0.00 %], purity: 99.78 %, hitEff: 98.54 %
SeedAndMatchTrackChecker_83ffadf3      INFO   03_long_strange                          :    1197 from     2281 [ 52.48 %]      0 clones [ 0.00 %], purity: 99.66 %, hitEff: 98.16 %
SeedAndMatchTrackChecker_83ffadf3      INFO   04_long_strange_P>5GeV                   :     812 from     1095 [ 74.16 %]      0 clones [ 0.00 %], purity: 99.62 %, hitEff: 98.39 %
SeedAndMatchTrackChecker_83ffadf3      INFO   05_long_fromB                            :    1885 from     2424 [ 77.76 %]      0 clones [ 0.00 %], purity: 99.77 %, hitEff: 98.63 %
SeedAndMatchTrackChecker_83ffadf3      INFO   05_long_fromD                            :     749 from     1081 [ 69.29 %]      0 clones [ 0.00 %], purity: 99.74 %, hitEff: 98.20 %
SeedAndMatchTrackChecker_83ffadf3      INFO   06_long_fromB_P>5GeV                     :    1732 from     2009 [ 86.21 %]      0 clones [ 0.00 %], purity: 99.77 %, hitEff: 98.76 %
SeedAndMatchTrackChecker_83ffadf3      INFO   06_long_fromD_P>5GeV                     :     622 from      744 [ 83.60 %]      0 clones [ 0.00 %], purity: 99.76 %, hitEff: 98.51 %
SeedAndMatchTrackChecker_83ffadf3      INFO   07_long_electrons                        :     932 from     2951 [ 31.58 %]      0 clones [ 0.00 %], purity: 99.28 %, hitEff: 98.46 %
SeedAndMatchTrackChecker_83ffadf3      INFO   07_long_electrons_pairprod               :     849 from     2731 [ 31.09 %]      0 clones [ 0.00 %], purity: 99.26 %, hitEff: 98.47 %
SeedAndMatchTrackChecker_83ffadf3      INFO   08_long_fromB_electrons                  :      50 from      118 [ 42.37 %]      0 clones [ 0.00 %], purity: 99.54 %, hitEff: 99.67 %
SeedAndMatchTrackChecker_83ffadf3      INFO   09_long_fromB_electrons_P>5GeV           :      43 from       70 [ 61.43 %]      0 clones [ 0.00 %], purity: 99.46 %, hitEff: 99.61 %
SeedAndMatchTrackChecker_83ffadf3      INFO   10_long_fromB_P>3GeV_Pt>0.5GeV           :    1593 from     1861 [ 85.60 %]      0 clones [ 0.00 %], purity: 99.76 %, hitEff: 98.67 %
SeedAndMatchTrackChecker_83ffadf3      INFO   10_long_fromB_electrons_P>3GeV_Pt>0.5GeV :      33 from       49 [ 67.35 %]      0 clones [ 0.00 %], purity: 99.48 %, hitEff: 99.49 %
SeedAndMatchTrackChecker_83ffadf3      INFO   10_long_fromD_P>3GeV_Pt>0.5GeV           :     499 from      599 [ 83.31 %]      0 clones [ 0.00 %], purity: 99.70 %, hitEff: 98.21 %
SeedAndMatchTrackChecker_83ffadf3      INFO   10_long_strange_P>3GeV_Pt>0.5GeV         :     430 from      578 [ 74.39 %]      0 clones [ 0.00 %], purity: 99.64 %, hitEff: 98.33 %
SeedAndMatchTrackChecker_83ffadf3      INFO   11_UT_long_fromB_P>3GeV_Pt>0.5GeV        :    1592 from     1859 [ 85.64 %]      0 clones [ 0.00 %], purity: 99.76 %, hitEff: 98.68 %
SeedAndMatchTrackChecker_83ffadf3      INFO
ApplicationMgr                         INFO Application Manager Finalized successfully
ApplicationMgr                         INFO Application Manager Terminated successfully
HLTControlFlowMgr                      INFO Number of counters : 1
 |    Counter                                      |     #     |    sum     | mean/eff^* | rms/err^*  |     min     |     max     |
 | "Processed events"                              |       500 |
PrLHCbID2MCParticleVPFT_7b5311b2       INFO Number of counters : 1
 |    Counter                                      |     #     |    sum     | mean/eff^* | rms/err^*  |     min     |     max     |
 | "#removed null MCParticles"                     |   3931020 |          0 |     0.0000 |
PrTrackAssociator_fc96b920             INFO Number of counters : 2
 |    Counter                                      |     #     |    sum     | mean/eff^* | rms/err^*  |     min     |     max     |
 |*"Efficiency"                                    |     29263 |      27528 |( 94.07101 +- 0.1380571)% |
 | "MC particles per track"                        |     27528 |      31983 |     1.1618 |
SeedAndMatchTrackChecker_83ffadf...    INFO Number of counters : 1
 |    Counter                                      |     #     |    sum     | mean/eff^* | rms/err^*  |     min     |     max     |
 | "# loaded from PYTHON"                          |        17 |
fromV3TrackV1Track_32c14136            INFO Number of counters : 1
 |    Counter                                      |     #     |    sum     | mean/eff^* | rms/err^*  |     min     |     max     |
 | "Nb of Produced Tracks"                         |       500 |      29263 |     58.526 |
matching_consolidate_tracks_matc...    INFO Number of counters : 1
 |    Counter                                      |     #     |    sum     | mean/eff^* | rms/err^*  |     min     |     max     |
 | "n_long_tracks_matching"                        |       500 |      29263 |     58.526 |
pv_beamline_cleanup                    INFO Number of counters : 1
 |    Counter                                      |     #     |    sum     | mean/eff^* | rms/err^*  |     min     |     max     |
 | "n_PVs"                                         |       500 |       2993 |     5.9860 |
scifi_consolidate_seeds_matching       INFO Number of counters : 1
 |    Counter                                      |     #     |    sum     | mean/eff^* | rms/err^*  |     min     |     max     |
 | "n_seed_tracks"                                 |       500 |      48652 |     97.304 |
velo_consolidate_tracks                INFO Number of counters : 1
 |    Counter                                      |     #     |    sum     | mean/eff^* | rms/err^*  |     min     |     max     |
 | "n_velo_tracks"                                 |       500 |     165415 |     330.83 |
