ForwardTrackChecker_a83f2033           INFO Results
ForwardTrackChecker_a83f2033           INFO **** Forward                                   15802 tracks including            391 ghosts [ 2.47 %], Event average  1.79 % ****
ForwardTrackChecker_a83f2033           INFO   01_long                                  :   14610 from    42409 [ 34.45 %]     59 clones [ 0.40 %], purity: 99.02 %, hitEff: 95.98 %
ForwardTrackChecker_a83f2033           INFO   02_long_P>5GeV                           :   12135 from    27030 [ 44.89 %]     51 clones [ 0.42 %], purity: 99.13 %, hitEff: 96.23 %
ForwardTrackChecker_a83f2033           INFO   03_long_strange                          :     478 from     2314 [ 20.66 %]      1 clones [ 0.21 %], purity: 98.96 %, hitEff: 96.35 %
ForwardTrackChecker_a83f2033           INFO   04_long_strange_P>5GeV                   :     360 from     1041 [ 34.58 %]      1 clones [ 0.28 %], purity: 99.05 %, hitEff: 96.51 %
ForwardTrackChecker_a83f2033           INFO   05_long_fromB                            :      16 from       51 [ 31.37 %]      0 clones [ 0.00 %], purity: 99.70 %, hitEff: 96.82 %
ForwardTrackChecker_a83f2033           INFO   05_long_fromD                            :     204 from      481 [ 42.41 %]      1 clones [ 0.49 %], purity: 99.17 %, hitEff: 96.12 %
ForwardTrackChecker_a83f2033           INFO   06_long_fromB_P>5GeV                     :      10 from       26 [ 38.46 %]      0 clones [ 0.00 %], purity:100.00 %, hitEff: 95.75 %
ForwardTrackChecker_a83f2033           INFO   06_long_fromD_P>5GeV                     :     175 from      316 [ 55.38 %]      1 clones [ 0.57 %], purity: 99.23 %, hitEff: 96.36 %
ForwardTrackChecker_a83f2033           INFO   07_long_electrons                        :     142 from     2960 [  4.80 %]      0 clones [ 0.00 %], purity: 97.54 %, hitEff: 95.14 %
ForwardTrackChecker_a83f2033           INFO   07_long_electrons_pairprod               :     123 from     2780 [  4.42 %]      0 clones [ 0.00 %], purity: 97.33 %, hitEff: 94.88 %
ForwardTrackChecker_a83f2033           INFO   08_long_fromB_electrons                  :       3 from        6 [ 50.00 %]      0 clones [ 0.00 %], purity: 98.89 %, hitEff:100.00 %
ForwardTrackChecker_a83f2033           INFO   09_long_fromB_electrons_P>5GeV           :       3 from        5 [ 60.00 %]      0 clones [ 0.00 %], purity: 98.89 %, hitEff:100.00 %
ForwardTrackChecker_a83f2033           INFO   10_long_fromB_P>3GeV_Pt>0.5GeV           :      14 from       20 [ 70.00 %]      0 clones [ 0.00 %], purity: 99.66 %, hitEff: 96.92 %
ForwardTrackChecker_a83f2033           INFO   10_long_fromB_electrons_P>3GeV_Pt>0.5GeV :       3 from        5 [ 60.00 %]      0 clones [ 0.00 %], purity: 98.89 %, hitEff:100.00 %
ForwardTrackChecker_a83f2033           INFO   10_long_fromD_P>3GeV_Pt>0.5GeV           :     196 from      252 [ 77.78 %]      1 clones [ 0.51 %], purity: 99.20 %, hitEff: 96.23 %
ForwardTrackChecker_a83f2033           INFO   10_long_strange_P>3GeV_Pt>0.5GeV         :     433 from      531 [ 81.54 %]      1 clones [ 0.23 %], purity: 98.94 %, hitEff: 96.30 %
ForwardTrackChecker_a83f2033           INFO   11_UT_long_fromB_P>3GeV_Pt>0.5GeV        :      14 from       20 [ 70.00 %]      0 clones [ 0.00 %], purity: 99.66 %, hitEff: 96.92 %
ForwardTrackChecker_a83f2033           INFO
ForwardUTHitsChecker_aef4d83e          INFO Results
ForwardUTHitsChecker_aef4d83e          INFO **** UT Efficiency for /Event/fromPrForwardTracksFromVeloUTV1Tracks_7fc95a1b/OutputTracksLocation ****     391 ghost,  4.02 UT per track
ForwardUTHitsChecker_aef4d83e          INFO                                  01_long : 14669 tr  4.04 from  4.09 mcUT [ 98.9 %]  0.05 ghost hits on real tracks [ 1.3 %]
ForwardUTHitsChecker_aef4d83e          INFO                             01_long >3UT : 14655 tr  4.05 from  4.09 mcUT [ 98.9 %]  0.05 ghost hits on real tracks [ 1.2 %]
ForwardUTHitsChecker_aef4d83e          INFO                           02_long_P>5GeV : 12186 tr  4.05 from  4.09 mcUT [ 98.9 %]  0.06 ghost hits on real tracks [ 1.4 %]
ForwardUTHitsChecker_aef4d83e          INFO                      02_long_P>5GeV >3UT : 12174 tr  4.05 from  4.10 mcUT [ 98.9 %]  0.06 ghost hits on real tracks [ 1.3 %]
ForwardUTHitsChecker_aef4d83e          INFO           03_long_fromB_P>3GeV_Pt>0.5GeV :    14 tr  4.07 from  4.14 mcUT [ 98.3 %]  0.00 ghost hits on real tracks [ 0.0 %]
ForwardUTHitsChecker_aef4d83e          INFO      03_long_fromB_P>3GeV_Pt>0.5GeV >3UT :    14 tr  4.07 from  4.14 mcUT [ 98.3 %]  0.00 ghost hits on real tracks [ 0.0 %]
ForwardUTHitsChecker_aef4d83e          INFO        04_UT_long_fromB_P>3GeV_Pt>0.5GeV :    14 tr  4.07 from  4.14 mcUT [ 98.3 %]  0.00 ghost hits on real tracks [ 0.0 %]
ForwardUTHitsChecker_aef4d83e          INFO   04_UT_long_fromB_P>3GeV_Pt>0.5GeV >3UT :    14 tr  4.07 from  4.14 mcUT [ 98.3 %]  0.00 ghost hits on real tracks [ 0.0 %]
ForwardUTHitsChecker_aef4d83e          INFO
PrimaryVertexChecker_35b8f7f1          INFO      ************************************
PrimaryVertexChecker_35b8f7f1          INFO  MC PV is reconstructible if at least 4  tracks are reconstructed
PrimaryVertexChecker_35b8f7f1          INFO  MC PV is isolated if dz to closest reconstructible MC PV >  10 mm
PrimaryVertexChecker_35b8f7f1          INFO  MC efficiency split by tracks with threshold: (4,10), >= 10
PrimaryVertexChecker_35b8f7f1          INFO  MC efficiency split by z position: <-50, (-50,50), >50
PrimaryVertexChecker_35b8f7f1          INFO  REC and MC vertices matched:  by distance
PrimaryVertexChecker_35b8f7f1          INFO
PrimaryVertexChecker_35b8f7f1          INFO 00 all                    :     3925 from     4220 (    6185-1965    ) [ 93.01 %], false   38 from reco.     3963 (    3925+38  ) [  0.96 %]
PrimaryVertexChecker_35b8f7f1          INFO 01 isolated               :     2167 from     2228 (    3218-990     ) [ 97.26 %], false    8 from reco.     2175 (    2167+8   ) [  0.37 %]
PrimaryVertexChecker_35b8f7f1          INFO 02 close                  :     1758 from     1992 (    2967-975     ) [ 88.25 %], false   30 from reco.     1788 (    1758+30  ) [  1.68 %]
PrimaryVertexChecker_35b8f7f1          INFO 03 ntracks<10             :      306 from      464 (     464-0       ) [ 65.95 %], false   35 from reco.      341 (     306+35  ) [ 10.26 %]
PrimaryVertexChecker_35b8f7f1          INFO 04 ntracks>=10            :     3619 from     3756 (    3756-0       ) [ 96.35 %], false    3 from reco.     3622 (    3619+3   ) [  0.08 %]
PrimaryVertexChecker_35b8f7f1          INFO 05 z<-50.0                :      773 from      826 (    1223-397     ) [ 93.58 %], false    7 from reco.      780 (     773+7   ) [  0.90 %]
PrimaryVertexChecker_35b8f7f1          INFO 06 z in (-50.0, 50.0)     :     2317 from     2527 (    3717-1190    ) [ 91.69 %], false   22 from reco.     2339 (    2317+22  ) [  0.94 %]
PrimaryVertexChecker_35b8f7f1          INFO 07 z >=50.0               :      835 from      867 (    1245-378     ) [ 96.31 %], false    9 from reco.      844 (     835+9   ) [  1.07 %]
PrimaryVertexChecker_35b8f7f1          INFO 08 decayBeauty            :       42 from       42 (      42-0       ) [ 100.00 %], false    2 from reco.       80 (      78+2   ) [  2.50 %]
PrimaryVertexChecker_35b8f7f1          INFO 09 decayCharm             :      537 from      546 (     546-0       ) [ 98.35 %], false    4 from reco.      575 (     571+4   ) [  0.70 %]
PrimaryVertexChecker_35b8f7f1          INFO 10 decayStrange           :     3906 from     4190 (    4440-250     ) [ 93.22 %], false   31 from reco.     3944 (    3913+31  ) [  0.79 %]
PrimaryVertexChecker_35b8f7f1          INFO 11 other                  :       19 from       30 (    1745-1715    ) [ 63.33 %], false    7 from reco.       57 (      50+7   ) [ 12.28 %]
PrimaryVertexChecker_35b8f7f1          INFO 12 1MCPV                  :      846 from      853 (     856-3       ) [ 99.18 %], false    7 from reco.      853 (     846+7   ) [  0.82 %]
PrimaryVertexChecker_35b8f7f1          INFO 13 2MCPV                  :      812 from      834 (     856-22      ) [ 97.36 %], false    2 from reco.      814 (     812+2   ) [  0.25 %]
PrimaryVertexChecker_35b8f7f1          INFO 14 3MCPV                  :      729 from      763 (     838-75      ) [ 95.54 %], false    6 from reco.      735 (     729+6   ) [  0.82 %]
PrimaryVertexChecker_35b8f7f1          INFO 15 4MCPV                  :      581 from      630 (     800-170     ) [ 92.22 %], false    6 from reco.      587 (     581+6   ) [  1.02 %]
PrimaryVertexChecker_35b8f7f1          INFO 16 5MCPV                  :      418 from      476 (     723-247     ) [ 87.82 %], false    6 from reco.      424 (     418+6   ) [  1.42 %]
PrimaryVertexChecker_35b8f7f1          INFO
PrimaryVertexChecker_35b8f7f1          INFO 00 all                    : av. PV tracks:  32.37 [MC:  34.88]
PrimaryVertexChecker_35b8f7f1          INFO 01 isolated               : av. PV tracks:  30.61 [MC:  34.32]
PrimaryVertexChecker_35b8f7f1          INFO 02 close                  : av. PV tracks:  34.54 [MC:  35.52]
PrimaryVertexChecker_35b8f7f1          INFO 03 ntracks<10             : av. PV tracks:   7.27 [MC:   6.78]
PrimaryVertexChecker_35b8f7f1          INFO 04 ntracks>=10            : av. PV tracks:  34.50 [MC:  38.35]
PrimaryVertexChecker_35b8f7f1          INFO 05 z<-50.0                : av. PV tracks:  28.98 [MC:  30.91]
PrimaryVertexChecker_35b8f7f1          INFO 06 z in (-50.0, 50.0)     : av. PV tracks:  32.56 [MC:  34.76]
PrimaryVertexChecker_35b8f7f1          INFO 07 z >=50.0               : av. PV tracks:  34.98 [MC:  39.04]
PrimaryVertexChecker_35b8f7f1          INFO 08 decayBeauty            : av. PV tracks:  58.45 [MC:  64.71]
PrimaryVertexChecker_35b8f7f1          INFO 09 decayCharm             : av. PV tracks:  54.85 [MC:  59.74]
PrimaryVertexChecker_35b8f7f1          INFO 10 decayStrange           : av. PV tracks:  32.49 [MC:  35.08]
PrimaryVertexChecker_35b8f7f1          INFO 11 other                  : av. PV tracks:   7.58 [MC:   7.07]
PrimaryVertexChecker_35b8f7f1          INFO 12 1MCPV                  : av. PV tracks:  61.90 [MC:  70.29]
PrimaryVertexChecker_35b8f7f1          INFO 13 2MCPV                  : av. PV tracks:  37.42 [MC:  42.30]
PrimaryVertexChecker_35b8f7f1          INFO 14 3MCPV                  : av. PV tracks:  26.00 [MC:  28.97]
PrimaryVertexChecker_35b8f7f1          INFO 15 4MCPV                  : av. PV tracks:  20.09 [MC:  21.39]
PrimaryVertexChecker_35b8f7f1          INFO 16 5MCPV                  : av. PV tracks:  16.31 [MC:  16.92]
PrimaryVertexChecker_35b8f7f1          INFO
PrimaryVertexChecker_35b8f7f1          INFO 1_res_all                 :  x: +0.000, y: +0.000, z: +0.092
PrimaryVertexChecker_35b8f7f1          INFO 2_res_ntracks<10          :  x: +0.000, y: +0.000, z: +0.175
PrimaryVertexChecker_35b8f7f1          INFO 3_res_ntracks(10,30)      :  x: +0.000, y: +0.000, z: +0.109
PrimaryVertexChecker_35b8f7f1          INFO 4_res_ntracks>30          :  x: +0.000, y: +0.000, z: +0.043
PrimaryVertexChecker_35b8f7f1          INFO 5_res_z<-50               :  x: +0.000, y: +0.000, z: +0.115
PrimaryVertexChecker_35b8f7f1          INFO 6_res_z(-50,50)           :  x: +0.000, y: +0.000, z: +0.090
PrimaryVertexChecker_35b8f7f1          INFO 7_res_z>50                :  x: +0.000, y: +0.000, z: +0.074
PrimaryVertexChecker_35b8f7f1          INFO
PrimaryVertexChecker_35b8f7f1          INFO 1_pull_width_all          :  x: +0.000, y: +0.000, z: +1.137
PrimaryVertexChecker_35b8f7f1          INFO 1_pull_mean_all           :  x: +0.000, y: +0.000, z: +0.007
PrimaryVertexChecker_35b8f7f1          INFO
UpstreamTrackChecker_7b61ed6d          INFO Results
UpstreamTrackChecker_7b61ed6d          INFO **** Upstream                                  25507 tracks including           1519 ghosts [ 5.96 %], Event average  4.82 % ****
UpstreamTrackChecker_7b61ed6d          INFO   01_velo                                  :   22821 from    74908 [ 30.47 %]     85 clones [ 0.37 %], purity: 99.45 %, hitEff: 98.44 %
UpstreamTrackChecker_7b61ed6d          INFO   02_velo+UT                               :   22776 from    64763 [ 35.17 %]     85 clones [ 0.37 %], purity: 99.47 %, hitEff: 98.44 %
UpstreamTrackChecker_7b61ed6d          INFO   03_velo+UT_P>5GeV                        :   17062 from    32461 [ 52.56 %]     67 clones [ 0.39 %], purity: 99.51 %, hitEff: 98.95 %
UpstreamTrackChecker_7b61ed6d          INFO   04_velo+notLong                          :    4071 from    32499 [ 12.53 %]      6 clones [ 0.15 %], purity: 99.17 %, hitEff: 97.56 %
UpstreamTrackChecker_7b61ed6d          INFO   05_velo+UT+notLong                       :    4028 from    22950 [ 17.55 %]      6 clones [ 0.15 %], purity: 99.27 %, hitEff: 97.54 %
UpstreamTrackChecker_7b61ed6d          INFO   05_velo+UT+notLong_electron              :      47 from     8979 [  0.52 %]      0 clones [ 0.00 %], purity: 95.03 %, hitEff: 89.01 %
UpstreamTrackChecker_7b61ed6d          INFO   05_velo+UT+notLong_electron_pairprod     :      43 from     8235 [  0.52 %]      0 clones [ 0.00 %], purity: 94.56 %, hitEff: 87.98 %
UpstreamTrackChecker_7b61ed6d          INFO   06_velo+UT+notLong_P>5GeV                :    2422 from     5950 [ 40.71 %]      4 clones [ 0.16 %], purity: 99.40 %, hitEff: 98.89 %
UpstreamTrackChecker_7b61ed6d          INFO   06_velo+UT+notLong_electron_P>5GeV       :      26 from      391 [  6.65 %]      0 clones [ 0.00 %], purity: 96.18 %, hitEff: 95.19 %
UpstreamTrackChecker_7b61ed6d          INFO   07_long                                  :   18750 from    42409 [ 44.21 %]     79 clones [ 0.42 %], purity: 99.52 %, hitEff: 98.63 %
UpstreamTrackChecker_7b61ed6d          INFO   07_long_strange                          :     646 from     2314 [ 27.92 %]      2 clones [ 0.31 %], purity: 98.98 %, hitEff: 98.30 %
UpstreamTrackChecker_7b61ed6d          INFO   08_long_P>5GeV                           :   14642 from    27030 [ 54.17 %]     63 clones [ 0.43 %], purity: 99.53 %, hitEff: 98.96 %
UpstreamTrackChecker_7b61ed6d          INFO   08_long_strange_P>5GeV                   :     446 from     1041 [ 42.84 %]      2 clones [ 0.45 %], purity: 99.03 %, hitEff: 99.11 %
UpstreamTrackChecker_7b61ed6d          INFO   09_long_fromB                            :      19 from       51 [ 37.25 %]      0 clones [ 0.00 %], purity:100.00 %, hitEff: 98.68 %
UpstreamTrackChecker_7b61ed6d          INFO   09_long_fromD                            :     258 from      481 [ 53.64 %]      1 clones [ 0.39 %], purity: 99.61 %, hitEff: 98.23 %
UpstreamTrackChecker_7b61ed6d          INFO   10_long_fromB_P>5GeV                     :      13 from       26 [ 50.00 %]      0 clones [ 0.00 %], purity:100.00 %, hitEff:100.00 %
UpstreamTrackChecker_7b61ed6d          INFO   10_long_fromD_P>5GeV                     :     206 from      316 [ 65.19 %]      1 clones [ 0.48 %], purity: 99.68 %, hitEff: 98.61 %
UpstreamTrackChecker_7b61ed6d          INFO   11_long_electrons                        :     275 from     2960 [  9.29 %]      3 clones [ 1.08 %], purity: 97.34 %, hitEff: 97.03 %
UpstreamTrackChecker_7b61ed6d          INFO   12_long_fromB_electrons                  :       4 from        6 [ 66.67 %]      0 clones [ 0.00 %], purity: 98.61 %, hitEff:100.00 %
UpstreamTrackChecker_7b61ed6d          INFO   13_long_fromB_electrons_P>5GeV           :       4 from        5 [ 80.00 %]      0 clones [ 0.00 %], purity: 98.61 %, hitEff:100.00 %
UpstreamTrackChecker_7b61ed6d          INFO   14_long_fromB_P>3GeV_Pt>0.5GeV           :      16 from       20 [ 80.00 %]      0 clones [ 0.00 %], purity:100.00 %, hitEff: 98.44 %
UpstreamTrackChecker_7b61ed6d          INFO   14_long_fromB_electrons_P>3GeV_Pt>0.5GeV :       4 from        5 [ 80.00 %]      0 clones [ 0.00 %], purity: 98.61 %, hitEff:100.00 %
UpstreamTrackChecker_7b61ed6d          INFO   14_long_fromD_P>3GeV_Pt>0.5GeV           :     224 from      252 [ 88.89 %]      1 clones [ 0.44 %], purity: 99.70 %, hitEff: 98.61 %
UpstreamTrackChecker_7b61ed6d          INFO   14_long_strange_P>3GeV_Pt>0.5GeV         :     457 from      531 [ 86.06 %]      2 clones [ 0.44 %], purity: 99.07 %, hitEff: 98.93 %
UpstreamTrackChecker_7b61ed6d          INFO   15_UT_long_fromB_P>3GeV_Pt>0.5GeV        :      16 from       20 [ 80.00 %]      0 clones [ 0.00 %], purity:100.00 %, hitEff: 98.44 %
UpstreamTrackChecker_7b61ed6d          INFO
VeloTrackChecker_50af9096              INFO Results
VeloTrackChecker_50af9096              INFO **** Velo                                     173466 tracks including           3954 ghosts [ 2.28 %], Event average  2.81 % ****
VeloTrackChecker_50af9096              INFO   01_velo                                  :   73690 from    74908 [ 98.37 %]   1085 clones [ 1.45 %], purity: 99.67 %, hitEff: 95.76 %, hitEffFirst3: 95.92 %, hitEffLast: 95.51 %
VeloTrackChecker_50af9096              INFO   02_long                                  :   42169 from    42409 [ 99.43 %]    411 clones [ 0.97 %], purity: 99.79 %, hitEff: 96.70 %, hitEffFirst3: 96.94 %, hitEffLast: 96.48 %
VeloTrackChecker_50af9096              INFO   03_long_P>5GeV                           :   26948 from    27030 [ 99.70 %]    196 clones [ 0.72 %], purity: 99.83 %, hitEff: 97.13 %, hitEffFirst3: 97.42 %, hitEffLast: 96.95 %
VeloTrackChecker_50af9096              INFO   04_long_strange                          :    2243 from     2314 [ 96.93 %]     17 clones [ 0.75 %], purity: 99.26 %, hitEff: 96.58 %, hitEffFirst3: 96.80 %, hitEffLast: 95.83 %
VeloTrackChecker_50af9096              INFO   05_long_strange_P>5GeV                   :    1013 from     1041 [ 97.31 %]      8 clones [ 0.78 %], purity: 99.21 %, hitEff: 96.89 %, hitEffFirst3: 97.45 %, hitEffLast: 96.02 %
VeloTrackChecker_50af9096              INFO   06_long_fromB                            :      51 from       51 [100.00 %]      0 clones [ 0.00 %], purity:100.00 %, hitEff: 97.60 %, hitEffFirst3: 96.73 %, hitEffLast: 97.99 %
VeloTrackChecker_50af9096              INFO   06_long_fromD                            :     478 from      481 [ 99.38 %]      5 clones [ 1.04 %], purity: 99.75 %, hitEff: 96.18 %, hitEffFirst3: 96.27 %, hitEffLast: 95.96 %
VeloTrackChecker_50af9096              INFO   07_long_fromB_P>5GeV                     :      26 from       26 [100.00 %]      0 clones [ 0.00 %], purity:100.00 %, hitEff: 98.48 %, hitEffFirst3: 98.72 %, hitEffLast: 98.19 %
VeloTrackChecker_50af9096              INFO   07_long_fromD_P>5GeV                     :     314 from      316 [ 99.37 %]      3 clones [ 0.95 %], purity: 99.95 %, hitEff: 96.85 %, hitEffFirst3: 96.95 %, hitEffLast: 96.86 %
VeloTrackChecker_50af9096              INFO   08_long_electrons                        :    2742 from     2960 [ 92.64 %]     25 clones [ 0.90 %], purity: 97.55 %, hitEff: 92.34 %, hitEffFirst3: 91.01 %, hitEffLast: 92.05 %
VeloTrackChecker_50af9096              INFO   09_long_fromB_electrons                  :       5 from        6 [ 83.33 %]      0 clones [ 0.00 %], purity: 98.57 %, hitEff: 93.90 %, hitEffFirst3: 93.33 %, hitEffLast: 94.85 %
VeloTrackChecker_50af9096              INFO   10_long_fromB_electrons_P>5GeV           :       4 from        5 [ 80.00 %]      0 clones [ 0.00 %], purity: 98.21 %, hitEff: 94.17 %, hitEffFirst3: 91.67 %, hitEffLast: 95.83 %
VeloTrackChecker_50af9096              INFO   11_long_fromB_P>3GeV_Pt>0.5GeV           :      20 from       20 [100.00 %]      0 clones [ 0.00 %], purity:100.00 %, hitEff: 96.23 %, hitEffFirst3: 96.67 %, hitEffLast: 96.47 %
VeloTrackChecker_50af9096              INFO   11_long_fromB_electrons_P>3GeV_Pt>0.5GeV :       4 from        5 [ 80.00 %]      0 clones [ 0.00 %], purity: 98.21 %, hitEff: 94.17 %, hitEffFirst3: 91.67 %, hitEffLast: 95.83 %
VeloTrackChecker_50af9096              INFO   11_long_fromD_P>3GeV_Pt>0.5GeV           :     251 from      252 [ 99.60 %]      2 clones [ 0.79 %], purity: 99.93 %, hitEff: 96.37 %, hitEffFirst3: 96.18 %, hitEffLast: 96.50 %
VeloTrackChecker_50af9096              INFO   11_long_strange_P>3GeV_Pt>0.5GeV         :     508 from      531 [ 95.67 %]      2 clones [ 0.39 %], purity: 99.02 %, hitEff: 97.51 %, hitEffFirst3: 98.10 %, hitEffLast: 96.67 %
VeloTrackChecker_50af9096              INFO   12_UT_long_fromB_P>3GeV_Pt>0.5GeV        :      20 from       20 [100.00 %]      0 clones [ 0.00 %], purity:100.00 %, hitEff: 96.23 %, hitEffFirst3: 96.67 %, hitEffLast: 96.47 %
VeloTrackChecker_50af9096              INFO
ApplicationMgr                         INFO Application Manager Finalized successfully
ApplicationMgr                         INFO Application Manager Terminated successfully
DefaultGECFilter                       INFO Number of counters : 2
 |    Counter                                      |     #     |    sum     | mean/eff^* | rms/err^*  |     min     |     max     |
 | "Nb Events Processed"                           |      1000 |
 | "Nb events removed"                             |       144 |
ForwardTrackChecker_a83f2033.LoK...    INFO Number of counters : 1
 |    Counter                                      |     #     |    sum     | mean/eff^* | rms/err^*  |     min     |     max     |
 | "# loaded from PYTHON"                          |        17 |
ForwardUTHitsChecker_aef4d83e.Lo...    INFO Number of counters : 1
 |    Counter                                      |     #     |    sum     | mean/eff^* | rms/err^*  |     min     |     max     |
 | "# loaded from PYTHON"                          |         4 |
HLTControlFlowMgr                      INFO Number of counters : 1
 |    Counter                                      |     #     |    sum     | mean/eff^* | rms/err^*  |     min     |     max     |
 | "Processed events"                              |      1000 |
MuonIDHlt1Alg_fa9e589e                 INFO Number of counters : 7
 |    Counter                                      |     #     |    sum     | mean/eff^* | rms/err^*  |     min     |     max     |
 | "BgLL"                                          |      1371 |  -572.3341 |   -0.41746 |    0.81493 |     -6.9176 |      0.0000 |
 | "MuLL"                                          |      1371 |  -13228.87 |    -9.6491 |     2.9282 |     -11.513 |   -0.064767 |
 | "muonMVAStat"                                   |      1371 |   -1369629 |    -999.00 |     3.4434 |     -999.00 |     -999.00 |
 |*"nInAcceptance"                                 |     15802 |      14162 |( 89.62157 +- 0.2426142)% |
 |*"nIsMuon"                                       |     15802 |       1371 |( 8.676117 +- 0.2239231)% |
 |*"nIsMuonTight"                                  |     15802 |        487 |( 3.081888 +- 0.1374849)% |
 |*"nMomentumCut"                                  |     15802 |      15460 |( 97.83572 +- 0.1157577)% |
PrLHCbID2MCParticle_aa6f91fa           INFO Number of counters : 1
 |    Counter                                      |     #     |    sum     | mean/eff^* | rms/err^*  |     min     |     max     |
 | "#removed null MCParticles"                     |   5555692 |          0 |     0.0000 |
PrStorePrUTHits_df75b912               INFO Number of counters : 1
 |    Counter                                      |     #     |    sum     | mean/eff^* | rms/err^*  |     min     |     max     |
 | "#banks"                                        |       856 |     184896 |     216.00 |
PrStoreUTHit_6220b56a                  INFO Number of counters : 1
 |    Counter                                      |     #     |    sum     | mean/eff^* | rms/err^*  |     min     |     max     |
 | "#banks"                                        |       856 |     184896 |     216.00 |
PrTrackAssociator_3f2e91d4             INFO Number of counters : 2
 |    Counter                                      |     #     |    sum     | mean/eff^* | rms/err^*  |     min     |     max     |
 |*"Efficiency"                                    |     25507 |      23988 |( 94.04477 +- 0.1481791)% |
 | "MC particles per track"                        |     23988 |      23988 |     1.0000 |
PrTrackAssociator_f58181e6             INFO Number of counters : 2
 |    Counter                                      |     #     |    sum     | mean/eff^* | rms/err^*  |     min     |     max     |
 |*"Efficiency"                                    |    173466 |     169512 |( 97.72059 +- 0.03583414)% |
 | "MC particles per track"                        |    169512 |     170149 |     1.0038 |
PrTrackAssociator_f73cdc2a             INFO Number of counters : 2
 |    Counter                                      |     #     |    sum     | mean/eff^* | rms/err^*  |     min     |     max     |
 |*"Efficiency"                                    |     15802 |      15411 |( 97.52563 +- 0.1235764)% |
 | "MC particles per track"                        |     15411 |      17951 |     1.1648 |
PrVeloUT_975eb4da                      INFO Number of counters : 2
 |    Counter                                      |     #     |    sum     | mean/eff^* | rms/err^*  |     min     |     max     |
 | "#seeds"                                        |       856 |     107472 |     125.55 |
 | "#tracks"                                       |       856 |      25507 |     29.798 |
PrimaryVertexChecker_35b8f7f1          INFO Number of counters : 1
 |    Counter                                      |     #     |    sum     | mean/eff^* | rms/err^*  |     min     |     max     |
 | "nEvents"                                       |       856 |
SciFiTrackForwarding_793576d3          INFO Number of counters : 2
 |    Counter                                      |     #     |    sum     | mean/eff^* | rms/err^*  |     min     |     max     |
 | "2nd Loop"                                      |     11729 |
 | "Created long tracks"                           |       856 |      15802 |     18.460 |
TrackBeamLineVertexFinderSoA_e2f...    INFO Number of counters : 3
 |    Counter                                      |     #     |    sum     | mean/eff^* | rms/err^*  |     min     |     max     |
 |*"Fraction of failed PV fits"                    |      4016 |          2 |(0.04980080 +- 0.03520571)% |
 |*"Fraction of unconverged PV fits"               |      4016 |        239 |( 5.951195 +- 0.3733205)% |
 | "Nb PVs"                                        |       856 |       3963 |     4.6297 |
UpstreamTrackChecker_7b61ed6d.Lo...    INFO Number of counters : 1
 |    Counter                                      |     #     |    sum     | mean/eff^* | rms/err^*  |     min     |     max     |
 | "# loaded from PYTHON"                          |        25 |
VPRetinaFullClusterDecoder_f6227b4b    INFO Number of counters : 13
 |    Counter                                      |     #     |    sum     | mean/eff^* | rms/err^*  |     min     |     max     |
 | "Number of banks"                               |       856 |      89024 |     104.00 |
 | "Number of clusters"                            |       856 |    1614406 |     1886.0 |
 | "Number of clusters - Mod14"                    |       856 |      33405 |     39.025 |
 | "Number of clusters - Mod15"                    |       856 |      34175 |     39.924 |
 | "Number of clusters - Mod16"                    |       856 |      34077 |     39.810 |
 | "Number of clusters at matrix edge"             |       856 |     164372 |     192.02 |
 | "Number of clusters from SPs w/ neighbors"      |       856 |     342968 |     400.66 |
 | "Number of clusters from isolated SPs"          |       856 |    1268414 |     1481.8 |
 | "Number of clusters from overflowing SPs"       |       856 |       3024 |     3.5327 |
 | "Number of clusters from overflowing SPs - Mod 14"|       856 |         96 |    0.11215 |
 | "Number of clusters from overflowing SPs - Mod 15"|       856 |        258 |    0.30140 |
 | "Number of clusters from overflowing SPs - Mod 16"|       856 |        433 |    0.50584 |
 | "Number of clusters not self contained"         |       856 |      57657 |     67.356 |
VeloKalman_91b4aa62                    INFO Number of counters : 1
 |    Counter                                      |     #     |    sum     | mean/eff^* | rms/err^*  |     min     |     max     |
 | "Nb of Produced Tracks"                         |       856 |      15802 |     18.460 |
VeloRetinaClusterTrackingSIMD_3c...    INFO Number of counters : 2
 |    Counter                                      |     #     |    sum     | mean/eff^* | rms/err^*  |     min     |     max     |
 | "Nb of Produced Clusters"                       |       856 |    1614406 |     1886.0 |
 | "Nb of Produced Tracks"                         |       856 |     173466 |     202.65 |
VeloTrackChecker_50af9096.LoKi::...    INFO Number of counters : 1
 |    Counter                                      |     #     |    sum     | mean/eff^* | rms/err^*  |     min     |     max     |
 | "# loaded from PYTHON"                          |        17 |
fromPrForwardTracksFromVeloUTV1T...    INFO Number of counters : 1
 |    Counter                                      |     #     |    sum     | mean/eff^* | rms/err^*  |     min     |     max     |
 | "Nb of converted Tracks"                        |       856 |      15802 |     18.460 |
fromPrUpstreamTracksV1Tracks_965...    INFO Number of counters : 1
 |    Counter                                      |     #     |    sum     | mean/eff^* | rms/err^*  |     min     |     max     |
 | "Nb of converted Tracks"                        |       856 |      25507 |     29.798 |
fromPrVeloTracksV1TracksMerger_c...    INFO Number of counters : 1
 |    Counter                                      |     #     |    sum     | mean/eff^* | rms/err^*  |     min     |     max     |
 | "Nb of converted Tracks"                        |       856 |     173466 |     202.65 |
