CaloClusterResolutionAllenCluste... SUCCESS Booked 1 N-Tuples and 0 Event Tag Collections
CaloClusterResolutionAllenCluste... SUCCESS List of booked N-Tuples in directory "FILE1/CaloClusterResolutionAllenClustersRes"
CaloClusterResolutionAllenCluste... SUCCESS  ID=clustersAllenClustersResTitle="clustersAllenClustersRes"                #items=25 {maxMatchFraction,energy,energyCluster,xCluster,yCluster,zCluster,energyClusterUnc}
RFileCnv                               INFO dumping contents of /NTUPLES/FILE1
TFile: name=Hlt1RecoAllenCaloResolutionNTuple.root, title=Gaudi Trees, option=CREATE
NTupleSvc                              INFO NTuples saved successfully
ApplicationMgr                         INFO Application Manager Finalized successfully
ApplicationMgr                         INFO Application Manager Terminated successfully
CaloClusterMCTruth_1e84572d            INFO Number of counters : 2
 |    Counter                                      |     #     |    sum     | mean/eff^* | rms/err^*  |     min     |     max     |
 | "#CC2MC links"                                  |      1000 |    1148188 |     1148.2 |
 |*"No MC information for the cluster is found"    |     66254 |          2 |(0.003018686 +- 0.002134501)% |
CaloClusterResolutionAllenCluste...    INFO Number of counters : 4
 |    Counter                                      |     #     |    sum     | mean/eff^* | rms/err^*  |     min     |     max     |
 | "DeltaEOverE"                                   |      1253 |  -514.0634 |   -0.41027 |    0.71793 |    -0.99629 |      18.819 |
 | "DeltaX"                                        |      1253 |   58467.69 |     46.662 |     918.24 |     -6583.3 |      4563.1 |
 | "DeltaY"                                        |      1253 |  -5970.396 |    -4.7649 |     326.18 |     -3832.8 |      6589.9 |
 |*"Matched"                                       |     66254 |       1253 |( 1.891207 +- 0.05291970)% |
CaloFutureDigit2MCLinks2Table_b7...    INFO Number of counters : 2
 |    Counter                                      |     #     |    sum     | mean/eff^* | rms/err^*  |     min     |     max     |
 | "#CD2MC links"                                  |      1000 |          0 |     0.0000 |
 | "Empty Relation table"                          |      1000 |
HLTControlFlowMgr                      INFO Number of counters : 1
 |    Counter                                      |     #     |    sum     | mean/eff^* | rms/err^*  |     min     |     max     |
 | "Processed events"                              |      1000 |
