GraphClustering_72971694               INFO Built <161.877> graph calo clustering clusters/event
ApplicationMgr                         INFO Application Manager Finalized successfully
ApplicationMgr                         INFO Application Manager Terminated successfully
CaloAcceptanceBremAlg_Downstream...    INFO Number of counters : 2
 |    Counter                                      |     #     |    sum     | mean/eff^* | rms/err^*  |     min     |     max     |
 | "#total tracks"                                 |       261 |       2509 |     9.6130 |     6.0363 |      0.0000 |      28.000 |
 | "#tracks in acceptance"                         |       261 |       2170 |     8.3142 |     5.1216 |      0.0000 |      24.000 |
CaloAcceptanceBremAlg_Long_1d4b7080    INFO Number of counters : 2
 |    Counter                                      |     #     |    sum     | mean/eff^* | rms/err^*  |     min     |     max     |
 | "#total tracks"                                 |       261 |       3395 |     13.008 |     7.0684 |      0.0000 |      34.000 |
 | "#tracks in acceptance"                         |       261 |       1520 |     5.8238 |     3.8526 |      0.0000 |      21.000 |
CaloAcceptanceEcalAlg_Downstream...    INFO Number of counters : 2
 |    Counter                                      |     #     |    sum     | mean/eff^* | rms/err^*  |     min     |     max     |
 | "#total tracks"                                 |       261 |       2509 |     9.6130 |     6.0363 |      0.0000 |      28.000 |
 | "#tracks in acceptance"                         |       261 |       2212 |     8.4751 |     5.4199 |      0.0000 |      25.000 |
CaloAcceptanceEcalAlg_Long_7d4aa954    INFO Number of counters : 2
 |    Counter                                      |     #     |    sum     | mean/eff^* | rms/err^*  |     min     |     max     |
 | "#total tracks"                                 |       261 |       3395 |     13.008 |     7.0684 |      0.0000 |      34.000 |
 | "#tracks in acceptance"                         |       261 |       2741 |     10.502 |     5.8817 |      0.0000 |      32.000 |
CaloAcceptanceEcalAlg_Ttrack_b55...    INFO Number of counters : 2
 |    Counter                                      |     #     |    sum     | mean/eff^* | rms/err^*  |     min     |     max     |
 | "#total tracks"                                 |       261 |      19329 |     74.057 |     36.489 |      3.0000 |      159.00 |
 | "#tracks in acceptance"                         |       261 |      15755 |     60.364 |     29.873 |      2.0000 |      136.00 |
CaloAcceptanceHcalAlg_Downstream...    INFO Number of counters : 2
 |    Counter                                      |     #     |    sum     | mean/eff^* | rms/err^*  |     min     |     max     |
 | "#total tracks"                                 |       261 |       2509 |     9.6130 |     6.0363 |      0.0000 |      28.000 |
 | "#tracks in acceptance"                         |       261 |       2068 |     7.9234 |     5.0456 |      0.0000 |      25.000 |
CaloAcceptanceHcalAlg_Long_c6d73437    INFO Number of counters : 2
 |    Counter                                      |     #     |    sum     | mean/eff^* | rms/err^*  |     min     |     max     |
 | "#total tracks"                                 |       261 |       3395 |     13.008 |     7.0684 |      0.0000 |      34.000 |
 | "#tracks in acceptance"                         |       261 |       2717 |     10.410 |     5.7379 |      0.0000 |      32.000 |
CaloFutureClusterCovarianceAlg_5...    INFO Number of counters : 1
 |    Counter                                      |     #     |    sum     | mean/eff^* | rms/err^*  |     min     |     max     |
 | "# clusters"                                    |     42250 |
CaloFutureClusterCovarianceAlg_5...    INFO Number of counters : 3
 |    Counter                                      |     #     |    sum     | mean/eff^* | rms/err^*  |     min     |     max     |
 | "Corrected Clusters: # cells "                  |      4049 |      17268 |     4.2648 |     1.3085 |      2.0000 |      12.000 |
 | "Corrected Clusters: ET"                        |      4049 |   980652.9 |     242.20 |     291.83 |      1.6000 |      3618.6 |
 | "Corrected Clusters: size ratio"                |      4049 |   2079.965 |    0.51370 |    0.44342 | -3.6723e-16 |      4.4457 |
CaloFutureMergedPi0_e2be96a6           INFO Number of counters : 12
 |    Counter                                      |     #     |    sum     | mean/eff^* | rms/err^*  |     min     |     max     |
 |*"Cluster without 2nd seed found"                |       822 |          0 |( 0.000000 +- 0.000000)% |
 | "Corrected energy"                              |      1644 |1.66097e+07 |     10103. |     12428. |      11.319 |  1.8310e+05 |
 |*"Fails to set covariance"                       |      1644 |          0 |( 0.000000 +- 0.000000)% |
 |*"Fails to set spread"                           |      1644 |          0 |( 0.000000 +- 0.000000)% |
 |*"Fails to tag(E) cluster (1)"                   |       822 |          0 |( 0.000000 +- 0.000000)% |
 |*"Fails to tag(E) cluster (2)"                   |       822 |          0 |( 0.000000 +- 0.000000)% |
 | "Photon Delta(E)"                               |      1644 |  -636665.5 |    -387.27 |     571.31 |     -4947.7 |      6829.9 |
 | "Photon Delta(X)"                               |      1644 |  -227.5509 |   -0.13841 |     13.664 |     -27.718 |      81.701 |
 | "Photon Delta(Y)"                               |      1644 |  -238.7443 |   -0.14522 |     14.215 |     -164.60 |      38.085 |
 | "Photon Delta(Z)"                               |      1644 |   131504.3 |     79.990 |     12.243 |     -5.4893 |      117.97 |
 | "clusters => mergedPi0s"                        |       261 |        822 |     3.1494 |
 | "clusters => splitClusters"                     |       261 |       1644 |     6.2989 |
CaloFutureMergedPi0_e2be96a6.Cal...    INFO Number of counters : 7
 |    Counter                                      |     #     |    sum     | mean/eff^* | rms/err^*  |     min     |     max     |
 | "<alpha> Inner"                                 |       342 |   339.7003 |    0.99328 |   0.025581 |     0.96444 |      1.2092 |
 | "<alpha> Middle"                                |       294 |   294.3101 |     1.0011 |   0.021232 |     0.97683 |      1.1837 |
 | "<alpha> Outer"                                 |      1007 |   1002.257 |    0.99529 |   0.019058 |     0.97363 |      1.1831 |
 | "Pileup offset"                                 |      1643 |   513077.7 |     312.28 |     379.27 |      2.6886 |      3049.5 |
 | "Pileup scale"                                  |      1644 |       9474 |     5.7628 |     1.8093 |      1.0000 |      10.000 |
 | "Pileup subtracted ratio"                       |      1643 |   1580.185 |    0.96177 |   0.037702 |     0.62124 |     0.99943 |
 | "Skip negative energy correction"               |         1 |
CaloFutureMergedPi0_e2be96a6.Eca...    INFO Number of counters : 3
 |    Counter                                      |     #     |    sum     | mean/eff^* | rms/err^*  |     min     |     max     |
 | "Corrected Clusters: # cells "                  |       254 |       1543 |     6.0748 |     1.6738 |      3.0000 |      9.0000 |
 | "Corrected Clusters: ET"                        |       254 |   257796.2 |     1014.9 |     746.94 |      4.6000 |      3484.0 |
 | "Corrected Clusters: size ratio"                |       254 |    102.048 |    0.40176 |    0.36170 |   0.0062004 |      2.2069 |
CaloSelectiveBremMatchAlg_Downst...    INFO Number of counters : 3
 |    Counter                                      |     #     |    sum     | mean/eff^* | rms/err^*  |     min     |     max     |
 | "#links in table"                               |       261 |        580 |     2.2222 |     2.4014 |      0.0000 |      12.000 |
 | "average chi2"                                  |       580 |   3403.055 |     5.8673 |     7.0578 |    0.026045 |      57.985 |
 | "average energy (track based)"                  |      2170 |    90528.2 |     41.718 |     142.33 |      0.0000 |      3304.5 |
CaloSelectiveBremMatchAlg_Long_4...    INFO Number of counters : 3
 |    Counter                                      |     #     |    sum     | mean/eff^* | rms/err^*  |     min     |     max     |
 | "#links in table"                               |       261 |        511 |     1.9579 |     2.0590 |      0.0000 |      12.000 |
 | "average chi2"                                  |       511 |   3265.808 |     6.3910 |     7.9016 |   0.0011741 |      90.458 |
 | "average energy (track based)"                  |      1520 |   159837.6 |     105.16 |     333.74 |      0.0000 |      5022.9 |
CaloSelectiveElectronMatchAlg_Do...    INFO Number of counters : 2
 |    Counter                                      |     #     |    sum     | mean/eff^* | rms/err^*  |     min     |     max     |
 | "#links in table"                               |       261 |       1854 |     7.1034 |     4.9558 |      0.0000 |      26.000 |
 | "average chi2"                                  |      1854 |   56868.12 |     30.673 |     93.032 |   0.0055375 |      3090.7 |
CaloSelectiveElectronMatchAlg_Lo...    INFO Number of counters : 3
 |    Counter                                      |     #     |    sum     | mean/eff^* | rms/err^*  |     min     |     max     |
 | "#above threshold"                              |         5 |          5 |     1.0000 |     0.0000 |      1.0000 |      1.0000 |
 | "#links in table"                               |       261 |       2165 |     8.2950 |     5.2553 |      0.0000 |      27.000 |
 | "average chi2"                                  |      2165 |   107688.3 |     49.741 |     126.83 |  0.00010779 |      3190.8 |
CaloSelectiveTrackMatchAlg_Downs...    INFO Number of counters : 2
 |    Counter                                      |     #     |    sum     | mean/eff^* | rms/err^*  |     min     |     max     |
 | "#links in table"                               |       261 |       1871 |     7.1686 |     4.9860 |      0.0000 |      26.000 |
 | "average chi2"                                  |      1871 |   1432.032 |    0.76538 |     1.3312 |  5.3374e-06 |      21.157 |
CaloSelectiveTrackMatchAlg_Long_...    INFO Number of counters : 2
 |    Counter                                      |     #     |    sum     | mean/eff^* | rms/err^*  |     min     |     max     |
 | "#links in table"                               |       261 |       2189 |     8.3870 |     5.2973 |      0.0000 |      27.000 |
 | "average chi2"                                  |      2189 |   1818.255 |    0.83063 |     1.7508 |  1.9891e-05 |      51.283 |
CaloSelectiveTrackMatchAlg_Ttrac...    INFO Number of counters : 2
 |    Counter                                      |     #     |    sum     | mean/eff^* | rms/err^*  |     min     |     max     |
 | "#links in table"                               |       261 |      13254 |     50.782 |     26.355 |      0.0000 |      126.00 |
 | "average chi2"                                  |     13254 |   1626.772 |    0.12274 |    0.20127 |  6.9967e-07 |      3.7005 |
CaloTrackBasedElectronShowerAlg_...    INFO Number of counters : 2
 |    Counter                                      |     #     |    sum     | mean/eff^* | rms/err^*  |     min     |     max     |
 | "average DLL"                                   |      2212 |  -748.9355 |   -0.33858 |    0.64465 |     -8.4549 |      2.0417 |
 | "average E/p"                                   |      2212 |   95.22708 |   0.043050 |   0.058746 |      0.0000 |     0.97492 |
CaloTrackBasedElectronShowerAlg_...    INFO Number of counters : 2
 |    Counter                                      |     #     |    sum     | mean/eff^* | rms/err^*  |     min     |     max     |
 | "average DLL"                                   |      2741 |  -1051.704 |   -0.38369 |    0.56196 |     -9.4795 |     0.92197 |
 | "average E/p"                                   |      2741 |   67.15174 |   0.024499 |   0.034697 |      0.0000 |     0.79587 |
CaloTrackToHcalEnergyAlg_Downstr...    INFO Number of counters : 1
 |    Counter                                      |     #     |    sum     | mean/eff^* | rms/err^*  |     min     |     max     |
 | "energy (calo) associated to track"             |      2068 |    5253909 |     2540.6 |     4403.9 |      0.0000 |      65898. |
CaloTrackToHcalEnergyAlg_Long_30...    INFO Number of counters : 1
 |    Counter                                      |     #     |    sum     | mean/eff^* | rms/err^*  |     min     |     max     |
 | "energy (calo) associated to track"             |      2717 |2.44648e+07 |     9004.3 |     12530. |      0.0000 |  1.9186e+05 |
ChargedProtoParticleMaker_a7457a92     INFO Number of counters : 1
 |    Counter                                      |     #     |    sum     | mean/eff^* | rms/err^*  |     min     |     max     |
 | "CreatedProtos"                                 |      7042 |
ClassifyPhotonElectronAlg_79c134eb     INFO Number of counters : 14
 |    Counter                                      |     #     |    sum     | mean/eff^* | rms/err^*  |     min     |     max     |
 | "Electron Delta(E)"                             |     14490 |   -5738802 |    -396.05 |     517.34 |     -4911.9 |      4500.2 |
 | "Electron Delta(X)"                             |     14490 |  -5910.429 |   -0.40790 |     12.238 |     -90.315 |      38.989 |
 | "Electron Delta(Y)"                             |     14490 |  -4046.384 |   -0.27925 |     12.232 |     -90.528 |      43.361 |
 | "Electron Delta(Z)"                             |     14490 |    1002318 |     69.173 |     13.006 |     -2.8682 |      115.50 |
 | "Electron corrected energy"                     |     14490 |8.477664e+07 |     5850.7 |     6523.0 |      34.446 |  1.0467e+05 |
 | "Electrons pT-rejected after correction"        |       130 |
 | "Photon Delta(E)"                               |     29548 |   -7142376 |    -241.72 |     409.08 |     -5765.6 |      4500.2 |
 | "Photon Delta(X)"                               |     29548 |  -9130.542 |   -0.30901 |     12.657 |     -91.719 |      113.37 |
 | "Photon Delta(Y)"                               |     29548 |   -7266.36 |   -0.24592 |     12.590 |     -66.651 |      46.308 |
 | "Photon Delta(Z)"                               |     29548 |    1756445 |     59.444 |     12.841 |     -4.7246 |      119.99 |
 | "Photon corrected energy"                       |     29548 |9.921106e+07 |     3357.6 |     5629.9 |      30.538 |  2.1038e+05 |
 | "Photons pT-rejected after correction"          |       538 |
 | "electronHypos"                                 |       261 |      14360 |     55.019 |     25.664 |      0.0000 |      116.00 |
 | "photonHypos"                                   |       261 |      29010 |     111.15 |     47.176 |      9.0000 |      210.00 |
ClassifyPhotonElectronAlg_79c134...    INFO Number of counters : 7
 |    Counter                                      |     #     |    sum     | mean/eff^* | rms/err^*  |     min     |     max     |
 | "<alpha> Inner"                                 |     12414 |   12349.49 |    0.99480 |   0.020070 |     0.96443 |      1.1564 |
 | "<alpha> Middle"                                |     11836 |   11909.06 |     1.0062 |   0.020323 |     0.97680 |      1.1655 |
 | "<alpha> Outer"                                 |     19696 |   19689.84 |    0.99969 |   0.016526 |     0.97364 |      1.1480 |
 | "Pileup offset"                                 |     43946 |1.604112e+07 |     365.02 |     429.31 |      1.8510 |      4208.0 |
 | "Pileup scale"                                  |     44038 |     238281 |     5.4108 |     1.8305 |      1.0000 |      10.000 |
 | "Pileup subtracted ratio"                       |     43946 |   38556.35 |    0.87736 |    0.12448 |  0.00087436 |     0.99941 |
 | "Skip negative energy correction"               |        92 |
DefaultGECFilter                       INFO Number of counters : 2
 |    Counter                                      |     #     |    sum     | mean/eff^* | rms/err^*  |     min     |     max     |
 | "Nb Events Processed"                           |       300 |
 | "Nb events removed"                             |        39 |
FutureNeutralProtoPAlg_a5dfac8a        INFO Number of counters : 4
 |    Counter                                      |     #     |    sum     | mean/eff^* | rms/err^*  |     min     |     max     |
 | "Neutral Protos"                                |       261 |      31476 |     120.60 |     54.189 |      9.0000 |      243.00 |
 | "Neutral Protos from MergedPi0s"                |       261 |        822 |     3.1494 |     3.0956 |      0.0000 |      15.000 |
 | "Neutral Protos from Photons"                   |       261 |      29010 |     111.15 |     47.176 |      9.0000 |      210.00 |
 | "Neutral Protos from SplitPhotons"              |       261 |       1644 |     6.2989 |     6.1913 |      0.0000 |      30.000 |
GraphClustering_72971694               INFO Number of counters : 4
 |    Counter                                      |     #     |    sum     | mean/eff^* | rms/err^*  |     min     |     max     |
 | "# clusters"                                    |       261 |      42250 |     161.88 |     67.380 |      11.000 |      309.00 |
 | "Cluster energy"                                |     42250 |1.84411e+08 |     4364.8 |     6169.0 |      7.0000 |  2.1545e+05 |
 | "Cluster size"                                  |     42250 |     427282 |     10.113 |     2.3894 |      4.0000 |      24.000 |
 | "Negative energy clusters"                      |         2 |          3 |     1.5000 |    0.50000 |      1.0000 |      2.0000 |
HLTControlFlowMgr                      INFO Number of counters : 1
 |    Counter                                      |     #     |    sum     | mean/eff^* | rms/err^*  |     min     |     max     |
 | "Processed events"                              |       300 |
LHCb__Converters__Track__SOA__fr...    INFO Number of counters : 1
 |    Counter                                      |     #     |    sum     | mean/eff^* | rms/err^*  |     min     |     max     |
 | "Nb of Produced Tracks"                         |       261 |       3395 |     13.008 |
LHCb__Converters__Track__SOA__fr...    INFO Number of counters : 1
 |    Counter                                      |     #     |    sum     | mean/eff^* | rms/err^*  |     min     |     max     |
 | "Nb of Produced Tracks"                         |       261 |       2509 |     9.6130 |
LHCb__Converters__Track__SOA__fr...    INFO Number of counters : 1
 |    Counter                                      |     #     |    sum     | mean/eff^* | rms/err^*  |     min     |     max     |
 | "Nb of Produced Tracks"                         |       261 |      19329 |     74.057 |
LHCb__MDF__IOAlg_b77750eb              INFO Number of counters : 1
 |    Counter                                      |     #     |    sum     | mean/eff^* | rms/err^*  |     min     |     max     |
 | "#banks in raw event"                           |       300 |     210300 |     701.00 |     0.0000 |      701.00 |      701.00 |
MuonIDHlt2AlgDownstream_91444015       INFO Number of counters : 7
 |    Counter                                      |     #     |    sum     | mean/eff^* | rms/err^*  |     min     |     max     |
 | "BgLL"                                          |       257 |  -160.5353 |   -0.62465 |     1.0015 |     -5.8607 |      0.0000 |
 | "MuLL"                                          |       257 |  -2274.827 |    -8.8515 |     3.3681 |     -11.513 |    -0.16411 |
 | "muonMVAStat"                                   |       257 |  -101.1791 |   -0.39369 |    0.97632 |     -3.1881 |      4.1923 |
 |*"nInAcceptance"                                 |      2509 |       2029 |( 80.86887 +- 0.7852549)% |
 |*"nIsMuon"                                       |      2509 |        257 |( 10.24312 +- 0.6053405)% |
 |*"nIsMuonTight"                                  |      2509 |        117 |( 4.663212 +- 0.4209423)% |
 |*"nMomentumCut"                                  |      2509 |       2218 |( 88.40175 +- 0.6392581)% |
MuonIDHlt2AlgLong_a65f5f15             INFO Number of counters : 7
 |    Counter                                      |     #     |    sum     | mean/eff^* | rms/err^*  |     min     |     max     |
 | "BgLL"                                          |       124 |  -108.3343 |   -0.87366 |     1.2808 |     -5.5055 |      0.0000 |
 | "MuLL"                                          |       124 |  -1008.917 |    -8.1364 |     3.7928 |     -11.513 |    -0.23527 |
 | "muonMVAStat"                                   |       124 |  -19.52201 |   -0.15744 |     1.3605 |     -2.6021 |      4.1791 |
 |*"nInAcceptance"                                 |      3395 |       3207 |( 94.46244 +- 0.3925263)% |
 |*"nIsMuon"                                       |      3395 |        124 |( 3.652430 +- 0.3219522)% |
 |*"nIsMuonTight"                                  |      3395 |         64 |( 1.885125 +- 0.2334090)% |
 |*"nMomentumCut"                                  |      3395 |       3353 |( 98.76289 +- 0.1897063)% |
MuonPIDV2ToMuonTracks_Downstream...    INFO Number of counters : 1
 |    Counter                                      |     #     |    sum     | mean/eff^* | rms/err^*  |     min     |     max     |
 | "Nb of input v2 MuonPIDs"                       |       261 |       2509 |     9.6130 |
MuonPIDV2ToMuonTracks_Long_16dcb0d4    INFO Number of counters : 1
 |    Counter                                      |     #     |    sum     | mean/eff^* | rms/err^*  |     min     |     max     |
 | "Nb of input v2 MuonPIDs"                       |       261 |       3395 |     13.008 |
PrForwardTrackingVelo_f4faa06c         INFO Number of counters : 10
 |    Counter                                      |     #     |    sum     | mean/eff^* | rms/err^*  |     min     |     max     |
 | "Accepted input tracks"                         |       261 |      32852 |     125.87 |
 | "Created long tracks"                           |       261 |      15691 |     60.119 |
 | "Input tracks"                                  |       261 |      34405 |     131.82 |
 | "Number of candidate bins per track"            |     32852 |     150285 |     4.5746 |     5.1704 |      0.0000 |      44.000 |
 | "Number of complete candidates/track 1st Loop"  |     27388 |      16569 |    0.60497 |    0.62209 |      0.0000 |      4.0000 |
 | "Number of complete candidates/track 2nd Loop"  |     13725 |       1109 |   0.080801 |    0.28225 |      0.0000 |      3.0000 |
 | "Number of x candidates per track 1st Loop"     |     27388 |      35248 |     1.2870 |     1.2794 |
 | "Number of x candidates per track 2nd Loop"     |     13725 |      29600 |     2.1566 |     2.4785 |
 | "Percentage second loop execution"              |     27388 |      13725 |    0.50113 |
 | "Removed duplicates"                            |       261 |        813 |     3.1149 |
PrForwardTrackingVelo_f4faa06c.P...    INFO Number of counters : 2
 |    Counter                                      |     #     |    sum     | mean/eff^* | rms/err^*  |     min     |     max     |
 | "#UT hits added"                                |     10100 |      33884 |     3.3549 |
 | "#tracks with hits added"                       |     10100 |
PrHybridSeeding_4d0337cc               INFO Number of counters : 21
 |    Counter                                      |     #     |    sum     | mean/eff^* | rms/err^*  |     min     |     max     |
 | "Created T2x1 three-hit combinations in case 0" |    381562 |     231406 |    0.60647 |    0.61373 |      0.0000 |      6.0000 |
 | "Created T2x1 three-hit combinations in case 1" |    534861 |     348233 |    0.65107 |    0.71653 |      0.0000 |      12.000 |
 | "Created T2x1 three-hit combinations in case 2" |    947685 |     741581 |    0.78252 |    0.94395 |      0.0000 |      24.000 |
 | "Created XZ tracks (part 0)"                    |       783 |      32439 |     41.429 |     38.710 |      0.0000 |      219.00 |
 | "Created XZ tracks (part 1)"                    |       783 |      34458 |     44.008 |     54.603 |      0.0000 |      1003.0 |
 | "Created XZ tracks in case 0"                   |       522 |      23261 |     44.561 |     35.097 |      0.0000 |      256.00 |
 | "Created XZ tracks in case 1"                   |       522 |      24883 |     47.669 |     44.561 |      1.0000 |      499.00 |
 | "Created XZ tracks in case 2"                   |       522 |      18753 |     35.925 |     58.595 |      0.0000 |      1003.0 |
 | "Created full hit combinations in case 0"       |     35493 |      35493 |     1.0000 |     0.0000 |      1.0000 |      1.0000 |
 | "Created full hit combinations in case 1"       |     28930 |      28930 |     1.0000 |     0.0000 |      1.0000 |      1.0000 |
 | "Created full hit combinations in case 2"       |     28836 |      28836 |     1.0000 |     0.0000 |      1.0000 |      1.0000 |
 | "Created seed tracks"                           |       522 |      25111 |     48.105 |     24.091 |      2.0000 |      115.00 |
 | "Created seed tracks (part 0)"                  |       261 |      13991 |     53.605 |     27.096 |      2.0000 |      124.00 |
 | "Created seed tracks (part 1)"                  |       261 |      13944 |     53.425 |     27.704 |      2.0000 |      132.00 |
 | "Created seed tracks in case 0"                 |       522 |      12996 |     24.897 |     12.906 |      0.0000 |      67.000 |
 | "Created seed tracks in case 1"                 |       522 |      23708 |     45.418 |     22.807 |      2.0000 |      114.00 |
 | "Created seed tracks in case 2"                 |       522 |      26520 |     50.805 |     26.013 |      2.0000 |      129.00 |
 | "Created seed tracks in recovery step"          |       261 |       1415 |     5.4215 |     3.9710 |      0.0000 |      18.000 |
 | "Created two-hit combinations in case 0"        |     77466 |    1597644 |     20.624 |     14.551 |      0.0000 |      105.00 |
 | "Created two-hit combinations in case 1"        |     67916 |    1986981 |     29.256 |     16.997 |      0.0000 |      132.00 |
 | "Created two-hit combinations in case 2"        |     58363 |    2616283 |     44.828 |     26.373 |      1.0000 |      181.00 |
PrLongLivedTracking_fc34af4c           INFO Number of counters : 1
 |    Counter                                      |     #     |    sum     | mean/eff^* | rms/err^*  |     min     |     max     |
 | "#Downstream tracks made"                       |       261 |       7937 |     30.410 |
PrMatchNN_e4c71bc2                     INFO Number of counters : 3
 |    Counter                                      |     #     |    sum     | mean/eff^* | rms/err^*  |     min     |     max     |
 | "#MatchingChi2"                                 |       261 |   224700.3 |     860.92 |
 | "#MatchingMLP"                                  |     16108 |   13646.97 |    0.84722 |
 | "#MatchingTracks"                               |       261 |      16108 |     61.716 |
PrMatchNN_e4c71bc2.PrAddUTHitsTool     INFO Number of counters : 2
 |    Counter                                      |     #     |    sum     | mean/eff^* | rms/err^*  |     min     |     max     |
 | "#UT hits added"                                |     10125 |      34043 |     3.3623 |
 | "#tracks with hits added"                       |     10125 |
PrStorePrUTHits_df75b912               INFO Number of counters : 1
 |    Counter                                      |     #     |    sum     | mean/eff^* | rms/err^*  |     min     |     max     |
 | "#banks"                                        |       261 |      56376 |     216.00 |
PrStoreSciFiHits_fb0eba02              INFO Number of counters : 25
 |    Counter                                      |     #     |    sum     | mean/eff^* | rms/err^*  |     min     |     max     |
 | "Average X in T1U"                              |     78041 |   -2495198 |    -31.973 |     1230.3 |     -2656.2 |      2656.4 |
 | "Average X in T1V"                              |     77760 |   -2045118 |    -26.300 |     1215.2 |     -2656.3 |      2656.0 |
 | "Average X in T1X1"                             |     77466 |   -2742231 |    -35.399 |     1246.6 |     -2646.2 |      2646.1 |
 | "Average X in T1X2"                             |     78603 |   -2062859 |    -26.244 |     1208.5 |     -2646.2 |      2646.2 |
 | "Average X in T2U"                              |     74824 |    -541179 |    -7.2327 |     1228.3 |     -2656.2 |      2656.4 |
 | "Average X in T2V"                              |     76437 |  -895165.8 |    -11.711 |     1215.8 |     -2656.2 |      2656.4 |
 | "Average X in T2X1"                             |     72584 |   -1818302 |    -25.051 |     1230.1 |     -2646.1 |      2646.2 |
 | "Average X in T2X2"                             |     78675 |   -1142338 |    -14.520 |     1209.6 |     -2646.2 |      2646.2 |
 | "Average X in T3U"                              |     82487 |  -848699.8 |    -10.289 |     1458.1 |     -3187.9 |      3188.4 |
 | "Average X in T3V"                              |     84515 |  -573970.7 |    -6.7913 |     1454.1 |     -3188.4 |      3188.4 |
 | "Average X in T3X1"                             |     80351 |  -276467.8 |    -3.4408 |     1459.9 |     -3176.1 |      3176.1 |
 | "Average X in T3X2"                             |     86760 |   -1172383 |    -13.513 |     1436.0 |     -3176.2 |      3176.2 |
 | "Hits in T1U"                                   |      1044 |      78041 |     74.752 |     29.342 |      15.000 |      179.00 |
 | "Hits in T1V"                                   |      1044 |      77760 |     74.483 |     29.169 |      16.000 |      174.00 |
 | "Hits in T1X1"                                  |      1044 |      77466 |     74.201 |     28.482 |      16.000 |      217.00 |
 | "Hits in T1X2"                                  |      1044 |      78603 |     75.290 |     29.576 |      12.000 |      173.00 |
 | "Hits in T2U"                                   |      1044 |      74824 |     71.670 |     27.661 |      13.000 |      156.00 |
 | "Hits in T2V"                                   |      1044 |      76437 |     73.216 |     28.761 |      11.000 |      172.00 |
 | "Hits in T2X1"                                  |      1044 |      72584 |     69.525 |     26.465 |      12.000 |      161.00 |
 | "Hits in T2X2"                                  |      1044 |      78675 |     75.359 |     30.166 |      9.0000 |      268.00 |
 | "Hits in T3U"                                   |      1044 |      82487 |     79.011 |     29.765 |      18.000 |      209.00 |
 | "Hits in T3V"                                   |      1044 |      84515 |     80.953 |     30.353 |      18.000 |      187.00 |
 | "Hits in T3X1"                                  |      1044 |      80351 |     76.965 |     28.905 |      16.000 |      199.00 |
 | "Hits in T3X2"                                  |      1044 |      86760 |     83.103 |     31.687 |      14.000 |      187.00 |
 | "Total number of hits"                          |       261 |     948503 |     3634.1 |     1243.5 |      1043.0 |      6683.0 |
PrStoreUTHit_6220b56a                  INFO Number of counters : 1
 |    Counter                                      |     #     |    sum     | mean/eff^* | rms/err^*  |     min     |     max     |
 | "#banks"                                        |       261 |      56376 |     216.00 |
PrVPHitsToVPLightClusters_be1d4c28     INFO Number of counters : 1
 |    Counter                                      |     #     |    sum     | mean/eff^* | rms/err^*  |     min     |     max     |
 | "Nb of Produced Clusters"                       |       261 |     518400 |     1986.2 |
PrVeloUT_975eb4da                      INFO Number of counters : 2
 |    Counter                                      |     #     |    sum     | mean/eff^* | rms/err^*  |     min     |     max     |
 | "#seeds"                                        |       261 |      34405 |     131.82 |
 | "#tracks"                                       |       261 |       3910 |     14.981 |
SciFiTrackForwarding_793576d3          INFO Number of counters : 2
 |    Counter                                      |     #     |    sum     | mean/eff^* | rms/err^*  |     min     |     max     |
 | "2nd Loop"                                      |      2594 |
 | "Created long tracks"                           |       261 |       1545 |     5.9195 |
TrackBeamLineVertexFinderSoA_e2f...    INFO Number of counters : 3
 |    Counter                                      |     #     |    sum     | mean/eff^* | rms/err^*  |     min     |     max     |
 |*"Fraction of failed PV fits"                    |      1273 |          0 |( 0.000000 +- 0.000000)% |
 |*"Fraction of unconverged PV fits"               |      1273 |         80 |( 6.284368 +- 0.6801780)% |
 | "Nb PVs"                                        |       261 |       1257 |     4.8161 |
TrackBestTrackCreator_c2142d9f         INFO Number of counters : 32
 |    Counter                                      |     #     |    sum     | mean/eff^* | rms/err^*  |     min     |     max     |
 |*"BadInput"                                      |    111103 |          0 |( 0.000000 +- 0.000000)% |
 |*"Downstream.badChisq"                           |      7460 |       5362 |( 71.87668 +- 0.5205446)% |
 | "Downstream.chisqProbSum"                       |      7460 |   535.8254 |   0.071826 |
 |*"Downstream.flipCharge"                         |      7460 |          0 |( 0.000000 +- 0.000000)% |
 | "Downstream.ghostProbability"                   |      7460 |    5194.44 |    0.69631 |
 | "Downstream.numOutliers"                        |      7460 |      12697 |     1.7020 |
 |*"FitFailed"                                     |    111103 |          0 |( 0.000000 +- 0.000000)% |
 |*"Long.badChisq"                                 |     30048 |      27829 |( 92.61515 +- 0.1508704)% |
 | "Long.chisqProbSum"                             |     30048 |   609.4305 |   0.020282 |
 |*"Long.flipCharge"                               |     30048 |          0 |( 0.000000 +- 0.000000)% |
 | "Long.ghostProbability"                         |     30048 |   5231.502 |    0.17410 |
 | "Long.numOutliers"                              |     30048 |      79459 |     2.6444 |
 |*"Ttrack.badChisq"                               |     19329 |        588 |( 3.042061 +- 0.1235296)% |
 | "Ttrack.chisqProbSum"                           |     19329 |    7555.99 |    0.39091 |
 |*"Ttrack.flipCharge"                             |     19329 |        145 |(0.7501681 +- 0.06206396)% |
 | "Ttrack.ghostProbability"                       |     19329 |   543.4041 |   0.028113 |
 | "Ttrack.numOutliers"                            |     19329 |       7422 |    0.38398 |
 |*"Upstream.badChisq"                             |      3776 |       3017 |( 79.89936 +- 0.6521696)% |
 | "Upstream.chisqProbSum"                         |      3776 |   167.6197 |   0.044391 |
 |*"Upstream.flipCharge"                           |      3776 |        251 |( 6.647246 +- 0.4053857)% |
 | "Upstream.ghostProbability"                     |      3776 |   2246.101 |    0.59484 |
 | "Upstream.numOutliers"                          |      3776 |       9632 |     2.5508 |
 |*"Velo.badChisq"                                 |     29870 |       8497 |( 28.44660 +- 0.2610434)% |
 | "Velo.chisqProbSum"                             |     29870 |    7180.26 |    0.24038 |
 |*"Velo.flipCharge"                               |     29870 |          0 |( 0.000000 +- 0.000000)% |
 | "Velo.ghostProbability"                         |     29870 |    7273.56 |    0.24351 |
 | "Velo.numOutliers"                              |     29870 |      48628 |     1.6280 |
 |*"VeloBackward.badChisq"                         |     20620 |       1634 |( 7.924345 +- 0.1881091)% |
 | "VeloBackward.chisqProbSum"                     |     20620 |   7749.281 |    0.37581 |
 |*"VeloBackward.flipCharge"                       |     20620 |          0 |( 0.000000 +- 0.000000)% |
 | "VeloBackward.ghostProbability"                 |     20620 |     2282.2 |    0.11068 |
 | "VeloBackward.numOutliers"                      |     20620 |      12620 |    0.61203 |
VeloKalman_91b4aa62                    INFO Number of counters : 1
 |    Counter                                      |     #     |    sum     | mean/eff^* | rms/err^*  |     min     |     max     |
 | "Nb of Produced Tracks"                         |       261 |       1545 |     5.9195 |
VeloRetinaClusterTrackingSIMD_3c...    INFO Number of counters : 2
 |    Counter                                      |     #     |    sum     | mean/eff^* | rms/err^*  |     min     |     max     |
 | "Nb of Produced Clusters"                       |       261 |     518400 |     1986.2 |
 | "Nb of Produced Tracks"                         |       261 |      55054 |     210.93 |
fromPrDownstreamTracksV1Tracks_b...    INFO Number of counters : 1
 |    Counter                                      |     #     |    sum     | mean/eff^* | rms/err^*  |     min     |     max     |
 | "Nb of converted Tracks"                        |       261 |       7937 |     30.410 |
fromPrForwardTracksV1Tracks_b4b8...    INFO Number of counters : 1
 |    Counter                                      |     #     |    sum     | mean/eff^* | rms/err^*  |     min     |     max     |
 | "Nb of converted Tracks"                        |       261 |      15691 |     60.119 |
fromPrMatchTracksV1Tracks_1e9cf955     INFO Number of counters : 1
 |    Counter                                      |     #     |    sum     | mean/eff^* | rms/err^*  |     min     |     max     |
 | "Nb of converted Tracks"                        |       261 |      16108 |     61.716 |
fromPrSeedingTracksV1Tracks_84cd...    INFO Number of counters : 1
 |    Counter                                      |     #     |    sum     | mean/eff^* | rms/err^*  |     min     |     max     |
 | "Nb of converted Tracks"                        |       261 |      25111 |     96.211 |
fromPrUpstreamTracksV1Tracks_965...    INFO Number of counters : 1
 |    Counter                                      |     #     |    sum     | mean/eff^* | rms/err^*  |     min     |     max     |
 | "Nb of converted Tracks"                        |       261 |       3910 |     14.981 |
fromPrVeloTracksV1TracksMerger_c...    INFO Number of counters : 1
 |    Counter                                      |     #     |    sum     | mean/eff^* | rms/err^*  |     min     |     max     |
 | "Nb of converted Tracks"                        |       261 |      55054 |     210.93 |
fromV2MuonPIDV1MuonPIDDownstream...    INFO Number of counters : 1
 |    Counter                                      |     #     |    sum     | mean/eff^* | rms/err^*  |     min     |     max     |
 | "Nb of Produced MuonPIDs"                       |       261 |       2509 |     9.6130 |
fromV2MuonPIDV1MuonPIDLong_a1b8b2c9    INFO Number of counters : 1
 |    Counter                                      |     #     |    sum     | mean/eff^* | rms/err^*  |     min     |     max     |
 | "Nb of Produced MuonPIDs"                       |       261 |       3395 |     13.008 |
fromV3TrackV1Track_8e1273ce            INFO Number of counters : 1
 |    Counter                                      |     #     |    sum     | mean/eff^* | rms/err^*  |     min     |     max     |
 | "Nb of Produced Tracks"                         |       261 |       1545 |     5.9195 |
