CaloClusterEff                      SUCCESS Booked 1 N-Tuples and 0 Event Tag Collections
CaloClusterEff                      SUCCESS List of booked N-Tuples in directory "FILE1/CaloClusterEff"
CaloClusterEff                      SUCCESS  ID=clusEff       Title="clusEff"                                 #items=13 {endVtx_X,endVtx_Y,endVtx_Z,endVtx_type,max_fMCP,f_cl,cl_e,cl_et,cl_x,cl_y,cl_z,cl}
CaloClusterEff_mergedPi0            SUCCESS Booked 1 N-Tuples and 0 Event Tag Collections
CaloClusterEff_mergedPi0            SUCCESS List of booked N-Tuples in directory "FILE1/CaloClusterEff_mergedPi0"
CaloClusterEff_mergedPi0            SUCCESS  ID=clusEff       Title="clusEff"                                 #items=13 {endVtx_X,endVtx_Y,endVtx_Z,endVtx_type,max_fMCP,f_cl,cl_e,cl_et,cl_x,cl_y,cl_z,cl}
CaloClusterEff_resolvedPi0          SUCCESS Booked 1 N-Tuples and 0 Event Tag Collections
CaloClusterEff_resolvedPi0          SUCCESS List of booked N-Tuples in directory "FILE1/CaloClusterEff_resolvedPi0"
CaloClusterEff_resolvedPi0          SUCCESS  ID=clusEff       Title="clusEff"                                 #items=13 {endVtx_X,endVtx_Y,endVtx_Z,endVtx_type,max_fMCP,f_cl,cl_e,cl_et,cl_x,cl_y,cl_z,cl}
CaloHypoEff                         SUCCESS Booked 3 N-Tuples and 0 Event Tag Collections
CaloHypoEff                         SUCCESS List of booked N-Tuples in directory "FILE1/CaloHypoEff"
CaloHypoEff                         SUCCESS  ID=ElectronHypos Title="ElectronHypos"                           #items=29 {hypo_trueID,hypo_3charge,hypo_parentID,hypo_origVtxX,hypo_origVtxY,hypo_origVtxZ,}
CaloHypoEff                         SUCCESS  ID=MCParts       Title="MCParts"                                 #items=10 {MCP_trueID,MCP_parentID,MCP_PE,MCP_PT,MCP_ETA,MCP_originVtxX,MCP_originVtxY,MCP_o}
CaloHypoEff                         SUCCESS  ID=PhotonHypos   Title="PhotonHypos"                             #items=29 {hypo_trueID,hypo_3charge,hypo_parentID,hypo_origVtxX,hypo_origVtxY,hypo_origVtxZ,}
GraphClustering_72971694               INFO Built <224.791> graph calo clustering clusters/event
RFileCnv                               INFO dumping contents of /NTUPLES/FILE1
TFile: name=outputfile_calo_eff_gamma_light_reco.root, title=Gaudi Trees, option=CREATE
NTupleSvc                              INFO NTuples saved successfully
ApplicationMgr                         INFO Application Manager Finalized successfully
ApplicationMgr                         INFO Application Manager Terminated successfully
BestTrackCreatorDownstream             INFO Number of counters : 3
 |    Counter                                      |     #     |    sum     | mean/eff^* | rms/err^*  |     min     |     max     |
 |*"BadInput"                                      |     87052 |          0 |( 0.000000 +- 0.000000)% |
 |*"FitFailed"                                     |     87052 |          0 |( 0.000000 +- 0.000000)% |
 | "FittedBefore"                                  |     87052 |
BestTrackCreatorForward                INFO Number of counters : 3
 |    Counter                                      |     #     |    sum     | mean/eff^* | rms/err^*  |     min     |     max     |
 |*"BadInput"                                      |     98555 |          0 |( 0.000000 +- 0.000000)% |
 |*"FitFailed"                                     |     98555 |          0 |( 0.000000 +- 0.000000)% |
 | "FittedBefore"                                  |     98555 |
BestTrackCreatorMatch                  INFO Number of counters : 3
 |    Counter                                      |     #     |    sum     | mean/eff^* | rms/err^*  |     min     |     max     |
 |*"BadInput"                                      |     92194 |          0 |( 0.000000 +- 0.000000)% |
 |*"FitFailed"                                     |     92194 |          0 |( 0.000000 +- 0.000000)% |
 | "FittedBefore"                                  |     92194 |
CaloAcceptanceEcalAlg_Downstream...    INFO Number of counters : 2
 |    Counter                                      |     #     |    sum     | mean/eff^* | rms/err^*  |     min     |     max     |
 | "#total tracks"                                 |      1000 |      45061 |     45.061 |     16.259 |      1.0000 |      114.00 |
 | "#tracks in acceptance"                         |      1000 |      40258 |     40.258 |     14.742 |      1.0000 |      107.00 |
CaloAcceptanceEcalAlg_Long_77984396    INFO Number of counters : 2
 |    Counter                                      |     #     |    sum     | mean/eff^* | rms/err^*  |     min     |     max     |
 | "#total tracks"                                 |      1000 |       6131 |     6.1310 |     3.5233 |      0.0000 |      21.000 |
 | "#tracks in acceptance"                         |      1000 |       4674 |     4.6740 |     2.8757 |      0.0000 |      16.000 |
CaloAcceptanceEcalAlg_Ttrack_dc2...    INFO Number of counters : 2
 |    Counter                                      |     #     |    sum     | mean/eff^* | rms/err^*  |     min     |     max     |
 | "#total tracks"                                 |      1000 |     106655 |     106.66 |     77.834 |      5.0000 |      713.00 |
 | "#tracks in acceptance"                         |      1000 |      85229 |     85.229 |     65.534 |      5.0000 |      612.00 |
CaloClusterEff                         INFO Number of counters : 5
 |    Counter                                      |     #     |    sum     | mean/eff^* | rms/err^*  |     min     |     max     |
 | "# reconstructed"                               |      1000 |        353 |    0.35300 |    0.47999 |      0.0000 |      2.0000 |
 | "# reconstructible"                             |      1000 |        429 |    0.42900 |    0.49896 |      0.0000 |      2.0000 |
 | "# signal"                                      |      1000 |       2028 |     2.0280 |    0.25143 |      2.0000 |      6.0000 |
 | "More than 1 endVertex found for signal"        |         2 |
 |*"reco efficiency"                               |       429 |        353 |( 82.28438 +- 1.843352)% |
CaloClusterEff_mergedPi0               INFO Number of counters : 4
 |    Counter                                      |     #     |    sum     | mean/eff^* | rms/err^*  |     min     |     max     |
 | "# reconstructed"                               |      1000 |          2 |  0.0020000 |   0.044677 |      0.0000 |      1.0000 |
 | "# reconstructible"                             |      1000 |         25 |   0.025000 |    0.17993 |      0.0000 |      3.0000 |
 | "# signal"                                      |      1000 |        282 |    0.28200 |    0.92762 |      0.0000 |      8.0000 |
 |*"reco efficiency"                               |        25 |          2 |( 8.000000 +- 5.425864)% |
CaloClusterEff_resolvedPi0             INFO Number of counters : 5
 |    Counter                                      |     #     |    sum     | mean/eff^* | rms/err^*  |     min     |     max     |
 | "# reconstructed"                               |      1000 |         17 |   0.017000 |    0.14391 |      0.0000 |      2.0000 |
 | "# reconstructible"                             |      1000 |         62 |   0.062000 |    0.31009 |      0.0000 |      3.0000 |
 | "# signal"                                      |      1000 |        494 |    0.49400 |     1.6468 |      0.0000 |      14.000 |
 | "More than 1 endVertex found for signal"        |         2 |
 |*"reco efficiency"                               |        62 |         17 |( 27.41935 +- 5.665564)% |
CaloClusterMCTruth_f74c042c            INFO Number of counters : 2
 |    Counter                                      |     #     |    sum     | mean/eff^* | rms/err^*  |     min     |     max     |
 | "#CC2MC links"                                  |      1000 |    4762667 |     4762.7 |
 |*"No MC information for the cluster is found"    |    224791 |        517 |(0.2299914 +- 0.01010337)% |
CaloFutureClusterCovarianceAlg_5...    INFO Number of counters : 1
 |    Counter                                      |     #     |    sum     | mean/eff^* | rms/err^*  |     min     |     max     |
 | "# clusters"                                    |    224791 |
CaloFutureClusterCovarianceAlg_5...    INFO Number of counters : 3
 |    Counter                                      |     #     |    sum     | mean/eff^* | rms/err^*  |     min     |     max     |
 | "Corrected Clusters: # cells "                  |     18983 |      82308 |     4.3359 |     1.3348 |      2.0000 |      12.000 |
 | "Corrected Clusters: ET"                        |     18983 |    5181420 |     272.95 |     492.65 |      1.8000 |      18718. |
 | "Corrected Clusters: size ratio"                |     18983 |    9717.55 |    0.51191 |    0.44661 | -1.4689e-15 |      4.7587 |
CaloFutureDigit2MCLinks2Table_b7...    INFO Number of counters : 2
 |    Counter                                      |     #     |    sum     | mean/eff^* | rms/err^*  |     min     |     max     |
 | "#CD2MC links"                                  |      1000 |          0 |     0.0000 |
 | "Empty Relation table"                          |      1000 |
CaloHypoEff                            INFO Number of counters : 6
 |    Counter                                      |     #     |    sum     | mean/eff^* | rms/err^*  |     min     |     max     |
 | "# Electrons with reco cluster"                 |      1000 |          5 |  0.0050000 |   0.070534 |      0.0000 |      1.0000 |
 | "# Photons with reco cluster"                   |      1000 |        309 |    0.30900 |    0.46424 |      0.0000 |      2.0000 |
 |*"Bkg fraction in Electron hypos"                |     26626 |       1144 |( 4.296552 +- 0.1242713)% |
 |*"Bkg fraction in Photon hypos"                  |     46987 |      17560 |( 37.37204 +- 0.2231869)% |
 |*"Electron hypo efficiency"                      |         5 |          3 |( 60.00000 +- 21.90890)% |
 |*"Photon hypo efficiency"                        |       309 |        288 |( 93.20388 +- 1.431753)% |
CaloSelectiveTrackMatchAlg_Downs...    INFO Number of counters : 2
 |    Counter                                      |     #     |    sum     | mean/eff^* | rms/err^*  |     min     |     max     |
 | "#links in table"                               |      1000 |      34176 |     34.176 |     13.909 |      1.0000 |      102.00 |
 | "average chi2"                                  |     34176 |   7189.252 |    0.21036 |    0.31846 |  4.4517e-07 |      8.3667 |
CaloSelectiveTrackMatchAlg_Long_...    INFO Number of counters : 2
 |    Counter                                      |     #     |    sum     | mean/eff^* | rms/err^*  |     min     |     max     |
 | "#links in table"                               |      1000 |       4020 |     4.0200 |     2.7323 |      0.0000 |      15.000 |
 | "average chi2"                                  |      4020 |   7109.111 |     1.7684 |     2.9217 |  2.3533e-05 |      41.226 |
CaloSelectiveTrackMatchAlg_Ttrac...    INFO Number of counters : 2
 |    Counter                                      |     #     |    sum     | mean/eff^* | rms/err^*  |     min     |     max     |
 | "#links in table"                               |      1000 |      70456 |     70.456 |     51.539 |      2.0000 |      495.00 |
 | "average chi2"                                  |     70456 |   2622.622 |   0.037224 |   0.067416 |  3.1126e-08 |      2.2171 |
ClassifyPhotonElectronAlg_e20f57bd     INFO Number of counters : 14
 |    Counter                                      |     #     |    sum     | mean/eff^* | rms/err^*  |     min     |     max     |
 | "Electron Delta(E)"                             |     84090 |-3.806184e+07 |    -452.63 |     588.74 |     -7914.2 |      11705. |
 | "Electron Delta(X)"                             |     84090 |  -21669.11 |   -0.25769 |     12.231 |     -91.527 |      62.141 |
 | "Electron Delta(Y)"                             |     84090 |  -15762.93 |   -0.18745 |     12.199 |     -51.316 |      60.572 |
 | "Electron Delta(Z)"                             |     84090 |    5919880 |     70.399 |     13.476 |     -5.0801 |      134.22 |
 | "Electron corrected energy"                     |     84090 |5.607458e+08 |     6668.4 |     8565.2 |      29.867 |  5.5005e+05 |
 | "Electrons pT-rejected after correction"        |       606 |
 | "Photon Delta(E)"                               |    146290 |-3.742654e+07 |    -255.84 |     434.37 |     -16904. |      5985.6 |
 | "Photon Delta(X)"                               |    146290 |  -41894.44 |   -0.28638 |     12.772 |     -111.65 |      71.722 |
 | "Photon Delta(Y)"                               |    146290 |  -38094.86 |   -0.26041 |     12.772 |     -91.936 |      82.069 |
 | "Photon Delta(Z)"                               |    146290 |    8834120 |     60.388 |     13.338 |     -6.8438 |      134.80 |
 | "Photon corrected energy"                       |    146290 |5.45548e+08 |     3729.2 |     7146.2 |      25.879 |  5.7479e+05 |
 | "Photons pT-rejected after correction"          |      2326 |
 | "electronHypos"                                 |      1000 |      83484 |     83.484 |     36.786 |      4.0000 |      255.00 |
 | "photonHypos"                                   |      1000 |     143964 |     143.96 |     42.556 |      11.000 |      240.00 |
ClassifyPhotonElectronAlg_e20f57...    INFO Number of counters : 7
 |    Counter                                      |     #     |    sum     | mean/eff^* | rms/err^*  |     min     |     max     |
 | "<alpha> Inner"                                 |     63934 |   63565.08 |    0.99423 |   0.019408 |     0.96433 |      1.1636 |
 | "<alpha> Middle"                                |     61965 |   62330.06 |     1.0059 |   0.020080 |     0.97675 |      1.1990 |
 | "<alpha> Outer"                                 |    104069 |   103994.6 |    0.99928 |   0.016026 |     0.97360 |      1.1329 |
 | "Pileup offset"                                 |    229968 |9.134838e+07 |     397.22 |     471.14 |     -110.90 |      5703.9 |
 | "Pileup scale"                                  |    230380 |    1473834 |     6.3974 |     2.1779 |      1.0000 |      14.000 |
 | "Pileup subtracted ratio"                       |    229968 |   202193.7 |    0.87923 |    0.12019 |  0.00073091 |      1.1127 |
 | "Skip negative energy correction"               |       412 |
GraphClustering_72971694               INFO Number of counters : 4
 |    Counter                                      |     #     |    sum     | mean/eff^* | rms/err^*  |     min     |     max     |
 | "# clusters"                                    |      1000 |     224791 |     224.79 |     72.342 |      16.000 |      420.00 |
 | "Cluster energy"                                |    224791 |1.143519e+09 |     5087.0 |     8064.1 |      5.2000 |  5.9169e+05 |
 | "Cluster size"                                  |    224791 |    2301926 |     10.240 |     2.4572 |      4.0000 |      29.000 |
 | "Negative energy clusters"                      |         8 |          9 |     1.1250 |    0.33072 |      1.0000 |      2.0000 |
HLTControlFlowMgr                      INFO Number of counters : 1
 |    Counter                                      |     #     |    sum     | mean/eff^* | rms/err^*  |     min     |     max     |
 | "Processed events"                              |      1000 |
LHCb__Converters__Track__SOA__fr...    INFO Number of counters : 1
 |    Counter                                      |     #     |    sum     | mean/eff^* | rms/err^*  |     min     |     max     |
 | "Nb of Produced Tracks"                         |      1000 |       6131 |     6.1310 |
LHCb__Converters__Track__SOA__fr...    INFO Number of counters : 1
 |    Counter                                      |     #     |    sum     | mean/eff^* | rms/err^*  |     min     |     max     |
 | "Nb of Produced Tracks"                         |      1000 |     106655 |     106.66 |
LHCb__Converters__Track__SOA__fr...    INFO Number of counters : 1
 |    Counter                                      |     #     |    sum     | mean/eff^* | rms/err^*  |     min     |     max     |
 | "Nb of Produced Tracks"                         |      1000 |      45061 |     45.061 |
PrForwardTrackingVelo_6024f9ec         INFO Number of counters : 10
 |    Counter                                      |     #     |    sum     | mean/eff^* | rms/err^*  |     min     |     max     |
 | "Accepted input tracks"                         |      1000 |     186868 |     186.87 |
 | "Created long tracks"                           |      1000 |      98557 |     98.557 |
 | "Input tracks"                                  |      1000 |     195904 |     195.90 |
 | "Number of candidate bins per track"            |    186868 |    3248719 |     17.385 |     23.171 |      0.0000 |      177.00 |
 | "Number of complete candidates/track 1st Loop"  |    174110 |     110468 |    0.63447 |    0.70914 |      0.0000 |      7.0000 |
 | "Number of complete candidates/track 2nd Loop"  |     94065 |       8494 |   0.090299 |    0.30661 |      0.0000 |      4.0000 |
 | "Number of x candidates per track 1st Loop"     |    174110 |     479055 |     2.7515 |     3.4626 |
 | "Number of x candidates per track 2nd Loop"     |     94065 |     745133 |     7.9215 |     11.881 |
 | "Percentage second loop execution"              |    174110 |      94065 |    0.54026 |
 | "Removed duplicates"                            |      1000 |       5989 |     5.9890 |
PrForwardTrackingVelo_6024f9ec.P...    INFO Number of counters : 2
 |    Counter                                      |     #     |    sum     | mean/eff^* | rms/err^*  |     min     |     max     |
 | "#UT hits added"                                |     84050 |     334900 |     3.9845 |
 | "#tracks with hits added"                       |     84050 |
PrHybridSeeding_4d0337cc               INFO Number of counters : 21
 |    Counter                                      |     #     |    sum     | mean/eff^* | rms/err^*  |     min     |     max     |
 | "Created T2x1 three-hit combinations in case 0" |   3779483 |    2392721 |    0.63308 |    0.64329 |      0.0000 |      6.0000 |
 | "Created T2x1 three-hit combinations in case 1" |   5195895 |    3609253 |    0.69464 |    0.77289 |      0.0000 |      12.000 |
 | "Created T2x1 three-hit combinations in case 2" |   8578752 |    7705329 |    0.89819 |     1.0710 |      0.0000 |      24.000 |
 | "Created XZ tracks (part 0)"                    |      3000 |     425512 |     141.84 |     232.19 |      0.0000 |      3026.0 |
 | "Created XZ tracks (part 1)"                    |      3000 |     401643 |     133.88 |     235.89 |      0.0000 |      4566.0 |
 | "Created XZ tracks in case 0"                   |      2000 |     230785 |     115.39 |     147.08 |      0.0000 |      1698.0 |
 | "Created XZ tracks in case 1"                   |      2000 |     285985 |     142.99 |     224.56 |      1.0000 |      2901.0 |
 | "Created XZ tracks in case 2"                   |      2000 |     310385 |     155.19 |     302.48 |      0.0000 |      4566.0 |
 | "Created full hit combinations in case 0"       |    435449 |     435449 |     1.0000 |     0.0000 |      1.0000 |      1.0000 |
 | "Created full hit combinations in case 1"       |    359127 |     359127 |     1.0000 |     0.0000 |      1.0000 |      1.0000 |
 | "Created full hit combinations in case 2"       |    509135 |     509135 |     1.0000 |     0.0000 |      1.0000 |      1.0000 |
 | "Created seed tracks"                           |      2000 |     157468 |     78.734 |     47.971 |      2.0000 |      541.00 |
 | "Created seed tracks (part 0)"                  |      1000 |      89214 |     89.214 |     53.982 |      4.0000 |      458.00 |
 | "Created seed tracks (part 1)"                  |      1000 |      86989 |     86.989 |     54.397 |      2.0000 |      602.00 |
 | "Created seed tracks in case 0"                 |      2000 |      81270 |     40.635 |     24.711 |      0.0000 |      271.00 |
 | "Created seed tracks in case 1"                 |      2000 |     145990 |     72.995 |     41.883 |      2.0000 |      466.00 |
 | "Created seed tracks in case 2"                 |      2000 |     166891 |     83.445 |     52.447 |      2.0000 |      593.00 |
 | "Created seed tracks in recovery step"          |      1000 |       9312 |     9.3120 |     6.0220 |      0.0000 |      36.000 |
 | "Created two-hit combinations in case 0"        |    401702 |1.198102e+07 |     29.826 |     20.606 |      0.0000 |      144.00 |
 | "Created two-hit combinations in case 1"        |    359193 |1.479005e+07 |     41.176 |     24.719 |      0.0000 |      176.00 |
 | "Created two-hit combinations in case 2"        |    294712 |1.881542e+07 |     63.843 |     38.578 |      1.0000 |      247.00 |
PrLongLivedTracking_fc34af4c           INFO Number of counters : 1
 |    Counter                                      |     #     |    sum     | mean/eff^* | rms/err^*  |     min     |     max     |
 | "#Downstream tracks made"                       |      1000 |      89191 |     89.191 |
PrMatchNN_3856ae45                     INFO Number of counters : 3
 |    Counter                                      |     #     |    sum     | mean/eff^* | rms/err^*  |     min     |     max     |
 | "#MatchingChi2"                                 |      1000 |    1850180 |     1850.2 |
 | "#MatchingMLP"                                  |     97603 |    81254.9 |    0.83250 |
 | "#MatchingTracks"                               |      1000 |      97603 |     97.603 |
PrMatchNN_3856ae45.PrAddUTHitsTool     INFO Number of counters : 2
 |    Counter                                      |     #     |    sum     | mean/eff^* | rms/err^*  |     min     |     max     |
 | "#UT hits added"                                |     82878 |     330206 |     3.9842 |
 | "#tracks with hits added"                       |     82878 |
PrStorePrUTHits_df75b912               INFO Number of counters : 1
 |    Counter                                      |     #     |    sum     | mean/eff^* | rms/err^*  |     min     |     max     |
 | "#banks"                                        |      1000 |     216000 |     216.00 |
PrStoreSciFiHits_fb0eba02              INFO Number of counters : 25
 |    Counter                                      |     #     |    sum     | mean/eff^* | rms/err^*  |     min     |     max     |
 | "Average X in T1U"                              |    409865 |    9549410 |     23.299 |     1192.3 |     -2656.3 |      2656.4 |
 | "Average X in T1V"                              |    414230 |    4546185 |     10.975 |     1182.3 |     -2656.3 |      2656.4 |
 | "Average X in T1X1"                             |    401702 |1.519778e+07 |     37.833 |     1208.1 |     -2646.2 |      2646.2 |
 | "Average X in T1X2"                             |    419395 |    3837679 |     9.1505 |     1177.0 |     -2646.2 |      2646.2 |
 | "Average X in T2U"                              |    401676 |    7643412 |     19.029 |     1198.1 |     -2656.3 |      2656.4 |
 | "Average X in T2V"                              |    413121 |    6143523 |     14.871 |     1188.5 |     -2656.3 |      2656.4 |
 | "Average X in T2X1"                             |    385791 |    7054072 |     18.285 |     1203.0 |     -2646.2 |      2646.2 |
 | "Average X in T2X2"                             |    424480 |    5345190 |     12.592 |     1182.4 |     -2646.2 |      2646.2 |
 | "Average X in T3U"                              |    443864 |    4558037 |     10.269 |     1421.1 |     -3188.4 |      3188.4 |
 | "Average X in T3V"                              |    455860 |    4809457 |     10.550 |     1412.8 |     -3188.4 |      3188.4 |
 | "Average X in T3X1"                             |    428141 |    2610582 |     6.0975 |     1424.8 |     -3176.2 |      3176.2 |
 | "Average X in T3X2"                             |    470442 |    7651813 |     16.265 |     1402.7 |     -3176.2 |      3176.2 |
 | "Hits in T1U"                                   |      4000 |     409865 |     102.47 |     37.578 |      15.000 |      266.00 |
 | "Hits in T1V"                                   |      4000 |     414230 |     103.56 |     38.016 |      20.000 |      282.00 |
 | "Hits in T1X1"                                  |      4000 |     401702 |     100.43 |     36.313 |      19.000 |      257.00 |
 | "Hits in T1X2"                                  |      4000 |     419395 |     104.85 |     37.797 |      18.000 |      261.00 |
 | "Hits in T2U"                                   |      4000 |     401676 |     100.42 |     36.496 |      12.000 |      267.00 |
 | "Hits in T2V"                                   |      4000 |     413121 |     103.28 |     37.425 |      15.000 |      355.00 |
 | "Hits in T2X1"                                  |      4000 |     385791 |     96.448 |     34.676 |      8.0000 |      274.00 |
 | "Hits in T2X2"                                  |      4000 |     424480 |     106.12 |     38.520 |      11.000 |      267.00 |
 | "Hits in T3U"                                   |      4000 |     443864 |     110.97 |     39.174 |      21.000 |      307.00 |
 | "Hits in T3V"                                   |      4000 |     455860 |     113.97 |     40.567 |      21.000 |      361.00 |
 | "Hits in T3X1"                                  |      4000 |     428141 |     107.04 |     37.825 |      18.000 |      283.00 |
 | "Hits in T3X2"                                  |      4000 |     470442 |     117.61 |     41.439 |      26.000 |      288.00 |
 | "Total number of hits"                          |      1000 |    5068567 |     5068.6 |     1647.9 |      1069.0 |      10813. |
PrStoreUTHit_6220b56a                  INFO Number of counters : 1
 |    Counter                                      |     #     |    sum     | mean/eff^* | rms/err^*  |     min     |     max     |
 | "#banks"                                        |      1000 |     216000 |     216.00 |
PrVPHitsToVPLightClusters_599554c8     INFO Number of counters : 1
 |    Counter                                      |     #     |    sum     | mean/eff^* | rms/err^*  |     min     |     max     |
 | "Nb of Produced Clusters"                       |      1000 |    2708972 |     2709.0 |
TrackBeamLineVertexFinderSoA_9f5...    INFO Number of counters : 3
 |    Counter                                      |     #     |    sum     | mean/eff^* | rms/err^*  |     min     |     max     |
 |*"Fraction of failed PV fits"                    |      5967 |          3 |(0.05027652 +- 0.02901987)% |
 |*"Fraction of unconverged PV fits"               |      5967 |        324 |( 5.429864 +- 0.2933550)% |
 | "Nb PVs"                                        |      1000 |       5904 |     5.9040 |
TrackEventFitterDownstream             INFO Number of counters : 8
 |    Counter                                      |     #     |    sum     | mean/eff^* | rms/err^*  |     min     |     max     |
 |*"Fit Failure Rate"                              |     87052 |          0 |( 0.000000 +- 0.000000)% |
 | "badChisq"                                      |     87052 |      47902 |    0.55027 |    0.49747 |      0.0000 |      1.0000 |
 | "chisqprobSum"                                  |     87052 |   11622.89 |    0.13352 |    0.23528 |      0.0000 |     0.99997 |
 | "flipCharge"                                    |     87052 |          0 |     0.0000 |     0.0000 |      0.0000 |      0.0000 |
 | "nBadInput"                                     |      1000 |          0 |     0.0000 |     0.0000 |      0.0000 |      0.0000 |
 | "nFitted"                                       |      1000 |      87052 |     87.052 |     41.786 |      3.0000 |      326.00 |
 | "nTracks"                                       |      1000 |      87052 |     87.052 |     41.786 |      3.0000 |      326.00 |
 | "numOutliers"                                   |     87052 |     119263 |     1.3700 |    0.78458 |      0.0000 |      2.0000 |
TrackEventFitterForward                INFO Number of counters : 8
 |    Counter                                      |     #     |    sum     | mean/eff^* | rms/err^*  |     min     |     max     |
 |*"Fit Failure Rate"                              |     98557 |          0 |( 0.000000 +- 0.000000)% |
 | "badChisq"                                      |     98557 |      95703 |    0.97104 |    0.16769 |      0.0000 |      1.0000 |
 | "chisqprobSum"                                  |     98557 |   561.0233 |  0.0056924 |   0.050476 |      0.0000 |     0.99817 |
 | "flipCharge"                                    |     98557 |          0 |     0.0000 |     0.0000 |      0.0000 |      0.0000 |
 | "nBadInput"                                     |      1000 |          0 |     0.0000 |     0.0000 |      0.0000 |      0.0000 |
 | "nFitted"                                       |      1000 |      98557 |     98.557 |     56.276 |      3.0000 |      491.00 |
 | "nTracks"                                       |      1000 |      98557 |     98.557 |     56.276 |      3.0000 |      491.00 |
 | "numOutliers"                                   |     98557 |     290026 |     2.9427 |    0.95948 |      0.0000 |      4.0000 |
TrackEventFitterMatch                  INFO Number of counters : 8
 |    Counter                                      |     #     |    sum     | mean/eff^* | rms/err^*  |     min     |     max     |
 |*"Fit Failure Rate"                              |     92195 |          0 |( 0.000000 +- 0.000000)% |
 | "badChisq"                                      |     92195 |      92076 |    0.99871 |   0.035904 |      0.0000 |      1.0000 |
 | "chisqprobSum"                                  |     92195 |   17.40562 | 0.00018879 |  0.0084177 |      0.0000 |     0.88932 |
 | "flipCharge"                                    |     92195 |          2 | 2.1693e-05 |  0.0046575 |      0.0000 |      1.0000 |
 | "nBadInput"                                     |      1000 |          0 |     0.0000 |     0.0000 |      0.0000 |      0.0000 |
 | "nFitted"                                       |      1000 |      92195 |     92.195 |     46.489 |      1.0000 |      332.00 |
 | "nTracks"                                       |      1000 |      92195 |     92.195 |     46.489 |      1.0000 |      332.00 |
 | "numOutliers"                                   |     92195 |     280322 |     3.0405 |    0.92719 |      0.0000 |      4.0000 |
VeloClusterTrackingSIMD_87c18651       INFO Number of counters : 2
 |    Counter                                      |     #     |    sum     | mean/eff^* | rms/err^*  |     min     |     max     |
 | "Nb of Produced Clusters"                       |      1000 |    2708972 |     2709.0 |
 | "Nb of Produced Tracks"                         |      1000 |     310360 |     310.36 |
fromPrDownstreamTracksV1Tracks_b...    INFO Number of counters : 1
 |    Counter                                      |     #     |    sum     | mean/eff^* | rms/err^*  |     min     |     max     |
 | "Nb of converted Tracks"                        |      1000 |      89191 |     89.191 |
fromPrForwardTracksV1Tracks_f53f...    INFO Number of counters : 1
 |    Counter                                      |     #     |    sum     | mean/eff^* | rms/err^*  |     min     |     max     |
 | "Nb of converted Tracks"                        |      1000 |      98557 |     98.557 |
fromPrMatchTracksV1Tracks_67f41548     INFO Number of counters : 1
 |    Counter                                      |     #     |    sum     | mean/eff^* | rms/err^*  |     min     |     max     |
 | "Nb of converted Tracks"                        |      1000 |      97603 |     97.603 |
fromPrSeedingTracksV1Tracks_84cd...    INFO Number of counters : 1
 |    Counter                                      |     #     |    sum     | mean/eff^* | rms/err^*  |     min     |     max     |
 | "Nb of converted Tracks"                        |      1000 |     157468 |     157.47 |
fromPrVeloTracksV1TracksMerger_f...    INFO Number of counters : 1
 |    Counter                                      |     #     |    sum     | mean/eff^* | rms/err^*  |     min     |     max     |
 | "Nb of converted Tracks"                        |      1000 |     310360 |     310.36 |
