GraphClustering_72971694               INFO Built <153.876> graph calo clustering clusters/event
ApplicationMgr                         INFO Application Manager Finalized successfully
ApplicationMgr                         INFO Application Manager Terminated successfully
CaloAcceptanceBremAlg_Downstream...    INFO Number of counters : 2
 |    Counter                                      |     #     |    sum     | mean/eff^* | rms/err^*  |     min     |     max     |
 | "#total tracks"                                 |        89 |       2646 |     29.730 |     14.574 |      3.0000 |      62.000 |
 | "#tracks in acceptance"                         |        89 |       2094 |     23.528 |     11.913 |      2.0000 |      53.000 |
CaloAcceptanceBremAlg_Long_30da226c    INFO Number of counters : 2
 |    Counter                                      |     #     |    sum     | mean/eff^* | rms/err^*  |     min     |     max     |
 | "#total tracks"                                 |        89 |        360 |     4.0449 |     2.9219 |      0.0000 |      12.000 |
 | "#tracks in acceptance"                         |        89 |        129 |     1.4494 |     1.6006 |      0.0000 |      7.0000 |
CaloAcceptanceEcalAlg_Downstream...    INFO Number of counters : 2
 |    Counter                                      |     #     |    sum     | mean/eff^* | rms/err^*  |     min     |     max     |
 | "#total tracks"                                 |        89 |       2646 |     29.730 |     14.574 |      3.0000 |      62.000 |
 | "#tracks in acceptance"                         |        89 |       2375 |     26.685 |     13.398 |      3.0000 |      56.000 |
CaloAcceptanceEcalAlg_Long_e08a900c    INFO Number of counters : 2
 |    Counter                                      |     #     |    sum     | mean/eff^* | rms/err^*  |     min     |     max     |
 | "#total tracks"                                 |        89 |        360 |     4.0449 |     2.9219 |      0.0000 |      12.000 |
 | "#tracks in acceptance"                         |        89 |        273 |     3.0674 |     2.2675 |      0.0000 |      10.000 |
CaloAcceptanceEcalAlg_Ttrack_f06...    INFO Number of counters : 2
 |    Counter                                      |     #     |    sum     | mean/eff^* | rms/err^*  |     min     |     max     |
 | "#total tracks"                                 |        89 |       5117 |     57.494 |     31.709 |      4.0000 |      115.00 |
 | "#tracks in acceptance"                         |        89 |       4009 |     45.045 |     25.330 |      3.0000 |      92.000 |
CaloAcceptanceHcalAlg_Downstream...    INFO Number of counters : 2
 |    Counter                                      |     #     |    sum     | mean/eff^* | rms/err^*  |     min     |     max     |
 | "#total tracks"                                 |        89 |       2646 |     29.730 |     14.574 |      3.0000 |      62.000 |
 | "#tracks in acceptance"                         |        89 |       2247 |     25.247 |     12.918 |      3.0000 |      54.000 |
CaloAcceptanceHcalAlg_Long_88675248    INFO Number of counters : 2
 |    Counter                                      |     #     |    sum     | mean/eff^* | rms/err^*  |     min     |     max     |
 | "#total tracks"                                 |        89 |        360 |     4.0449 |     2.9219 |      0.0000 |      12.000 |
 | "#tracks in acceptance"                         |        89 |        274 |     3.0787 |     2.2696 |      0.0000 |      10.000 |
CaloFutureClusterCovarianceAlg_5...    INFO Number of counters : 1
 |    Counter                                      |     #     |    sum     | mean/eff^* | rms/err^*  |     min     |     max     |
 | "# clusters"                                    |     13695 |
CaloFutureClusterCovarianceAlg_5...    INFO Number of counters : 3
 |    Counter                                      |     #     |    sum     | mean/eff^* | rms/err^*  |     min     |     max     |
 | "Corrected Clusters: # cells "                  |      1466 |       6247 |     4.2613 |     1.2867 |      2.0000 |      10.000 |
 | "Corrected Clusters: ET"                        |      1466 |   346317.8 |     236.23 |     273.50 |      2.0000 |      3286.4 |
 | "Corrected Clusters: size ratio"                |      1466 |   760.9261 |    0.51905 |    0.45622 | -3.6723e-16 |      3.1267 |
CaloFutureMergedPi0_bf434e2c           INFO Number of counters : 12
 |    Counter                                      |     #     |    sum     | mean/eff^* | rms/err^*  |     min     |     max     |
 |*"Cluster without 2nd seed found"                |       234 |          0 |( 0.000000 +- 0.000000)% |
 | "Corrected energy"                              |       468 |    5450497 |     11646. |     12560. |      143.96 |      82446. |
 |*"Fails to set covariance"                       |       468 |          0 |( 0.000000 +- 0.000000)% |
 |*"Fails to set spread"                           |       468 |          0 |( 0.000000 +- 0.000000)% |
 |*"Fails to tag(E) cluster (1)"                   |       234 |          0 |( 0.000000 +- 0.000000)% |
 |*"Fails to tag(E) cluster (2)"                   |       234 |          0 |( 0.000000 +- 0.000000)% |
 | "Photon Delta(E)"                               |       468 |  -206834.5 |    -441.95 |     581.80 |     -3260.2 |      1609.9 |
 | "Photon Delta(X)"                               |       468 |   315.6231 |    0.67441 |     12.778 |     -22.781 |      28.613 |
 | "Photon Delta(Y)"                               |       468 |  -436.7163 |   -0.93315 |     12.906 |     -22.774 |      33.869 |
 | "Photon Delta(Z)"                               |       468 |   37776.73 |     80.720 |     11.719 |      27.925 |      110.74 |
 | "clusters => mergedPi0s"                        |        89 |        234 |     2.6292 |
 | "clusters => splitClusters"                     |        89 |        468 |     5.2584 |
CaloFutureMergedPi0_bf434e2c.Cal...    INFO Number of counters : 6
 |    Counter                                      |     #     |    sum     | mean/eff^* | rms/err^*  |     min     |     max     |
 | "<alpha> Inner"                                 |       138 |   136.8808 |    0.99189 |   0.022736 |     0.96494 |      1.0563 |
 | "<alpha> Middle"                                |        80 |   79.97888 |    0.99974 |   0.017107 |     0.97767 |      1.0702 |
 | "<alpha> Outer"                                 |       250 |   248.7891 |    0.99516 |   0.017589 |     0.97376 |      1.0947 |
 | "Pileup offset"                                 |       468 |   156903.4 |     335.26 |     390.05 |      1.8529 |      2511.2 |
 | "Pileup scale"                                  |       468 |       2522 |     5.3889 |     1.7414 |      1.0000 |      9.0000 |
 | "Pileup subtracted ratio"                       |       468 |   451.4447 |    0.96463 |   0.030260 |     0.80699 |     0.99927 |
CaloFutureMergedPi0_bf434e2c.Eca...    INFO Number of counters : 3
 |    Counter                                      |     #     |    sum     | mean/eff^* | rms/err^*  |     min     |     max     |
 | "Corrected Clusters: # cells "                  |        56 |        324 |     5.7857 |     1.5085 |      4.0000 |      9.0000 |
 | "Corrected Clusters: ET"                        |        56 |      51404 |     917.93 |     707.96 |      77.400 |      3240.0 |
 | "Corrected Clusters: size ratio"                |        56 |   23.12214 |    0.41290 |    0.36794 |    0.034043 |      1.9012 |
CaloSelectiveBremMatchAlg_Downst...    INFO Number of counters : 3
 |    Counter                                      |     #     |    sum     | mean/eff^* | rms/err^*  |     min     |     max     |
 | "#links in table"                               |        89 |        543 |     6.1011 |     5.3107 |      0.0000 |      25.000 |
 | "average chi2"                                  |       543 |   1484.739 |     2.7343 |     3.7286 |  0.00045802 |      31.917 |
 | "average energy (track based)"                  |      2094 |    37768.3 |     18.036 |     68.116 |      0.0000 |      1554.0 |
CaloSelectiveBremMatchAlg_Long_5...    INFO Number of counters : 3
 |    Counter                                      |     #     |    sum     | mean/eff^* | rms/err^*  |     min     |     max     |
 | "#links in table"                               |        89 |         34 |    0.38202 |    0.82796 |      0.0000 |      5.0000 |
 | "average chi2"                                  |        34 |   378.7287 |     11.139 |     10.594 |    0.021054 |      40.202 |
 | "average energy (track based)"                  |       129 |   24420.51 |     189.31 |     606.73 |      0.0000 |      5137.3 |
CaloSelectiveElectronMatchAlg_Do...    INFO Number of counters : 2
 |    Counter                                      |     #     |    sum     | mean/eff^* | rms/err^*  |     min     |     max     |
 | "#links in table"                               |        89 |       1914 |     21.506 |     12.081 |      2.0000 |      49.000 |
 | "average chi2"                                  |      1914 |   20515.88 |     10.719 |     22.011 |   0.0025371 |      375.92 |
CaloSelectiveElectronMatchAlg_Lo...    INFO Number of counters : 2
 |    Counter                                      |     #     |    sum     | mean/eff^* | rms/err^*  |     min     |     max     |
 | "#links in table"                               |        89 |        232 |     2.6067 |     2.3541 |      0.0000 |      11.000 |
 | "average chi2"                                  |       232 |   33392.59 |     143.93 |     309.81 |    0.071827 |      2441.2 |
CaloSelectiveTrackMatchAlg_Downs...    INFO Number of counters : 2
 |    Counter                                      |     #     |    sum     | mean/eff^* | rms/err^*  |     min     |     max     |
 | "#links in table"                               |        89 |       1939 |     21.787 |     12.167 |      2.0000 |      49.000 |
 | "average chi2"                                  |      1939 |   544.8031 |    0.28097 |    0.48532 |  2.8126e-05 |      8.7533 |
CaloSelectiveTrackMatchAlg_Long_...    INFO Number of counters : 2
 |    Counter                                      |     #     |    sum     | mean/eff^* | rms/err^*  |     min     |     max     |
 | "#links in table"                               |        89 |        233 |     2.6180 |     2.3536 |      0.0000 |      11.000 |
 | "average chi2"                                  |       233 |   534.7147 |     2.2949 |     3.4414 |   0.0012498 |      23.254 |
CaloSelectiveTrackMatchAlg_Ttrac...    INFO Number of counters : 2
 |    Counter                                      |     #     |    sum     | mean/eff^* | rms/err^*  |     min     |     max     |
 | "#links in table"                               |        89 |       3285 |     36.910 |     21.270 |      0.0000 |      77.000 |
 | "average chi2"                                  |      3285 |   548.2462 |    0.16689 |    0.30882 |  1.8640e-05 |      8.5837 |
CaloTrackBasedElectronShowerAlg_...    INFO Number of counters : 2
 |    Counter                                      |     #     |    sum     | mean/eff^* | rms/err^*  |     min     |     max     |
 | "average DLL"                                   |      2375 |  -281.4394 |   -0.11850 |    0.19773 |     -2.6275 |     0.56068 |
 | "average E/p"                                   |      2375 |   29.94204 |   0.012607 |   0.016446 |      0.0000 |     0.19822 |
CaloTrackBasedElectronShowerAlg_...    INFO Number of counters : 2
 |    Counter                                      |     #     |    sum     | mean/eff^* | rms/err^*  |     min     |     max     |
 | "average DLL"                                   |       273 |   -278.743 |    -1.0210 |     1.5988 |     -10.234 |      1.9716 |
 | "average E/p"                                   |       273 |   21.98001 |   0.080513 |    0.10451 |      0.0000 |     0.80219 |
CaloTrackToHcalEnergyAlg_Downstr...    INFO Number of counters : 1
 |    Counter                                      |     #     |    sum     | mean/eff^* | rms/err^*  |     min     |     max     |
 | "energy (calo) associated to track"             |      2247 |    8458344 |     3764.3 |     6792.6 |      0.0000 |  1.0735e+05 |
CaloTrackToHcalEnergyAlg_Long_48...    INFO Number of counters : 1
 |    Counter                                      |     #     |    sum     | mean/eff^* | rms/err^*  |     min     |     max     |
 | "energy (calo) associated to track"             |       274 |    2999158 |     10946. |     16604. |      0.0000 |  1.0735e+05 |
ChargedProtoParticleMaker_5f885d16     INFO Number of counters : 1
 |    Counter                                      |     #     |    sum     | mean/eff^* | rms/err^*  |     min     |     max     |
 | "CreatedProtos"                                 |      3738 |
ClassifyPhotonElectronAlg_6c51d561     INFO Number of counters : 14
 |    Counter                                      |     #     |    sum     | mean/eff^* | rms/err^*  |     min     |     max     |
 | "Electron Delta(E)"                             |      4605 |   -1645940 |    -357.42 |     494.71 |     -3769.8 |      1429.8 |
 | "Electron Delta(X)"                             |      4605 |   -1814.53 |   -0.39403 |     12.441 |     -87.161 |      29.057 |
 | "Electron Delta(Y)"                             |      4605 |  -546.1661 |   -0.11860 |     12.340 |     -32.805 |      22.670 |
 | "Electron Delta(Z)"                             |      4605 |     317196 |     68.881 |     13.186 |      14.527 |      108.52 |
 | "Electron corrected energy"                     |      4605 |2.658312e+07 |     5772.7 |     6760.2 |      113.39 |      96127. |
 | "Electrons pT-rejected after correction"        |        44 |
 | "Photon Delta(E)"                               |      9698 |   -2168226 |    -223.57 |     383.58 |     -4036.0 |      817.22 |
 | "Photon Delta(X)"                               |      9698 |  -3166.456 |   -0.32651 |     12.647 |     -91.984 |      32.112 |
 | "Photon Delta(Y)"                               |      9698 |  -2379.544 |   -0.24536 |     12.549 |     -91.966 |      38.582 |
 | "Photon Delta(Z)"                               |      9698 |   574582.2 |     59.247 |     12.945 |     -1.1826 |      114.41 |
 | "Photon corrected energy"                       |      9698 |3.280226e+07 |     3382.4 |     5627.4 |      38.834 |  1.2636e+05 |
 | "Photons pT-rejected after correction"          |       197 |
 | "electronHypos"                                 |        89 |       4561 |     51.247 |     25.931 |      6.0000 |      109.00 |
 | "photonHypos"                                   |        89 |       9501 |     106.75 |     47.472 |      10.000 |      203.00 |
ClassifyPhotonElectronAlg_6c51d5...    INFO Number of counters : 7
 |    Counter                                      |     #     |    sum     | mean/eff^* | rms/err^*  |     min     |     max     |
 | "<alpha> Inner"                                 |      4096 |   4075.536 |    0.99500 |   0.020056 |     0.96438 |      1.1318 |
 | "<alpha> Middle"                                |      3783 |   3806.235 |     1.0061 |   0.020739 |     0.97692 |      1.2128 |
 | "<alpha> Outer"                                 |      6391 |     6388.6 |    0.99962 |   0.016625 |     0.97371 |      1.1067 |
 | "Pileup offset"                                 |     14270 |    4825295 |     338.14 |     405.84 |      2.6870 |      3722.1 |
 | "Pileup scale"                                  |     14303 |      71303 |     4.9852 |     1.8335 |      1.0000 |      9.0000 |
 | "Pileup subtracted ratio"                       |     14270 |   12587.85 |    0.88212 |    0.12486 |   0.0072416 |     0.99895 |
 | "Skip negative energy correction"               |        33 |
DefaultGECFilter                       INFO Number of counters : 2
 |    Counter                                      |     #     |    sum     | mean/eff^* | rms/err^*  |     min     |     max     |
 | "Nb Events Processed"                           |       100 |
 | "Nb events removed"                             |        11 |
FutureNeutralProtoPAlg_abfc7237        INFO Number of counters : 4
 |    Counter                                      |     #     |    sum     | mean/eff^* | rms/err^*  |     min     |     max     |
 | "Neutral Protos"                                |        89 |      10203 |     114.64 |     53.381 |      10.000 |      217.00 |
 | "Neutral Protos from MergedPi0s"                |        89 |        234 |     2.6292 |     2.5894 |      0.0000 |      11.000 |
 | "Neutral Protos from Photons"                   |        89 |       9501 |     106.75 |     47.472 |      10.000 |      203.00 |
 | "Neutral Protos from SplitPhotons"              |        89 |        468 |     5.2584 |     5.1789 |      0.0000 |      22.000 |
GraphClustering_72971694               INFO Number of counters : 4
 |    Counter                                      |     #     |    sum     | mean/eff^* | rms/err^*  |     min     |     max     |
 | "# clusters"                                    |        89 |      13695 |     153.88 |     67.941 |      16.000 |      283.00 |
 | "Cluster energy"                                |     13695 |5.899148e+07 |     4307.5 |     6278.1 |      9.6000 |  1.3040e+05 |
 | "Cluster size"                                  |     13695 |     137677 |     10.053 |     2.3216 |      6.0000 |      24.000 |
 | "Negative energy clusters"                      |         1 |          1 |     1.0000 |     0.0000 |      1.0000 |      1.0000 |
HLTControlFlowMgr                      INFO Number of counters : 1
 |    Counter                                      |     #     |    sum     | mean/eff^* | rms/err^*  |     min     |     max     |
 | "Processed events"                              |       100 |
LHCb__Converters__Track__SOA__fr...    INFO Number of counters : 1
 |    Counter                                      |     #     |    sum     | mean/eff^* | rms/err^*  |     min     |     max     |
 | "Nb of Produced Tracks"                         |        89 |       2646 |     29.730 |
LHCb__Converters__Track__SOA__fr...    INFO Number of counters : 1
 |    Counter                                      |     #     |    sum     | mean/eff^* | rms/err^*  |     min     |     max     |
 | "Nb of Produced Tracks"                         |        89 |        360 |     4.0449 |
LHCb__Converters__Track__SOA__fr...    INFO Number of counters : 1
 |    Counter                                      |     #     |    sum     | mean/eff^* | rms/err^*  |     min     |     max     |
 | "Nb of Produced Tracks"                         |        89 |       5117 |     57.494 |
MuonIDHlt2AlgDownstream_69f75450       INFO Number of counters : 7
 |    Counter                                      |     #     |    sum     | mean/eff^* | rms/err^*  |     min     |     max     |
 | "BgLL"                                          |       193 |  -91.19907 |   -0.47253 |    0.97624 |     -5.7582 |      0.0000 |
 | "MuLL"                                          |       193 |   -1844.09 |    -9.5549 |     3.0068 |     -11.513 |    -0.18113 |
 | "muonMVAStat"                                   |       193 |  -117.6233 |   -0.60945 |    0.81484 |     -3.0272 |      3.9260 |
 |*"nInAcceptance"                                 |      2646 |       2283 |( 86.28118 +- 0.6688389)% |
 |*"nIsMuon"                                       |      2646 |        193 |( 7.294029 +- 0.5055250)% |
 |*"nIsMuonTight"                                  |      2646 |         67 |( 2.532124 +- 0.3054065)% |
 |*"nMomentumCut"                                  |      2646 |       2436 |( 92.06349 +- 0.5254889)% |
MuonIDHlt2AlgLong_19ce5a3b             INFO Number of counters : 7
 |    Counter                                      |     #     |    sum     | mean/eff^* | rms/err^*  |     min     |     max     |
 | "BgLL"                                          |        22 |   -15.7436 |   -0.71562 |     1.1775 |     -4.7330 |      0.0000 |
 | "MuLL"                                          |        22 |   -196.012 |    -8.9096 |     3.4762 |     -11.513 |    -0.50317 |
 | "muonMVAStat"                                   |        22 |    -12.395 |   -0.56341 |     1.1432 |     -2.2155 |      3.5941 |
 |*"nInAcceptance"                                 |       360 |        331 |( 91.94444 +- 1.434364)% |
 |*"nIsMuon"                                       |       360 |         22 |( 6.111111 +- 1.262455)% |
 |*"nIsMuonTight"                                  |       360 |         11 |( 3.055556 +- 0.9071003)% |
 |*"nMomentumCut"                                  |       360 |        352 |( 97.77778 +- 0.7768954)% |
MuonPIDV2ToMuonTracks_Downstream...    INFO Number of counters : 1
 |    Counter                                      |     #     |    sum     | mean/eff^* | rms/err^*  |     min     |     max     |
 | "Nb of input v2 MuonPIDs"                       |        89 |       2646 |     29.730 |
MuonPIDV2ToMuonTracks_Long_c9514abf    INFO Number of counters : 1
 |    Counter                                      |     #     |    sum     | mean/eff^* | rms/err^*  |     min     |     max     |
 | "Nb of input v2 MuonPIDs"                       |        89 |        360 |     4.0449 |
PrForwardTrackingVelo_61a32917         INFO Number of counters : 10
 |    Counter                                      |     #     |    sum     | mean/eff^* | rms/err^*  |     min     |     max     |
 | "Accepted input tracks"                         |        89 |      10433 |     117.22 |
 | "Created long tracks"                           |        89 |       4907 |     55.135 |
 | "Input tracks"                                  |        89 |      10905 |     122.53 |
 | "Number of candidate bins per track"            |     10433 |      45854 |     4.3951 |     4.5397 |      0.0000 |      31.000 |
 | "Number of complete candidates/track 1st Loop"  |      8751 |       5189 |    0.59296 |    0.62534 |      0.0000 |      5.0000 |
 | "Number of complete candidates/track 2nd Loop"  |      4486 |        349 |   0.077798 |    0.27605 |      0.0000 |      3.0000 |
 | "Number of x candidates per track 1st Loop"     |      8751 |      10942 |     1.2504 |     1.1954 |
 | "Number of x candidates per track 2nd Loop"     |      4486 |       9141 |     2.0377 |     2.1750 |
 | "Percentage second loop execution"              |      8751 |       4486 |    0.51263 |
 | "Removed duplicates"                            |        89 |        240 |     2.6966 |
PrForwardTrackingVelo_61a32917.P...    INFO Number of counters : 2
 |    Counter                                      |     #     |    sum     | mean/eff^* | rms/err^*  |     min     |     max     |
 | "#UT hits added"                                |      4354 |      17461 |     4.0103 |
 | "#tracks with hits added"                       |      4354 |
PrHybridSeeding_4d0337cc               INFO Number of counters : 21
 |    Counter                                      |     #     |    sum     | mean/eff^* | rms/err^*  |     min     |     max     |
 | "Created T2x1 three-hit combinations in case 0" |    130312 |      78704 |    0.60397 |    0.61475 |      0.0000 |      5.0000 |
 | "Created T2x1 three-hit combinations in case 1" |    187203 |     120538 |    0.64389 |    0.71600 |      0.0000 |      10.000 |
 | "Created T2x1 three-hit combinations in case 2" |    340870 |     264258 |    0.77525 |    0.95055 |      0.0000 |      22.000 |
 | "Created XZ tracks (part 0)"                    |       267 |      12197 |     45.682 |     48.745 |      0.0000 |      396.00 |
 | "Created XZ tracks (part 1)"                    |       267 |      10414 |     39.004 |     32.852 |      0.0000 |      166.00 |
 | "Created XZ tracks in case 0"                   |       178 |       7523 |     42.264 |     33.502 |      2.0000 |      197.00 |
 | "Created XZ tracks in case 1"                   |       178 |       8328 |     46.787 |     41.371 |      2.0000 |      293.00 |
 | "Created XZ tracks in case 2"                   |       178 |       6760 |     37.978 |     48.412 |      0.0000 |      396.00 |
 | "Created full hit combinations in case 0"       |     11507 |      11507 |     1.0000 |     0.0000 |      1.0000 |      1.0000 |
 | "Created full hit combinations in case 1"       |      9790 |       9790 |     1.0000 |     0.0000 |      1.0000 |      1.0000 |
 | "Created full hit combinations in case 2"       |     10258 |      10258 |     1.0000 |     0.0000 |      1.0000 |      1.0000 |
 | "Created seed tracks"                           |       178 |       8096 |     45.483 |     24.022 |      3.0000 |      97.000 |
 | "Created seed tracks (part 0)"                  |        89 |       4539 |     51.000 |     27.695 |      6.0000 |      108.00 |
 | "Created seed tracks (part 1)"                  |        89 |       4454 |     50.045 |     26.378 |      3.0000 |      106.00 |
 | "Created seed tracks in case 0"                 |       178 |       4160 |     23.371 |     12.821 |      2.0000 |      53.000 |
 | "Created seed tracks in case 1"                 |       178 |       7620 |     42.809 |     22.427 |      3.0000 |      89.000 |
 | "Created seed tracks in case 2"                 |       178 |       8520 |     47.865 |     25.367 |      3.0000 |      99.000 |
 | "Created seed tracks in recovery step"          |        89 |        473 |     5.3146 |     3.9707 |      0.0000 |      16.000 |
 | "Created two-hit combinations in case 0"        |     26343 |     552986 |     20.992 |     14.317 |      0.0000 |      73.000 |
 | "Created two-hit combinations in case 1"        |     23300 |     689671 |     29.600 |     16.786 |      0.0000 |      91.000 |
 | "Created two-hit combinations in case 2"        |     20201 |     930957 |     46.085 |     26.089 |      1.0000 |      149.00 |
PrLongLivedTracking_fc34af4c           INFO Number of counters : 1
 |    Counter                                      |     #     |    sum     | mean/eff^* | rms/err^*  |     min     |     max     |
 | "#Downstream tracks made"                       |        89 |       4780 |     53.708 |
PrMatchNN_69d36554                     INFO Number of counters : 3
 |    Counter                                      |     #     |    sum     | mean/eff^* | rms/err^*  |     min     |     max     |
 | "#MatchingChi2"                                 |        89 |   68747.05 |     772.44 |
 | "#MatchingMLP"                                  |      5029 |   4236.304 |    0.84238 |
 | "#MatchingTracks"                               |        89 |       5029 |     56.506 |
PrMatchNN_69d36554.PrAddUTHitsTool     INFO Number of counters : 2
 |    Counter                                      |     #     |    sum     | mean/eff^* | rms/err^*  |     min     |     max     |
 | "#UT hits added"                                |      4331 |      17363 |     4.0090 |
 | "#tracks with hits added"                       |      4331 |
PrStorePrUTHits_df75b912               INFO Number of counters : 1
 |    Counter                                      |     #     |    sum     | mean/eff^* | rms/err^*  |     min     |     max     |
 | "#banks"                                        |        89 |      19224 |     216.00 |
PrStoreSciFiHits_fb0eba02              INFO Number of counters : 25
 |    Counter                                      |     #     |    sum     | mean/eff^* | rms/err^*  |     min     |     max     |
 | "Average X in T1U"                              |     26216 |   440257.9 |     16.793 |     1225.9 |     -2656.0 |      2656.4 |
 | "Average X in T1V"                              |     26632 |   195916.4 |     7.3564 |     1213.1 |     -2656.3 |      2656.0 |
 | "Average X in T1X1"                             |     26343 |   683907.3 |     25.962 |     1245.5 |     -2646.0 |      2646.1 |
 | "Average X in T1X2"                             |     26741 |   450260.8 |     16.838 |     1202.5 |     -2643.4 |      2646.1 |
 | "Average X in T2U"                              |     25802 |     619820 |     24.022 |     1224.9 |     -2656.3 |      2656.0 |
 | "Average X in T2V"                              |     26388 |   876520.8 |     33.217 |     1217.7 |     -2655.6 |      2655.5 |
 | "Average X in T2X1"                             |     24757 |     105855 |     4.2758 |     1228.8 |     -2646.0 |      2646.2 |
 | "Average X in T2X2"                             |     27009 |   154871.3 |     5.7341 |     1203.8 |     -2646.1 |      2645.4 |
 | "Average X in T3U"                              |     28406 |   578823.8 |     20.377 |     1484.4 |     -3187.0 |      3188.4 |
 | "Average X in T3V"                              |     29187 |   192103.6 |     6.5818 |     1457.6 |     -3188.2 |      3187.8 |
 | "Average X in T3X1"                             |     27622 |   224835.5 |     8.1397 |     1464.3 |     -3175.7 |      3176.0 |
 | "Average X in T3X2"                             |     30227 |   454808.9 |     15.046 |     1452.2 |     -3176.1 |      3176.1 |
 | "Hits in T1U"                                   |       356 |      26216 |     73.640 |     28.499 |      24.000 |      153.00 |
 | "Hits in T1V"                                   |       356 |      26632 |     74.809 |     29.435 |      20.000 |      154.00 |
 | "Hits in T1X1"                                  |       356 |      26343 |     73.997 |     28.722 |      14.000 |      155.00 |
 | "Hits in T1X2"                                  |       356 |      26741 |     75.115 |     29.255 |      17.000 |      183.00 |
 | "Hits in T2U"                                   |       356 |      25802 |     72.478 |     27.862 |      17.000 |      168.00 |
 | "Hits in T2V"                                   |       356 |      26388 |     74.124 |     28.152 |      17.000 |      149.00 |
 | "Hits in T2X1"                                  |       356 |      24757 |     69.542 |     26.646 |      17.000 |      157.00 |
 | "Hits in T2X2"                                  |       356 |      27009 |     75.868 |     29.082 |      18.000 |      162.00 |
 | "Hits in T3U"                                   |       356 |      28406 |     79.792 |     30.863 |      20.000 |      238.00 |
 | "Hits in T3V"                                   |       356 |      29187 |     81.986 |     30.568 |      20.000 |      191.00 |
 | "Hits in T3X1"                                  |       356 |      27622 |     77.590 |     27.482 |      24.000 |      156.00 |
 | "Hits in T3X2"                                  |       356 |      30227 |     84.907 |     30.442 |      22.000 |      168.00 |
 | "Total number of hits"                          |        89 |     325330 |     3655.4 |     1223.4 |      1293.0 |      5701.0 |
PrStoreUTHit_6220b56a                  INFO Number of counters : 1
 |    Counter                                      |     #     |    sum     | mean/eff^* | rms/err^*  |     min     |     max     |
 | "#banks"                                        |        89 |      19224 |     216.00 |
PrVPHitsToVPLightClusters_8ca04dad     INFO Number of counters : 1
 |    Counter                                      |     #     |    sum     | mean/eff^* | rms/err^*  |     min     |     max     |
 | "Nb of Produced Clusters"                       |        89 |     164362 |     1846.8 |
PrVeloUT_13853512                      INFO Number of counters : 2
 |    Counter                                      |     #     |    sum     | mean/eff^* | rms/err^*  |     min     |     max     |
 | "#seeds"                                        |        89 |      10905 |     122.53 |
 | "#tracks"                                       |        89 |       2604 |     29.258 |
SciFiTrackForwarding_7609eb21          INFO Number of counters : 2
 |    Counter                                      |     #     |    sum     | mean/eff^* | rms/err^*  |     min     |     max     |
 | "2nd Loop"                                      |      1212 |
 | "Created long tracks"                           |        89 |       1602 |     18.000 |
TrackBeamLineVertexFinderSoA_ff5...    INFO Number of counters : 3
 |    Counter                                      |     #     |    sum     | mean/eff^* | rms/err^*  |     min     |     max     |
 |*"Fraction of failed PV fits"                    |       397 |          1 |(0.2518892 +- 0.2515717)% |
 |*"Fraction of unconverged PV fits"               |       397 |         16 |( 4.030227 +- 0.9870445)% |
 | "Nb PVs"                                        |        89 |        388 |     4.3596 |
TrackBestTrackCreator_2073be4f         INFO Number of counters : 32
 |    Counter                                      |     #     |    sum     | mean/eff^* | rms/err^*  |     min     |     max     |
 |*"BadInput"                                      |     35942 |          0 |( 0.000000 +- 0.000000)% |
 |*"Downstream.badChisq"                           |      4664 |       2340 |( 50.17153 +- 0.7321300)% |
 | "Downstream.chisqProbSum"                       |      4664 |   719.4982 |    0.15427 |
 |*"Downstream.flipCharge"                         |      4664 |          0 |( 0.000000 +- 0.000000)% |
 | "Downstream.ghostProbability"                   |      4664 |   2120.746 |    0.45471 |
 | "Downstream.numOutliers"                        |      4664 |       5834 |     1.2509 |
 |*"FitFailed"                                     |     35942 |          0 |( 0.000000 +- 0.000000)% |
 |*"Long.badChisq"                                 |     11142 |      10950 |( 98.27679 +- 0.1232858)% |
 | "Long.chisqProbSum"                             |     11142 |   40.31231 |  0.0036180 |
 |*"Long.flipCharge"                               |     11142 |          0 |( 0.000000 +- 0.000000)% |
 | "Long.ghostProbability"                         |     11142 |   1336.934 |    0.11999 |
 | "Long.numOutliers"                              |     11142 |      33887 |     3.0414 |
 |*"Ttrack.badChisq"                               |      5117 |        168 |( 3.283174 +- 0.2491095)% |
 | "Ttrack.chisqProbSum"                           |      5117 |   1977.536 |    0.38646 |
 |*"Ttrack.flipCharge"                             |      5117 |         41 |(0.8012507 +- 0.1246320)% |
 | "Ttrack.ghostProbability"                       |      5117 |   154.8932 |   0.030270 |
 | "Ttrack.numOutliers"                            |      5117 |       2182 |    0.42642 |
 |*"Upstream.badChisq"                             |      2512 |       2061 |( 82.04618 +- 0.7657691)% |
 | "Upstream.chisqProbSum"                         |      2512 |   86.21979 |   0.034323 |
 |*"Upstream.flipCharge"                           |      2512 |        216 |( 8.598726 +- 0.5593496)% |
 | "Upstream.ghostProbability"                     |      2512 |   1493.095 |    0.59438 |
 | "Upstream.numOutliers"                          |      2512 |       6058 |     2.4116 |
 |*"Velo.badChisq"                                 |      9804 |       2808 |( 28.64137 +- 0.4565817)% |
 | "Velo.chisqProbSum"                             |      9804 |   2225.551 |    0.22700 |
 |*"Velo.flipCharge"                               |      9804 |          0 |( 0.000000 +- 0.000000)% |
 | "Velo.ghostProbability"                         |      9804 |   2352.418 |    0.23994 |
 | "Velo.numOutliers"                              |      9804 |      16166 |     1.6489 |
 |*"VeloBackward.badChisq"                         |      2703 |        504 |( 18.64595 +- 0.7491328)% |
 | "VeloBackward.chisqProbSum"                     |      2703 |     901.51 |    0.33352 |
 |*"VeloBackward.flipCharge"                       |      2703 |          0 |( 0.000000 +- 0.000000)% |
 | "VeloBackward.ghostProbability"                 |      2703 |   688.4636 |    0.25470 |
 | "VeloBackward.numOutliers"                      |      2703 |       2480 |    0.91750 |
VeloKalman_5154e14f                    INFO Number of counters : 1
 |    Counter                                      |     #     |    sum     | mean/eff^* | rms/err^*  |     min     |     max     |
 | "Nb of Produced Tracks"                         |        89 |       1602 |     18.000 |
VeloRetinaClusterTrackingSIMD_ea...    INFO Number of counters : 2
 |    Counter                                      |     #     |    sum     | mean/eff^* | rms/err^*  |     min     |     max     |
 | "Nb of Produced Clusters"                       |        89 |     164362 |     1846.8 |
 | "Nb of Produced Tracks"                         |        89 |      13612 |     152.94 |
fromPrDownstreamTracksV1Tracks_b...    INFO Number of counters : 1
 |    Counter                                      |     #     |    sum     | mean/eff^* | rms/err^*  |     min     |     max     |
 | "Nb of converted Tracks"                        |        89 |       4780 |     53.708 |
fromPrForwardTracksV1Tracks_3d81...    INFO Number of counters : 1
 |    Counter                                      |     #     |    sum     | mean/eff^* | rms/err^*  |     min     |     max     |
 | "Nb of converted Tracks"                        |        89 |       4907 |     55.135 |
fromPrMatchTracksV1Tracks_97307d36     INFO Number of counters : 1
 |    Counter                                      |     #     |    sum     | mean/eff^* | rms/err^*  |     min     |     max     |
 | "Nb of converted Tracks"                        |        89 |       5029 |     56.506 |
fromPrSeedingTracksV1Tracks_84cd...    INFO Number of counters : 1
 |    Counter                                      |     #     |    sum     | mean/eff^* | rms/err^*  |     min     |     max     |
 | "Nb of converted Tracks"                        |        89 |       8096 |     90.966 |
fromPrUpstreamTracksV1Tracks_986...    INFO Number of counters : 1
 |    Counter                                      |     #     |    sum     | mean/eff^* | rms/err^*  |     min     |     max     |
 | "Nb of converted Tracks"                        |        89 |       2604 |     29.258 |
fromPrVeloTracksV1TracksMerger_b...    INFO Number of counters : 1
 |    Counter                                      |     #     |    sum     | mean/eff^* | rms/err^*  |     min     |     max     |
 | "Nb of converted Tracks"                        |        89 |      13612 |     152.94 |
fromV2MuonPIDV1MuonPIDDownstream...    INFO Number of counters : 1
 |    Counter                                      |     #     |    sum     | mean/eff^* | rms/err^*  |     min     |     max     |
 | "Nb of Produced MuonPIDs"                       |        89 |       2646 |     29.730 |
fromV2MuonPIDV1MuonPIDLong_a1e61c40    INFO Number of counters : 1
 |    Counter                                      |     #     |    sum     | mean/eff^* | rms/err^*  |     min     |     max     |
 | "Nb of Produced MuonPIDs"                       |        89 |        360 |     4.0449 |
fromV3TrackV1Track_2ab3e49e            INFO Number of counters : 1
 |    Counter                                      |     #     |    sum     | mean/eff^* | rms/err^*  |     min     |     max     |
 | "Nb of Produced Tracks"                         |        89 |       1602 |     18.000 |
