GraphClustering_72971694               INFO Built <170.42> graph calo clustering clusters/event
ApplicationMgr                         INFO Application Manager Finalized successfully
ApplicationMgr                         INFO Application Manager Terminated successfully
CaloAcceptanceBremAlg_Upstream_3...    INFO Number of counters : 2
 |    Counter                                      |     #     |    sum     | mean/eff^* | rms/err^*  |     min     |     max     |
 | "#total tracks"                                 |       100 |       1847 |     18.470 |     12.931 |      1.0000 |      69.000 |
 | "#tracks in acceptance"                         |       100 |       1538 |     15.380 |     10.738 |      1.0000 |      58.000 |
CaloAcceptanceEcalAlg_Downstream...    INFO Number of counters : 2
 |    Counter                                      |     #     |    sum     | mean/eff^* | rms/err^*  |     min     |     max     |
 | "#total tracks"                                 |       100 |       1423 |     14.230 |     10.495 |      0.0000 |      45.000 |
 | "#tracks in acceptance"                         |       100 |       1092 |     10.920 |     8.1384 |      0.0000 |      34.000 |
CaloAcceptanceEcalAlg_Long_71599283    INFO Number of counters : 2
 |    Counter                                      |     #     |    sum     | mean/eff^* | rms/err^*  |     min     |     max     |
 | "#total tracks"                                 |       100 |       6017 |     60.170 |     38.472 |      3.0000 |      202.00 |
 | "#tracks in acceptance"                         |       100 |       5080 |     50.800 |     32.790 |      3.0000 |      181.00 |
CaloAcceptanceEcalAlg_Ttrack_b29...    INFO Number of counters : 2
 |    Counter                                      |     #     |    sum     | mean/eff^* | rms/err^*  |     min     |     max     |
 | "#total tracks"                                 |       100 |       4430 |     44.300 |     45.323 |      0.0000 |      348.00 |
 | "#tracks in acceptance"                         |       100 |       3530 |     35.300 |     38.233 |      0.0000 |      303.00 |
CaloFutureClusterCovarianceAlg_5...    INFO Number of counters : 1
 |    Counter                                      |     #     |    sum     | mean/eff^* | rms/err^*  |     min     |     max     |
 | "# clusters"                                    |     17042 |
CaloFutureClusterCovarianceAlg_5...    INFO Number of counters : 3
 |    Counter                                      |     #     |    sum     | mean/eff^* | rms/err^*  |     min     |     max     |
 | "Corrected Clusters: # cells "                  |      1679 |       7192 |     4.2835 |     1.2944 |      2.0000 |      11.000 |
 | "Corrected Clusters: ET"                        |      1679 |   406362.7 |     242.03 |     328.00 |      2.0000 |      7667.6 |
 | "Corrected Clusters: size ratio"                |      1679 |   862.5677 |    0.51374 |    0.44981 | -3.6723e-16 |      3.1267 |
CaloSelectiveBremMatchAlg_Upstre...    INFO Number of counters : 3
 |    Counter                                      |     #     |    sum     | mean/eff^* | rms/err^*  |     min     |     max     |
 | "#links in table"                               |       100 |        706 |     7.0600 |     7.0652 |      0.0000 |      35.000 |
 | "average chi2"                                  |       706 |   1294.737 |     1.8339 |     2.9205 |  6.4097e-08 |      22.862 |
 | "average energy (track based)"                  |      1538 |    93471.3 |     60.775 |     140.31 |      0.0000 |      1385.2 |
CaloSelectiveTrackMatchAlg_Downs...    INFO Number of counters : 2
 |    Counter                                      |     #     |    sum     | mean/eff^* | rms/err^*  |     min     |     max     |
 | "#links in table"                               |       100 |        992 |     9.9200 |     7.6285 |      0.0000 |      32.000 |
 | "average chi2"                                  |       992 |   559.5134 |    0.56403 |    0.89734 |  3.2734e-05 |      8.8092 |
CaloSelectiveTrackMatchAlg_Long_...    INFO Number of counters : 2
 |    Counter                                      |     #     |    sum     | mean/eff^* | rms/err^*  |     min     |     max     |
 | "#links in table"                               |       100 |       4224 |     42.240 |     30.047 |      2.0000 |      163.00 |
 | "average chi2"                                  |      4224 |   673.4209 |    0.15943 |    0.32749 |  7.1228e-06 |      8.8232 |
CaloSelectiveTrackMatchAlg_Ttrac...    INFO Number of counters : 2
 |    Counter                                      |     #     |    sum     | mean/eff^* | rms/err^*  |     min     |     max     |
 | "#links in table"                               |       100 |       2778 |     27.780 |     26.911 |      0.0000 |      210.00 |
 | "average chi2"                                  |      2778 |    219.595 |   0.079048 |    0.13245 |  8.1509e-06 |      1.2728 |
ChargedProtoParticleMaker_Upstre...    INFO Number of counters : 1
 |    Counter                                      |     #     |    sum     | mean/eff^* | rms/err^*  |     min     |     max     |
 | "CreatedProtos"                                 |      1847 |
ClassifyPhotonElectronAlg_46c9120d     INFO Number of counters : 14
 |    Counter                                      |     #     |    sum     | mean/eff^* | rms/err^*  |     min     |     max     |
 | "Electron Delta(E)"                             |      6114 |   -2494201 |    -407.95 |     550.55 |     -5254.2 |      2738.6 |
 | "Electron Delta(X)"                             |      6114 |  -2520.087 |   -0.41218 |     12.397 |     -91.805 |      29.057 |
 | "Electron Delta(Y)"                             |      6114 |  -706.3965 |   -0.11554 |     12.297 |     -32.805 |      22.670 |
 | "Electron Delta(Z)"                             |      6114 |   425036.1 |     69.518 |     13.412 |     -10.624 |      123.98 |
 | "Electron corrected energy"                     |      6114 |3.756724e+07 |     6144.5 |     7420.7 |      19.963 |      96127. |
 | "Electrons pT-rejected after correction"        |        49 |
 | "Photon Delta(E)"                               |     11528 |   -2693765 |    -233.67 |     390.96 |     -4036.0 |      1339.6 |
 | "Photon Delta(X)"                               |     11528 |  -5165.001 |   -0.44804 |     12.701 |     -91.984 |      32.112 |
 | "Photon Delta(Y)"                               |     11528 |  -3241.124 |   -0.28115 |     12.637 |     -91.966 |      38.582 |
 | "Photon Delta(Z)"                               |     11528 |   685647.7 |     59.477 |     13.080 |     -1.1826 |      123.98 |
 | "Photon corrected energy"                       |     11528 |3.986202e+07 |     3457.8 |     6031.8 |      38.834 |  1.2636e+05 |
 | "Photons pT-rejected after correction"          |       222 |
 | "electronHypos"                                 |       100 |       6065 |     60.650 |     36.335 |      6.0000 |      198.00 |
 | "photonHypos"                                   |       100 |      11306 |     113.06 |     50.547 |      10.000 |      203.00 |
ClassifyPhotonElectronAlg_46c912...    INFO Number of counters : 7
 |    Counter                                      |     #     |    sum     | mean/eff^* | rms/err^*  |     min     |     max     |
 | "<alpha> Inner"                                 |      4964 |   4937.611 |    0.99468 |   0.019840 |     0.96438 |      1.1318 |
 | "<alpha> Middle"                                |      4690 |    4718.14 |     1.0060 |   0.020513 |     0.97692 |      1.2128 |
 | "<alpha> Outer"                                 |      7940 |   7935.758 |    0.99947 |   0.016371 |     0.97371 |      1.1067 |
 | "Pileup offset"                                 |     17594 |    6420257 |     364.91 |     433.75 |      2.6870 |      3722.1 |
 | "Pileup scale"                                  |     17642 |      99323 |     5.6299 |     2.0001 |      1.0000 |      9.0000 |
 | "Pileup subtracted ratio"                       |     17594 |   15474.91 |    0.87956 |    0.12374 |  0.00047684 |     0.99914 |
 | "Skip negative energy correction"               |        48 |
CloneKillerMatch_59e72a0f              INFO Number of counters : 2
 |    Counter                                      |     #     |    sum     | mean/eff^* | rms/err^*  |     min     |     max     |
 | "nTracksInput"                                  |       100 |       6785 |     67.850 |
 | "nTracksSelected"                               |       100 |       1825 |     18.250 |
FunctionalParticleMaker_147a1aad       INFO Number of counters : 5
 |    Counter                                      |     #     |    sum     | mean/eff^* | rms/err^*  |     min     |     max     |
 |*"# passed"                                      |       100 |        100 |( 100.0000 +- 0.000000)% |
 |*"# passed ProtoParticle filter"                 |      1847 |       1847 |( 100.0000 +- 0.000000)% |
 |*"# passed Track filter"                         |      1847 |       1847 |( 100.0000 +- 0.000000)% |
 | "Nb created anti-particles"                     |       100 |       1014 |     10.140 |     7.2014 |      0.0000 |      35.000 |
 | "Nb created particles"                          |       100 |        833 |     8.3300 |     6.3310 |      0.0000 |      34.000 |
FunctionalParticleMaker_4d9ca221       INFO Number of counters : 5
 |    Counter                                      |     #     |    sum     | mean/eff^* | rms/err^*  |     min     |     max     |
 |*"# passed"                                      |       100 |        100 |( 100.0000 +- 0.000000)% |
 |*"# passed ProtoParticle filter"                 |      1847 |       1847 |( 100.0000 +- 0.000000)% |
 |*"# passed Track filter"                         |      1847 |       1847 |( 100.0000 +- 0.000000)% |
 | "Nb created anti-particles"                     |       100 |       1014 |     10.140 |     7.2014 |      0.0000 |      35.000 |
 | "Nb created particles"                          |       100 |        833 |     8.3300 |     6.3310 |      0.0000 |      34.000 |
FunctionalParticleMaker_6c7389b1       INFO Number of counters : 5
 |    Counter                                      |     #     |    sum     | mean/eff^* | rms/err^*  |     min     |     max     |
 |*"# passed"                                      |       100 |        100 |( 100.0000 +- 0.000000)% |
 |*"# passed ProtoParticle filter"                 |      1847 |       1641 |( 88.84678 +- 0.7324661)% |
 |*"# passed Track filter"                         |      1847 |       1847 |( 100.0000 +- 0.000000)% |
 | "Nb created anti-particles"                     |       100 |        876 |     8.7600 |     6.1937 |      0.0000 |      33.000 |
 | "Nb created particles"                          |       100 |        765 |     7.6500 |     5.8573 |      0.0000 |      33.000 |
FunctionalParticleMaker_8070dd15       INFO Number of counters : 5
 |    Counter                                      |     #     |    sum     | mean/eff^* | rms/err^*  |     min     |     max     |
 |*"# passed"                                      |       100 |        100 |( 100.0000 +- 0.000000)% |
 |*"# passed ProtoParticle filter"                 |      1847 |       1641 |( 88.84678 +- 0.7324661)% |
 |*"# passed Track filter"                         |      1847 |       1847 |( 100.0000 +- 0.000000)% |
 | "Nb created anti-particles"                     |       100 |        876 |     8.7600 |     6.1937 |      0.0000 |      33.000 |
 | "Nb created particles"                          |       100 |        765 |     7.6500 |     5.8573 |      0.0000 |      33.000 |
FunctionalParticleMaker_b1e0c2ff       INFO Number of counters : 5
 |    Counter                                      |     #     |    sum     | mean/eff^* | rms/err^*  |     min     |     max     |
 |*"# passed"                                      |       100 |        100 |( 100.0000 +- 0.000000)% |
 |*"# passed ProtoParticle filter"                 |      1847 |       1847 |( 100.0000 +- 0.000000)% |
 |*"# passed Track filter"                         |      1847 |       1847 |( 100.0000 +- 0.000000)% |
 | "Nb created anti-particles"                     |       100 |       1014 |     10.140 |     7.2014 |      0.0000 |      35.000 |
 | "Nb created particles"                          |       100 |        833 |     8.3300 |     6.3310 |      0.0000 |      34.000 |
FunctionalParticleMaker_cfa8c657       INFO Number of counters : 5
 |    Counter                                      |     #     |    sum     | mean/eff^* | rms/err^*  |     min     |     max     |
 |*"# passed"                                      |       100 |        100 |( 100.0000 +- 0.000000)% |
 |*"# passed ProtoParticle filter"                 |      1847 |       1847 |( 100.0000 +- 0.000000)% |
 |*"# passed Track filter"                         |      1847 |       1847 |( 100.0000 +- 0.000000)% |
 | "Nb created anti-particles"                     |       100 |       1014 |     10.140 |     7.2014 |      0.0000 |      35.000 |
 | "Nb created particles"                          |       100 |        833 |     8.3300 |     6.3310 |      0.0000 |      34.000 |
FunctionalParticleMaker_d89694d7       INFO Number of counters : 5
 |    Counter                                      |     #     |    sum     | mean/eff^* | rms/err^*  |     min     |     max     |
 |*"# passed"                                      |       100 |        100 |( 100.0000 +- 0.000000)% |
 |*"# passed ProtoParticle filter"                 |      1847 |       1847 |( 100.0000 +- 0.000000)% |
 |*"# passed Track filter"                         |      1847 |       1847 |( 100.0000 +- 0.000000)% |
 | "Nb created anti-particles"                     |       100 |       1014 |     10.140 |     7.2014 |      0.0000 |      35.000 |
 | "Nb created particles"                          |       100 |        833 |     8.3300 |     6.3310 |      0.0000 |      34.000 |
FunctionalParticleMaker_f90d1051       INFO Number of counters : 5
 |    Counter                                      |     #     |    sum     | mean/eff^* | rms/err^*  |     min     |     max     |
 |*"# passed"                                      |       100 |        100 |( 100.0000 +- 0.000000)% |
 |*"# passed ProtoParticle filter"                 |      1847 |       1641 |( 88.84678 +- 0.7324661)% |
 |*"# passed Track filter"                         |      1847 |       1847 |( 100.0000 +- 0.000000)% |
 | "Nb created anti-particles"                     |       100 |        876 |     8.7600 |     6.1937 |      0.0000 |      33.000 |
 | "Nb created particles"                          |       100 |        765 |     7.6500 |     5.8573 |      0.0000 |      33.000 |
GraphClustering_72971694               INFO Number of counters : 4
 |    Counter                                      |     #     |    sum     | mean/eff^* | rms/err^*  |     min     |     max     |
 | "# clusters"                                    |       100 |      17042 |     170.42 |     79.915 |      16.000 |      358.00 |
 | "Cluster energy"                                |     17042 |7.875139e+07 |     4621.0 |     6901.4 |      8.8000 |  1.3040e+05 |
 | "Cluster size"                                  |     17042 |     172646 |     10.131 |     2.3852 |      4.0000 |      24.000 |
 | "Negative energy clusters"                      |         1 |          1 |     1.0000 |     0.0000 |      1.0000 |      1.0000 |
HLTControlFlowMgr                      INFO Number of counters : 1
 |    Counter                                      |     #     |    sum     | mean/eff^* | rms/err^*  |     min     |     max     |
 | "Processed events"                              |       100 |
LHCb__Converters__Track__SOA__fr...    INFO Number of counters : 2
 |    Counter                                      |     #     |    sum     | mean/eff^* | rms/err^*  |     min     |     max     |
 | "Nb of Events without Tracks"                   |         1 |          0 |     0.0000 |
 | "Nb of Produced Tracks"                         |        99 |       4430 |     44.747 |
LHCb__Converters__Track__SOA__fr...    INFO Number of counters : 1
 |    Counter                                      |     #     |    sum     | mean/eff^* | rms/err^*  |     min     |     max     |
 | "Nb of Produced Tracks"                         |       100 |       6017 |     60.170 |
LHCb__Converters__Track__SOA__fr...    INFO Number of counters : 2
 |    Counter                                      |     #     |    sum     | mean/eff^* | rms/err^*  |     min     |     max     |
 | "Nb of Events without Tracks"                   |         4 |          0 |     0.0000 |
 | "Nb of Produced Tracks"                         |        96 |       1423 |     14.823 |
LHCb__Converters__Track__SOA__fr...    INFO Number of counters : 1
 |    Counter                                      |     #     |    sum     | mean/eff^* | rms/err^*  |     min     |     max     |
 | "Nb of Produced Tracks"                         |       100 |       1847 |     18.470 |
PrCloneKillerDown_6b57db18             INFO Number of counters : 2
 |    Counter                                      |     #     |    sum     | mean/eff^* | rms/err^*  |     min     |     max     |
 | "nTracksInput"                                  |       100 |       6383 |     63.830 |
 | "nTracksSelected"                               |       100 |       2518 |     25.180 |
PrCloneKillerSeedDown_2cc5d89d         INFO Number of counters : 2
 |    Counter                                      |     #     |    sum     | mean/eff^* | rms/err^*  |     min     |     max     |
 | "nTracksInput"                                  |       100 |       5766 |     57.660 |
 | "nTracksSelected"                               |       100 |       4430 |     44.300 |
PrCloneKillerSeed_a98e78d8             INFO Number of counters : 2
 |    Counter                                      |     #     |    sum     | mean/eff^* | rms/err^*  |     min     |     max     |
 | "nTracksInput"                                  |       100 |      11152 |     111.52 |
 | "nTracksSelected"                               |       100 |       5766 |     57.660 |
PrCloneKillerUp_974201a8               INFO Number of counters : 2
 |    Counter                                      |     #     |    sum     | mean/eff^* | rms/err^*  |     min     |     max     |
 | "nTracksInput"                                  |       100 |       6955 |     69.550 |
 | "nTracksSelected"                               |       100 |       2638 |     26.380 |
PrForwardTrackingVelo_f4faa06c         INFO Number of counters : 10
 |    Counter                                      |     #     |    sum     | mean/eff^* | rms/err^*  |     min     |     max     |
 | "Accepted input tracks"                         |       100 |      13486 |     134.86 |
 | "Created long tracks"                           |       100 |       6737 |     67.370 |
 | "Input tracks"                                  |       100 |      14112 |     141.12 |
 | "Number of candidate bins per track"            |     13486 |     150194 |     11.137 |     18.072 |      0.0000 |      129.00 |
 | "Number of complete candidates/track 1st Loop"  |     11789 |       7385 |    0.62643 |    0.68209 |      0.0000 |      5.0000 |
 | "Number of complete candidates/track 2nd Loop"  |      6177 |        534 |   0.086450 |    0.29343 |      0.0000 |      3.0000 |
 | "Number of x candidates per track 1st Loop"     |     11789 |      25426 |     2.1568 |     2.8072 |
 | "Number of x candidates per track 2nd Loop"     |      6177 |      34661 |     5.6113 |     9.6018 |
 | "Percentage second loop execution"              |     11789 |       6177 |    0.52396 |
 | "Removed duplicates"                            |       100 |        381 |     3.8100 |
PrForwardTrackingVelo_f4faa06c.P...    INFO Number of counters : 2
 |    Counter                                      |     #     |    sum     | mean/eff^* | rms/err^*  |     min     |     max     |
 | "#UT hits added"                                |      5810 |      23229 |     3.9981 |
 | "#tracks with hits added"                       |      5810 |
PrHybridSeeding_4d0337cc               INFO Number of counters : 21
 |    Counter                                      |     #     |    sum     | mean/eff^* | rms/err^*  |     min     |     max     |
 | "Created T2x1 three-hit combinations in case 0" |    227799 |     142701 |    0.62643 |    0.63101 |      0.0000 |      6.0000 |
 | "Created T2x1 three-hit combinations in case 1" |    326025 |     222207 |    0.68156 |    0.74730 |      0.0000 |      10.000 |
 | "Created T2x1 three-hit combinations in case 2" |    559251 |     483009 |    0.86367 |     1.0243 |      0.0000 |      22.000 |
 | "Created XZ tracks (part 0)"                    |       300 |      23244 |     77.480 |     153.11 |      0.0000 |      1760.0 |
 | "Created XZ tracks (part 1)"                    |       300 |      26604 |     88.680 |     220.73 |      0.0000 |      2213.0 |
 | "Created XZ tracks in case 0"                   |       200 |      13666 |     68.330 |     102.79 |      2.0000 |      791.00 |
 | "Created XZ tracks in case 1"                   |       200 |      17642 |     88.210 |     176.14 |      2.0000 |      1310.0 |
 | "Created XZ tracks in case 2"                   |       200 |      18540 |     92.700 |     257.70 |      0.0000 |      2213.0 |
 | "Created full hit combinations in case 0"       |     24508 |      24508 |     1.0000 |     0.0000 |      1.0000 |      1.0000 |
 | "Created full hit combinations in case 1"       |     21827 |      21827 |     1.0000 |     0.0000 |      1.0000 |      1.0000 |
 | "Created full hit combinations in case 2"       |     29729 |      29729 |     1.0000 |     0.0000 |      1.0000 |      1.0000 |
 | "Created seed tracks"                           |       200 |      11152 |     55.760 |     41.065 |      3.0000 |      314.00 |
 | "Created seed tracks (part 0)"                  |       100 |       6196 |     61.960 |     46.412 |      6.0000 |      351.00 |
 | "Created seed tracks (part 1)"                  |       100 |       6298 |     62.980 |     47.947 |      3.0000 |      284.00 |
 | "Created seed tracks in case 0"                 |       200 |       5634 |     28.170 |     19.804 |      2.0000 |      147.00 |
 | "Created seed tracks in case 1"                 |       200 |      10351 |     51.755 |     35.875 |      3.0000 |      262.00 |
 | "Created seed tracks in case 2"                 |       200 |      11836 |     59.180 |     45.211 |      3.0000 |      349.00 |
 | "Created seed tracks in recovery step"          |       100 |        658 |     6.5800 |     5.2444 |      0.0000 |      20.000 |
 | "Created two-hit combinations in case 0"        |     32689 |     807237 |     24.694 |     18.274 |      0.0000 |      111.00 |
 | "Created two-hit combinations in case 1"        |     29072 |    1013444 |     34.860 |     21.979 |      0.0000 |      123.00 |
 | "Created two-hit combinations in case 2"        |     24848 |    1337521 |     53.828 |     34.123 |      1.0000 |      179.00 |
PrKalmanFilterForward_5603901d         INFO Number of counters : 6
 |    Counter                                      |     #     |    sum     | mean/eff^* | rms/err^*  |     min     |     max     |
 | "Pre outlier chi2 cut"                          |       196 |
 | "chi2 cut"                                      |      1086 |
 | "nIterations"                                   |      6737 |      15542 |     2.3070 |
 | "nOutlierIterations"                            |      6541 |       5213 |    0.79697 |
 | "nTracksInput"                                  |       100 |       6737 |     67.370 |
 | "nTracksOutput"                                 |       100 |       5455 |     54.550 |
PrKalmanFilterMatch_fac0eb00           INFO Number of counters : 6
 |    Counter                                      |     #     |    sum     | mean/eff^* | rms/err^*  |     min     |     max     |
 | "Pre outlier chi2 cut"                          |       177 |
 | "chi2 cut"                                      |      1082 |
 | "nIterations"                                   |      1825 |       4463 |     2.4455 |
 | "nOutlierIterations"                            |      1648 |       2010 |     1.2197 |
 | "nTracksInput"                                  |       100 |       1825 |     18.250 |
 | "nTracksOutput"                                 |       100 |        566 |     5.6600 |
PrKalmanFilter_Downstream_61ea9aa5     INFO Number of counters : 6
 |    Counter                                      |     #     |    sum     | mean/eff^* | rms/err^*  |     min     |     max     |
 | "Pre outlier chi2 cut"                          |       455 |
 | "chi2 cut"                                      |       640 |
 | "nIterations"                                   |      2518 |       6814 |     2.7061 |
 | "nOutlierIterations"                            |      2063 |       1654 |    0.80175 |
 | "nTracksInput"                                  |       100 |       2518 |     25.180 |
 | "nTracksOutput"                                 |       100 |       1423 |     14.230 |
PrKalmanFilter_Upstream_5ef4ca7e       INFO Number of counters : 6
 |    Counter                                      |     #     |    sum     | mean/eff^* | rms/err^*  |     min     |     max     |
 | "Pre outlier chi2 cut"                          |        96 |
 | "chi2 cut"                                      |       694 |
 | "nIterations"                                   |      2638 |       5350 |     2.0281 |
 | "nOutlierIterations"                            |      2542 |       1480 |    0.58222 |
 | "nTracksInput"                                  |       100 |       2638 |     26.380 |
 | "nTracksOutput"                                 |       100 |       1848 |     18.480 |
PrLongLivedTracking_fc34af4c           INFO Number of counters : 1
 |    Counter                                      |     #     |    sum     | mean/eff^* | rms/err^*  |     min     |     max     |
 | "#Downstream tracks made"                       |       100 |       6383 |     63.830 |
PrMatchNN_e4c71bc2                     INFO Number of counters : 3
 |    Counter                                      |     #     |    sum     | mean/eff^* | rms/err^*  |     min     |     max     |
 | "#MatchingChi2"                                 |       100 |   113066.5 |     1130.7 |
 | "#MatchingMLP"                                  |      6785 |   5644.728 |    0.83194 |
 | "#MatchingTracks"                               |       100 |       6785 |     67.850 |
PrMatchNN_e4c71bc2.PrAddUTHitsTool     INFO Number of counters : 2
 |    Counter                                      |     #     |    sum     | mean/eff^* | rms/err^*  |     min     |     max     |
 | "#UT hits added"                                |      5807 |      23183 |     3.9923 |
 | "#tracks with hits added"                       |      5807 |
PrStorePrUTHits_df75b912               INFO Number of counters : 1
 |    Counter                                      |     #     |    sum     | mean/eff^* | rms/err^*  |     min     |     max     |
 | "#banks"                                        |       100 |      21600 |     216.00 |
PrStoreSciFiHits_fb0eba02              INFO Number of counters : 25
 |    Counter                                      |     #     |    sum     | mean/eff^* | rms/err^*  |     min     |     max     |
 | "Average X in T1U"                              |     32898 |   508254.6 |     15.449 |     1217.4 |     -2656.0 |      2656.4 |
 | "Average X in T1V"                              |     33222 |   411511.8 |     12.387 |     1201.5 |     -2656.3 |      2656.0 |
 | "Average X in T1X1"                             |     32689 |     789223 |     24.143 |     1230.8 |     -2646.0 |      2646.1 |
 | "Average X in T1X2"                             |     33430 |   626468.2 |     18.740 |     1188.6 |     -2644.9 |      2646.1 |
 | "Average X in T2U"                              |     32246 |   775433.6 |     24.047 |     1210.2 |     -2656.3 |      2656.0 |
 | "Average X in T2V"                              |     32792 |    1041829 |     31.771 |     1205.4 |     -2656.3 |      2655.5 |
 | "Average X in T2X1"                             |     30854 |   202408.5 |     6.5602 |     1217.9 |     -2646.0 |      2646.2 |
 | "Average X in T2X2"                             |     33530 |   158118.7 |     4.7157 |     1188.5 |     -2646.1 |      2645.4 |
 | "Average X in T3U"                              |     35190 |   673439.4 |     19.137 |     1466.6 |     -3188.2 |      3188.4 |
 | "Average X in T3V"                              |     36216 |   71146.28 |     1.9645 |     1443.4 |     -3188.2 |      3187.8 |
 | "Average X in T3X1"                             |     34270 |   339994.8 |     9.9211 |     1451.9 |     -3175.7 |      3176.0 |
 | "Average X in T3X2"                             |     37522 |   289937.7 |     7.7271 |     1438.0 |     -3176.1 |      3176.1 |
 | "Hits in T1U"                                   |       400 |      32898 |     82.245 |     38.105 |      24.000 |      271.00 |
 | "Hits in T1V"                                   |       400 |      33222 |     83.055 |     38.177 |      20.000 |      239.00 |
 | "Hits in T1X1"                                  |       400 |      32689 |     81.722 |     36.075 |      14.000 |      207.00 |
 | "Hits in T1X2"                                  |       400 |      33430 |     83.575 |     38.111 |      17.000 |      240.00 |
 | "Hits in T2U"                                   |       400 |      32246 |     80.615 |     36.284 |      17.000 |      226.00 |
 | "Hits in T2V"                                   |       400 |      32792 |     81.980 |     36.337 |      17.000 |      273.00 |
 | "Hits in T2X1"                                  |       400 |      30854 |     77.135 |     34.137 |      17.000 |      194.00 |
 | "Hits in T2X2"                                  |       400 |      33530 |     83.825 |     36.526 |      18.000 |      226.00 |
 | "Hits in T3U"                                   |       400 |      35190 |     87.975 |     38.320 |      20.000 |      238.00 |
 | "Hits in T3V"                                   |       400 |      36216 |     90.540 |     38.840 |      20.000 |      231.00 |
 | "Hits in T3X1"                                  |       400 |      34270 |     85.675 |     35.456 |      24.000 |      215.00 |
 | "Hits in T3X2"                                  |       400 |      37522 |     93.805 |     39.277 |      22.000 |      227.00 |
 | "Total number of hits"                          |       100 |     404859 |     4048.6 |     1646.0 |      1293.0 |      9725.0 |
PrVPHitsToVPLightClusters_be1d4c28     INFO Number of counters : 1
 |    Counter                                      |     #     |    sum     | mean/eff^* | rms/err^*  |     min     |     max     |
 | "Nb of Produced Clusters"                       |       100 |     207174 |     2071.7 |
PrVeloUT_ef954e98                      INFO Number of counters : 2
 |    Counter                                      |     #     |    sum     | mean/eff^* | rms/err^*  |     min     |     max     |
 | "#seeds"                                        |       100 |      14112 |     141.12 |
 | "#tracks"                                       |       100 |       6955 |     69.550 |
TBTCMatch_a723caac                     INFO Number of counters : 3
 |    Counter                                      |     #     |    sum     | mean/eff^* | rms/err^*  |     min     |     max     |
 |*"BadInput"                                      |       564 |          0 |( 0.000000 +- 0.000000)% |
 |*"FitFailed"                                     |       564 |          0 |( 0.000000 +- 0.000000)% |
 | "FittedBefore"                                  |       564 |
TBTC_Forward_f0e875ff                  INFO Number of counters : 3
 |    Counter                                      |     #     |    sum     | mean/eff^* | rms/err^*  |     min     |     max     |
 |*"BadInput"                                      |      5453 |          0 |( 0.000000 +- 0.000000)% |
 |*"FitFailed"                                     |      5453 |          0 |( 0.000000 +- 0.000000)% |
 | "FittedBefore"                                  |      5453 |
TBTC_down_fd5eb18a                     INFO Number of counters : 3
 |    Counter                                      |     #     |    sum     | mean/eff^* | rms/err^*  |     min     |     max     |
 |*"BadInput"                                      |      1423 |          0 |( 0.000000 +- 0.000000)% |
 |*"FitFailed"                                     |      1423 |          0 |( 0.000000 +- 0.000000)% |
 | "FittedBefore"                                  |      1423 |
TBTC_up_89ce758d                       INFO Number of counters : 3
 |    Counter                                      |     #     |    sum     | mean/eff^* | rms/err^*  |     min     |     max     |
 |*"BadInput"                                      |      1847 |          0 |( 0.000000 +- 0.000000)% |
 |*"FitFailed"                                     |      1847 |          0 |( 0.000000 +- 0.000000)% |
 | "FittedBefore"                                  |      1847 |
TrackBeamLineVertexFinderSoA_e2f...    INFO Number of counters : 3
 |    Counter                                      |     #     |    sum     | mean/eff^* | rms/err^*  |     min     |     max     |
 |*"Fraction of failed PV fits"                    |       492 |          0 |( 0.000000 +- 0.000000)% |
 |*"Fraction of unconverged PV fits"               |       492 |         26 |( 5.284553 +- 1.008630)% |
 | "Nb PVs"                                        |       100 |        487 |     4.8700 |
VeloRetinaClusterTrackingSIMD_3c...    INFO Number of counters : 2
 |    Counter                                      |     #     |    sum     | mean/eff^* | rms/err^*  |     min     |     max     |
 | "Nb of Produced Clusters"                       |       100 |     207174 |     2071.7 |
 | "Nb of Produced Tracks"                         |       100 |      22510 |     225.10 |
fromPrSeedingTracksV1Tracks_1368...    INFO Number of counters : 1
 |    Counter                                      |     #     |    sum     | mean/eff^* | rms/err^*  |     min     |     max     |
 | "Nb of converted Tracks"                        |       100 |       4430 |     44.300 |
fromPrVeloTracksV1TracksMerger_c...    INFO Number of counters : 1
 |    Counter                                      |     #     |    sum     | mean/eff^* | rms/err^*  |     min     |     max     |
 | "Nb of converted Tracks"                        |       100 |      22510 |     225.10 |
