TrackResChecker__Event_PrKalmanF...    INFO      ************************************
TrackResChecker__Event_PrKalmanF...    INFO ALL/x pull     :  mean =  0.000 +/- 0.000, RMS = 0.000 +/- 0.000
TrackResChecker__Event_PrKalmanF...    INFO ALL/y pull     :  mean =  0.000 +/- 0.000, RMS = 0.000 +/- 0.000
TrackResChecker__Event_PrKalmanF...    INFO ALL/tx pull    :  mean =  1.344 +/- 0.400, RMS = 1.918 +/- 0.421
TrackResChecker__Event_PrKalmanF...    INFO ALL/ty pull    :  mean =  -0.075 +/- 0.236, RMS = 1.133 +/- 0.193
TrackResChecker__Event_PrKalmanF...    INFO ALL/p pull     :  mean =  1.134 +/- 0.308, RMS = 1.475 +/- 0.172
TrackResChecker__Event_PrKalmanF...    INFO ALL/probChi2   :  mean =  0.303 +/- 0.073, RMS = 0.348 +/- 0.033
TrackResChecker__Event_PrKalmanF...    INFO ALL/x resolution / mm:  RMS =  0.000 +/- 0.000 micron
TrackResChecker__Event_PrKalmanF...    INFO ALL/y resolution / mm:  RMS =  0.000 +/- 0.000 micron
TrackResChecker__Event_PrKalmanF...    INFO ALL/dp/p:  mean =  0.0071 +/- 0.0019, RMS =  0.0093 +/- 0.0014
TrackResChecker__Event_PrKalmanF...    INFO      ************************************
TrackResChecker__Event_PrKalmanF...    INFO ALL/x pull     :  mean =  0.000 +/- 0.000, RMS = 0.000 +/- 0.000
TrackResChecker__Event_PrKalmanF...    INFO ALL/y pull     :  mean =  0.000 +/- 0.000, RMS = 0.000 +/- 0.000
TrackResChecker__Event_PrKalmanF...    INFO ALL/tx pull    :  mean =  0.600 +/- 0.241, RMS = 1.384 +/- 0.250
TrackResChecker__Event_PrKalmanF...    INFO ALL/ty pull    :  mean =  -0.094 +/- 0.175, RMS = 1.008 +/- 0.129
TrackResChecker__Event_PrKalmanF...    INFO ALL/p pull     :  mean =  0.317 +/- 0.240, RMS = 1.380 +/- 0.159
TrackResChecker__Event_PrKalmanF...    INFO ALL/probChi2   :  mean =  0.408 +/- 0.056, RMS = 0.319 +/- 0.024
TrackResChecker__Event_PrKalmanF...    INFO ALL/x resolution / mm:  RMS =  0.000 +/- 0.000 micron
TrackResChecker__Event_PrKalmanF...    INFO ALL/y resolution / mm:  RMS =  0.000 +/- 0.000 micron
TrackResChecker__Event_PrKalmanF...    INFO ALL/dp/p:  mean =  0.0021 +/- 0.0013, RMS =  0.0077 +/- 0.0014
ApplicationMgr                         INFO Application Manager Finalized successfully
ApplicationMgr                         INFO Application Manager Terminated successfully
CloneKillerForward_6229b651            INFO Number of counters : 2
 |    Counter                                      |     #     |    sum     | mean/eff^* | rms/err^*  |     min     |     max     |
 | "nTracksInput"                                  |        95 |       8977 |     94.495 |
 | "nTracksSelected"                               |        95 |       1459 |     15.358 |
DefaultGECFilter                       INFO Number of counters : 2
 |    Counter                                      |     #     |    sum     | mean/eff^* | rms/err^*  |     min     |     max     |
 | "Nb Events Processed"                           |       100 |
 | "Nb events removed"                             |         5 |
HLTControlFlowMgr                      INFO Number of counters : 1
 |    Counter                                      |     #     |    sum     | mean/eff^* | rms/err^*  |     min     |     max     |
 | "Processed events"                              |       100 |
MuonSeeding_47704912                   INFO Number of counters : 1
 |    Counter                                      |     #     |    sum     | mean/eff^* | rms/err^*  |     min     |     max     |
 | "nMuonTrackCandidates"                          |        95 |        195 |     2.0526 |
MuonTrackSelector_affb464a             INFO Number of counters : 3
 |    Counter                                      |     #     |    sum     | mean/eff^* | rms/err^*  |     min     |     max     |
 | "Nb input tracks"                               |        95 |        195 |     2.0526 |
 | "Nb selected tracks"                            |        95 |        170 |     1.7895 |
 | "Not selected (low momentum)"                   |        25 |
PrForwardTrackingVelo_6024f9ec         INFO Number of counters : 10
 |    Counter                                      |     #     |    sum     | mean/eff^* | rms/err^*  |     min     |     max     |
 | "Accepted input tracks"                         |        95 |      17645 |     185.74 |
 | "Created long tracks"                           |        95 |       8977 |     94.495 |
 | "Input tracks"                                  |        95 |      18525 |     195.00 |
 | "Number of candidate bins per track"            |     17645 |     217826 |     12.345 |     13.549 |      0.0000 |      89.000 |
 | "Number of complete candidates/track 1st Loop"  |     16442 |       9865 |    0.59999 |    0.67368 |      0.0000 |      6.0000 |
 | "Number of complete candidates/track 2nd Loop"  |      8848 |        674 |   0.076175 |    0.27613 |      0.0000 |      2.0000 |
 | "Number of x candidates per track 1st Loop"     |     16442 |      33939 |     2.0642 |     2.2357 |
 | "Number of x candidates per track 2nd Loop"     |      8848 |      43910 |     4.9627 |     5.9549 |
 | "Percentage second loop execution"              |     16442 |       8848 |    0.53813 |
 | "Removed duplicates"                            |        95 |        523 |     5.5053 |
PrForwardTrackingVelo_6024f9ec.P...    INFO Number of counters : 2
 |    Counter                                      |     #     |    sum     | mean/eff^* | rms/err^*  |     min     |     max     |
 | "#UT hits added"                                |      7806 |      31241 |     4.0022 |
 | "#tracks with hits added"                       |      7806 |
PrForwardTrackingVelo_db1a8c4d         INFO Number of counters : 10
 |    Counter                                      |     #     |    sum     | mean/eff^* | rms/err^*  |     min     |     max     |
 | "Accepted input tracks"                         |        95 |      17645 |     185.74 |
 | "Created long tracks"                           |        95 |       8977 |     94.495 |
 | "Input tracks"                                  |        95 |      18525 |     195.00 |
 | "Number of candidate bins per track"            |     17645 |     217826 |     12.345 |     13.549 |      0.0000 |      89.000 |
 | "Number of complete candidates/track 1st Loop"  |     16442 |       9865 |    0.59999 |    0.67368 |      0.0000 |      6.0000 |
 | "Number of complete candidates/track 2nd Loop"  |      8848 |        674 |   0.076175 |    0.27613 |      0.0000 |      2.0000 |
 | "Number of x candidates per track 1st Loop"     |     16442 |      33939 |     2.0642 |     2.2357 |
 | "Number of x candidates per track 2nd Loop"     |      8848 |      43910 |     4.9627 |     5.9549 |
 | "Percentage second loop execution"              |     16442 |       8848 |    0.53813 |
 | "Removed duplicates"                            |        95 |        523 |     5.5053 |
PrHybridSeeding_4d0337cc               INFO Number of counters : 21
 |    Counter                                      |     #     |    sum     | mean/eff^* | rms/err^*  |     min     |     max     |
 | "Created T2x1 three-hit combinations in case 0" |    302265 |     187888 |    0.62160 |    0.62685 |      0.0000 |      6.0000 |
 | "Created T2x1 three-hit combinations in case 1" |    406312 |     271057 |    0.66712 |    0.73188 |      0.0000 |      11.000 |
 | "Created T2x1 three-hit combinations in case 2" |    679481 |     579438 |    0.85277 |     1.0064 |      0.0000 |      22.000 |
 | "Created XZ tracks (part 0)"                    |       285 |      29179 |     102.38 |     128.90 |      1.0000 |      1125.0 |
 | "Created XZ tracks (part 1)"                    |       285 |      27061 |     94.951 |     96.365 |      3.0000 |      573.00 |
 | "Created XZ tracks in case 0"                   |       190 |      17422 |     91.695 |     80.891 |      10.000 |      431.00 |
 | "Created XZ tracks in case 1"                   |       190 |      19640 |     103.37 |     106.77 |      6.0000 |      733.00 |
 | "Created XZ tracks in case 2"                   |       190 |      19178 |     100.94 |     144.48 |      1.0000 |      1125.0 |
 | "Created full hit combinations in case 0"       |     30798 |      30798 |     1.0000 |     0.0000 |      1.0000 |      1.0000 |
 | "Created full hit combinations in case 1"       |     24184 |      24184 |     1.0000 |     0.0000 |      1.0000 |      1.0000 |
 | "Created full hit combinations in case 2"       |     30812 |      30812 |     1.0000 |     0.0000 |      1.0000 |      1.0000 |
 | "Created seed tracks"                           |       190 |      13943 |     73.384 |     32.443 |      16.000 |      194.00 |
 | "Created seed tracks (part 0)"                  |        95 |       7857 |     82.705 |     38.412 |      16.000 |      221.00 |
 | "Created seed tracks (part 1)"                  |        95 |       7758 |     81.663 |     35.600 |      18.000 |      197.00 |
 | "Created seed tracks in case 0"                 |       190 |       7204 |     37.916 |     17.981 |      6.0000 |      108.00 |
 | "Created seed tracks in case 1"                 |       190 |      13025 |     68.553 |     29.628 |      15.000 |      168.00 |
 | "Created seed tracks in case 2"                 |       190 |      14715 |     77.447 |     34.786 |      15.000 |      213.00 |
 | "Created seed tracks in recovery step"          |        95 |        900 |     9.4737 |     5.8917 |      0.0000 |      29.000 |
 | "Created two-hit combinations in case 0"        |     36330 |    1020741 |     28.096 |     18.703 |      0.0000 |      94.000 |
 | "Created two-hit combinations in case 1"        |     31710 |    1241290 |     39.145 |     21.845 |      1.0000 |      169.00 |
 | "Created two-hit combinations in case 2"        |     26333 |    1580260 |     60.011 |     34.057 |      3.0000 |      228.00 |
PrKalmanFilterForward_d5e33fdc         INFO Number of counters : 6
 |    Counter                                      |     #     |    sum     | mean/eff^* | rms/err^*  |     min     |     max     |
 | "Pre outlier chi2 cut"                          |       184 |
 | "chi2 cut"                                      |       443 |
 | "nIterations"                                   |      1459 |       3956 |     2.7114 |
 | "nOutlierIterations"                            |      1275 |       1312 |     1.0290 |
 | "nTracksInput"                                  |        95 |       1459 |     15.358 |
 | "nTracksOutput"                                 |        95 |        832 |     8.7579 |
PrKalmanFilterMatch_356fb78a           INFO Number of counters : 6
 |    Counter                                      |     #     |    sum     | mean/eff^* | rms/err^*  |     min     |     max     |
 | "Pre outlier chi2 cut"                          |       139 |
 | "chi2 cut"                                      |       662 |
 | "nIterations"                                   |      9178 |      19877 |     2.1657 |
 | "nOutlierIterations"                            |      9039 |       4892 |    0.54121 |
 | "nTracksInput"                                  |        95 |       9178 |     96.611 |
 | "nTracksOutput"                                 |        95 |       8377 |     88.179 |
PrKalmanFilterToolLongMuonV1.Kal...    INFO Number of counters : 4
 |    Counter                                      |     #     |    sum     | mean/eff^* | rms/err^*  |     min     |     max     |
 | "nIterations"                                   |        23 |         62 |     2.6957 |
 | "nOutlierIterations"                            |        23 |         14 |    0.60870 |
 | "nTracksInput"                                  |        11 |         12 |     1.0909 |
 | "nTracksOutput"                                 |        11 |         12 |     1.0909 |
PrKalmanFilterToolLongMuonV1_noU...    INFO Number of counters : 4
 |    Counter                                      |     #     |    sum     | mean/eff^* | rms/err^*  |     min     |     max     |
 | "nIterations"                                   |        33 |         66 |     2.0000 |
 | "nOutlierIterations"                            |        33 |         19 |    0.57576 |
 | "nTracksInput"                                  |        29 |         33 |     1.1379 |
 | "nTracksOutput"                                 |        29 |         33 |     1.1379 |
PrLHCbID2MCParticle_a906d17d           INFO Number of counters : 1
 |    Counter                                      |     #     |    sum     | mean/eff^* | rms/err^*  |     min     |     max     |
 | "#removed null MCParticles"                     |    837620 |          0 |     0.0000 |
PrLongLivedTracking_fc34af4c           INFO Number of counters : 1
 |    Counter                                      |     #     |    sum     | mean/eff^* | rms/err^*  |     min     |     max     |
 | "#Downstream tracks made"                       |        95 |       8322 |     87.600 |
PrMatchNN_3856ae45                     INFO Number of counters : 3
 |    Counter                                      |     #     |    sum     | mean/eff^* | rms/err^*  |     min     |     max     |
 | "#MatchingChi2"                                 |        95 |   160623.9 |     1690.8 |
 | "#MatchingMLP"                                  |      9178 |   7663.463 |    0.83498 |
 | "#MatchingTracks"                               |        95 |       9178 |     96.611 |
PrMatchNN_3856ae45.PrAddUTHitsTool     INFO Number of counters : 2
 |    Counter                                      |     #     |    sum     | mean/eff^* | rms/err^*  |     min     |     max     |
 | "#UT hits added"                                |      7867 |      31417 |     3.9935 |
 | "#tracks with hits added"                       |      7867 |
PrMatchNN_970b7c91                     INFO Number of counters : 3
 |    Counter                                      |     #     |    sum     | mean/eff^* | rms/err^*  |     min     |     max     |
 | "#MatchingChi2"                                 |        95 |   160623.9 |     1690.8 |
 | "#MatchingMLP"                                  |      9178 |   7663.463 |    0.83498 |
 | "#MatchingTracks"                               |        95 |       9178 |     96.611 |
PrStorePrUTHits_df75b912               INFO Number of counters : 1
 |    Counter                                      |     #     |    sum     | mean/eff^* | rms/err^*  |     min     |     max     |
 | "#banks"                                        |        95 |      20520 |     216.00 |
PrStoreSciFiHits_fb0eba02              INFO Number of counters : 25
 |    Counter                                      |     #     |    sum     | mean/eff^* | rms/err^*  |     min     |     max     |
 | "Average X in T1U"                              |     36790 |   929792.9 |     25.273 |     1204.4 |     -2656.2 |      2656.0 |
 | "Average X in T1V"                              |     37575 |   450524.8 |     11.990 |     1185.9 |     -2656.3 |      2656.2 |
 | "Average X in T1X1"                             |     36330 |    1400110 |     38.539 |     1220.1 |     -2646.0 |      2646.0 |
 | "Average X in T1X2"                             |     37340 |   167810.3 |     4.4941 |     1171.8 |     -2646.0 |      2646.1 |
 | "Average X in T2U"                              |     36142 |   185964.8 |     5.1454 |     1200.8 |     -2656.3 |      2656.1 |
 | "Average X in T2V"                              |     37447 |   250575.5 |     6.6915 |     1193.7 |     -2655.0 |      2656.2 |
 | "Average X in T2X1"                             |     35181 |     637388 |     18.117 |     1205.0 |     -2645.9 |      2645.7 |
 | "Average X in T2X2"                             |     38317 |   80708.22 |     2.1063 |     1184.2 |     -2646.1 |      2645.9 |
 | "Average X in T3U"                              |     40591 |   35881.77 |    0.88398 |     1420.5 |     -3187.7 |      3188.4 |
 | "Average X in T3V"                              |     41324 |   55110.43 |     1.3336 |     1413.6 |     -3188.4 |      3188.3 |
 | "Average X in T3X1"                             |     39422 |  -273952.9 |    -6.9492 |     1428.3 |     -3176.2 |      3175.9 |
 | "Average X in T3X2"                             |     42826 |   392436.9 |     9.1635 |     1412.6 |     -3176.2 |      3175.9 |
 | "Hits in T1U"                                   |       380 |      36790 |     96.816 |     33.404 |      30.000 |      215.00 |
 | "Hits in T1V"                                   |       380 |      37575 |     98.882 |     33.236 |      26.000 |      207.00 |
 | "Hits in T1X1"                                  |       380 |      36330 |     95.605 |     34.568 |      29.000 |      214.00 |
 | "Hits in T1X2"                                  |       380 |      37340 |     98.263 |     34.392 |      27.000 |      216.00 |
 | "Hits in T2U"                                   |       380 |      36142 |     95.111 |     32.627 |      30.000 |      187.00 |
 | "Hits in T2V"                                   |       380 |      37447 |     98.545 |     33.378 |      28.000 |      202.00 |
 | "Hits in T2X1"                                  |       380 |      35181 |     92.582 |     31.038 |      28.000 |      189.00 |
 | "Hits in T2X2"                                  |       380 |      38317 |     100.83 |     34.542 |      27.000 |      217.00 |
 | "Hits in T3U"                                   |       380 |      40591 |     106.82 |     35.427 |      29.000 |      214.00 |
 | "Hits in T3V"                                   |       380 |      41324 |     108.75 |     35.839 |      31.000 |      209.00 |
 | "Hits in T3X1"                                  |       380 |      39422 |     103.74 |     33.707 |      31.000 |      222.00 |
 | "Hits in T3X2"                                  |       380 |      42826 |     112.70 |     37.471 |      32.000 |      211.00 |
 | "Total number of hits"                          |        95 |     459285 |     4834.6 |     1472.2 |      1884.0 |      8285.0 |
PrStoreUTHit_6220b56a                  INFO Number of counters : 1
 |    Counter                                      |     #     |    sum     | mean/eff^* | rms/err^*  |     min     |     max     |
 | "#banks"                                        |        95 |      20520 |     216.00 |
PrTrackAssociator_1c80ff04             INFO Number of counters : 2
 |    Counter                                      |     #     |    sum     | mean/eff^* | rms/err^*  |     min     |     max     |
 |*"Efficiency"                                    |        23 |         23 |( 100.0000 +- 0.000000)% |
 | "MC particles per track"                        |        23 |         35 |     1.5217 |
PrTrackAssociator_391f794a             INFO Number of counters : 2
 |    Counter                                      |     #     |    sum     | mean/eff^* | rms/err^*  |     min     |     max     |
 |*"Efficiency"                                    |        33 |         33 |( 100.0000 +- 0.000000)% |
 | "MC particles per track"                        |        33 |         44 |     1.3333 |
PrVPHitsToVPLightClusters_599554c8     INFO Number of counters : 1
 |    Counter                                      |     #     |    sum     | mean/eff^* | rms/err^*  |     min     |     max     |
 | "Nb of Produced Clusters"                       |        95 |     253219 |     2665.5 |
PrVeloUT_4eab5c1b                      INFO Number of counters : 2
 |    Counter                                      |     #     |    sum     | mean/eff^* | rms/err^*  |     min     |     max     |
 | "#seeds"                                        |        95 |      18525 |     195.00 |
 | "#tracks"                                       |        95 |       4934 |     51.937 |
SciFiTrackForwarding_3f97d4b1          INFO Number of counters : 2
 |    Counter                                      |     #     |    sum     | mean/eff^* | rms/err^*  |     min     |     max     |
 | "2nd Loop"                                      |      2233 |
 | "Created long tracks"                           |        95 |       3086 |     32.484 |
StandaloneMuonRec_bc8b7e6a             INFO Number of counters : 2
 |    Counter                                      |     #     |    sum     | mean/eff^* | rms/err^*  |     min     |     max     |
 | "nEvents"                                       |        95 |
 | "nMuonTrackCandidates"                          |        95 |        195 |     2.0526 |
TBTCForward_336a3264                   INFO Number of counters : 3
 |    Counter                                      |     #     |    sum     | mean/eff^* | rms/err^*  |     min     |     max     |
 |*"BadInput"                                      |       830 |          0 |( 0.000000 +- 0.000000)% |
 |*"FitFailed"                                     |       830 |          0 |( 0.000000 +- 0.000000)% |
 | "FittedBefore"                                  |       830 |
TBTC_Match_7d25e732                    INFO Number of counters : 3
 |    Counter                                      |     #     |    sum     | mean/eff^* | rms/err^*  |     min     |     max     |
 |*"BadInput"                                      |      8361 |          0 |( 0.000000 +- 0.000000)% |
 |*"FitFailed"                                     |      8361 |          0 |( 0.000000 +- 0.000000)% |
 | "FittedBefore"                                  |      8361 |
TrackBestTrackCreator_ce68daa0         INFO Number of counters : 32
 |    Counter                                      |     #     |    sum     | mean/eff^* | rms/err^*  |     min     |     max     |
 |*"BadInput"                                      |     68973 |          0 |( 0.000000 +- 0.000000)% |
 |*"Downstream.badChisq"                           |      8084 |       4308 |( 53.29045 +- 0.5548996)% |
 | "Downstream.chisqProbSum"                       |      8084 |   1136.816 |    0.14063 |
 |*"Downstream.flipCharge"                         |      8084 |          0 |( 0.000000 +- 0.000000)% |
 | "Downstream.ghostProbability"                   |      8084 |   4050.054 |    0.50100 |
 | "Downstream.numOutliers"                        |      8084 |      10804 |     1.3365 |
 |*"FitFailed"                                     |     68973 |          0 |( 0.000000 +- 0.000000)% |
 |*"Long.badChisq"                                 |     20534 |      20236 |( 98.54875 +- 0.08345649)% |
 | "Long.chisqProbSum"                             |     20534 |    58.4049 |  0.0028443 |
 |*"Long.flipCharge"                               |     20534 |          1 |(0.004869972 +- 0.004869853)% |
 | "Long.ghostProbability"                         |     20534 |   2460.856 |    0.11984 |
 | "Long.numOutliers"                              |     20534 |      61774 |     3.0084 |
 |*"Ttrack.badChisq"                               |      9018 |        384 |( 4.258150 +- 0.2126211)% |
 | "Ttrack.chisqProbSum"                           |      9018 |   3276.975 |    0.36338 |
 |*"Ttrack.flipCharge"                             |      9018 |        157 |( 1.740963 +- 0.1377291)% |
 | "Ttrack.ghostProbability"                       |      9018 |   477.0624 |   0.052901 |
 | "Ttrack.numOutliers"                            |      9018 |       4519 |    0.50111 |
 |*"Upstream.badChisq"                             |      4723 |       3774 |( 79.90684 +- 0.5830518)% |
 | "Upstream.chisqProbSum"                         |      4723 |   182.4402 |   0.038628 |
 |*"Upstream.flipCharge"                           |      4723 |        430 |( 9.104383 +- 0.4185889)% |
 | "Upstream.ghostProbability"                     |      4723 |   2767.677 |    0.58600 |
 | "Upstream.numOutliers"                          |      4723 |      11127 |     2.3559 |
 |*"Velo.badChisq"                                 |     16376 |       4712 |( 28.77382 +- 0.3537648)% |
 | "Velo.chisqProbSum"                             |     16376 |   3734.083 |    0.22802 |
 |*"Velo.flipCharge"                               |     16376 |          0 |( 0.000000 +- 0.000000)% |
 | "Velo.ghostProbability"                         |     16376 |    4494.48 |    0.27446 |
 | "Velo.numOutliers"                              |     16376 |      26784 |     1.6356 |
 |*"VeloBackward.badChisq"                         |     10238 |        767 |( 7.491698 +- 0.2601794)% |
 | "VeloBackward.chisqProbSum"                     |     10238 |   3853.252 |    0.37637 |
 |*"VeloBackward.flipCharge"                       |     10238 |          0 |( 0.000000 +- 0.000000)% |
 | "VeloBackward.ghostProbability"                 |     10238 |   1419.764 |    0.13868 |
 | "VeloBackward.numOutliers"                      |     10238 |       6226 |    0.60813 |
TrackMuonMatching_88b7bb0b             INFO Number of counters : 1
 |    Counter                                      |     #     |    sum     | mean/eff^* | rms/err^*  |     min     |     max     |
 | "nMatchedTracks"                                |        12 |
TrackMuonMatching_af60d4ac             INFO Number of counters : 1
 |    Counter                                      |     #     |    sum     | mean/eff^* | rms/err^*  |     min     |     max     |
 | "nMatchedTracks"                                |        33 |
Unpack__Event_MC_FT_Hits               INFO Number of counters : 1
 |    Counter                                      |     #     |    sum     | mean/eff^* | rms/err^*  |     min     |     max     |
 | "# UnPackedData"                                |        95 |     389284 |     4097.7 |     1644.6 |      904.00 |      7803.0 |
Unpack__Event_MC_UT_Hits               INFO Number of counters : 1
 |    Counter                                      |     #     |    sum     | mean/eff^* | rms/err^*  |     min     |     max     |
 | "# UnPackedData"                                |        95 |     135295 |     1424.2 |     581.14 |      312.00 |      2941.0 |
Unpack__Event_MC_VP_Hits               INFO Number of counters : 1
 |    Counter                                      |     #     |    sum     | mean/eff^* | rms/err^*  |     min     |     max     |
 | "# UnPackedData"                                |        95 |     258556 |     2721.6 |     1058.7 |      627.00 |      5380.0 |
VeloClusterTrackingSIMD_87c18651       INFO Number of counters : 2
 |    Counter                                      |     #     |    sum     | mean/eff^* | rms/err^*  |     min     |     max     |
 | "Nb of Produced Clusters"                       |        95 |     253219 |     2665.5 |
 | "Nb of Produced Tracks"                         |        95 |      28777 |     302.92 |
VeloKalman_bf73c006                    INFO Number of counters : 1
 |    Counter                                      |     #     |    sum     | mean/eff^* | rms/err^*  |     min     |     max     |
 | "Nb of Produced Tracks"                         |        95 |       3086 |     32.484 |
fromPrDownstreamTracksV1Tracks_b...    INFO Number of counters : 1
 |    Counter                                      |     #     |    sum     | mean/eff^* | rms/err^*  |     min     |     max     |
 | "Nb of converted Tracks"                        |        95 |       8322 |     87.600 |
fromPrForwardTracksV1Tracks_f53f...    INFO Number of counters : 1
 |    Counter                                      |     #     |    sum     | mean/eff^* | rms/err^*  |     min     |     max     |
 | "Nb of converted Tracks"                        |        95 |       8977 |     94.495 |
fromPrMatchTracksV1Tracks_67f41548     INFO Number of counters : 1
 |    Counter                                      |     #     |    sum     | mean/eff^* | rms/err^*  |     min     |     max     |
 | "Nb of converted Tracks"                        |        95 |       9178 |     96.611 |
fromPrSeedingTracksV1Tracks_84cd...    INFO Number of counters : 1
 |    Counter                                      |     #     |    sum     | mean/eff^* | rms/err^*  |     min     |     max     |
 | "Nb of converted Tracks"                        |        95 |      13943 |     146.77 |
fromPrUpstreamTracksV1Tracks_bb9...    INFO Number of counters : 1
 |    Counter                                      |     #     |    sum     | mean/eff^* | rms/err^*  |     min     |     max     |
 | "Nb of converted Tracks"                        |        95 |       4934 |     51.937 |
fromPrVeloTracksV1TracksMerger_f...    INFO Number of counters : 1
 |    Counter                                      |     #     |    sum     | mean/eff^* | rms/err^*  |     min     |     max     |
 | "Nb of converted Tracks"                        |        95 |      28777 |     302.92 |
fromV3TrackV1Track_b740be5d            INFO Number of counters : 1
 |    Counter                                      |     #     |    sum     | mean/eff^* | rms/err^*  |     min     |     max     |
 | "Nb of Produced Tracks"                         |        95 |       3086 |     32.484 |
