DeMagnetConditionCall                  INFO Loading mag field from DBASE/FieldMap/vXrYpZ/cdf
MagneticFieldExtension                 INFO Scale factor: 1.000000
FTRawBankDecoder                       INFO Conditions DB is compatible with FT bank version 7 and 8.
TtrackProtos                        SUCCESS Print all proto particles of an event
TtrackProtos                        SUCCESS { Track 1 CaloHypos 0 RichPID 0 MuonPID 0 GlobalChargedPID 0 NeutralPID 0
 CaloChargedPID 0 BremInfo 0
ExtraInfo [
 ] }
{ Track 1 CaloHypos 0 RichPID 1 MuonPID 0 GlobalChargedPID 1 NeutralPID 0
 CaloChargedPID 0 BremInfo 0
ExtraInfo [
 ] }
{ Track 1 CaloHypos 0 RichPID 1 MuonPID 0 GlobalChargedPID 1 NeutralPID 0
 CaloChargedPID 0 BremInfo 0
ExtraInfo [
 ] }
{ Track 1 CaloHypos 0 RichPID 1 MuonPID 0 GlobalChargedPID 1 NeutralPID 0
 CaloChargedPID 0 BremInfo 0
ExtraInfo [
 ] }
{ Track 1 CaloHypos 0 RichPID 1 MuonPID 0 GlobalChargedPID 1 NeutralPID 0
 CaloChargedPID 0 BremInfo 0
ExtraInfo [
 ] }
{ Track 1 CaloHypos 0 RichPID 1 MuonPID 0 GlobalChargedPID 1 NeutralPID 0
 CaloChargedPID 0 BremInfo 0
ExtraInfo [
 ] }
{ Track 1 CaloHypos 0 RichPID 1 MuonPID 0 GlobalChargedPID 1 NeutralPID 0
 CaloChargedPID 0 BremInfo 0
ExtraInfo [
 ] }
{ Track 1 CaloHypos 0 RichPID 1 MuonPID 0 GlobalChargedPID 1 NeutralPID 0
 CaloChargedPID 0 BremInfo 0
ExtraInfo [
 ] }
{ Track 1 CaloHypos 0 RichPID 1 MuonPID 0 GlobalChargedPID 1 NeutralPID 0
 CaloChargedPID 0 BremInfo 0
ExtraInfo [
 ] }
{ Track 1 CaloHypos 0 RichPID 1 MuonPID 0 GlobalChargedPID 1 NeutralPID 0
 CaloChargedPID 0 BremInfo 0
ExtraInfo [
 ] }
{ Track 1 CaloHypos 0 RichPID 0 MuonPID 0 GlobalChargedPID 0 NeutralPID 0
 CaloChargedPID 0 BremInfo 0
ExtraInfo [
 ] }
{ Track 1 CaloHypos 0 RichPID 0 MuonPID 0 GlobalChargedPID 0 NeutralPID 0
 CaloChargedPID 0 BremInfo 0
ExtraInfo [
 ] }
{ Track 1 CaloHypos 0 RichPID 0 MuonPID 0 GlobalChargedPID 0 NeutralPID 0
 CaloChargedPID 0 BremInfo 0
ExtraInfo [
 ] }
{ Track 1 CaloHypos 0 RichPID 0 MuonPID 0 GlobalChargedPID 0 NeutralPID 0
 CaloChargedPID 0 BremInfo 0
ExtraInfo [
 ] }
{ Track 1 CaloHypos 0 RichPID 1 MuonPID 0 GlobalChargedPID 1 NeutralPID 0
 CaloChargedPID 0 BremInfo 0
ExtraInfo [
 ] }
{ Track 1 CaloHypos 0 RichPID 0 MuonPID 0 GlobalChargedPID 0 NeutralPID 0
 CaloChargedPID 0 BremInfo 0
ExtraInfo [
 ] }
{ Track 1 CaloHypos 0 RichPID 0 MuonPID 0 GlobalChargedPID 0 NeutralPID 0
 CaloChargedPID 0 BremInfo 0
ExtraInfo [
 ] }
{ Track 1 CaloHypos 0 RichPID 0 MuonPID 0 GlobalChargedPID 0 NeutralPID 0
 CaloChargedPID 0 BremInfo 0
ExtraInfo [
 ] }
{ Track 1 CaloHypos 0 RichPID 0 MuonPID 0 GlobalChargedPID 0 NeutralPID 0
 CaloChargedPID 0 BremInfo 0
ExtraInfo [
 ] }
{ Track 1 CaloHypos 0 RichPID 1 MuonPID 0 GlobalChargedPID 1 NeutralPID 0
 CaloChargedPID 0 BremInfo 0
ExtraInfo [
 ] }
{ Track 1 CaloHypos 0 RichPID 1 MuonPID 0 GlobalChargedPID 1 NeutralPID 0
 CaloChargedPID 0 BremInfo 0
ExtraInfo [
 ] }
{ Track 1 CaloHypos 0 RichPID 1 MuonPID 0 GlobalChargedPID 1 NeutralPID 0
 CaloChargedPID 0 BremInfo 0
ExtraInfo [
 ] }
{ Track 1 CaloHypos 0 RichPID 1 MuonPID 0 GlobalChargedPID 1 NeutralPID 0
 CaloChargedPID 0 BremInfo 0
ExtraInfo [
 ] }
{ Track 1 CaloHypos 0 RichPID 1 MuonPID 0 GlobalChargedPID 1 NeutralPID 0
 CaloChargedPID 0 BremInfo 0
ExtraInfo [
 ] }
{ Track 1 CaloHypos 0 RichPID 1 MuonPID 0 GlobalChargedPID 1 NeutralPID 0
 CaloChargedPID 0 BremInfo 0
ExtraInfo [
 ] }
{ Track 1 CaloHypos 0 RichPID 1 MuonPID 0 GlobalChargedPID 1 NeutralPID 0
 CaloChargedPID 0 BremInfo 0
ExtraInfo [
 ] }
{ Track 1 CaloHypos 0 RichPID 1 MuonPID 0 GlobalChargedPID 1 NeutralPID 0
 CaloChargedPID 0 BremInfo 0
ExtraInfo [
 ] }
{ Track 1 CaloHypos 0 RichPID 0 MuonPID 0 GlobalChargedPID 0 NeutralPID 0
 CaloChargedPID 0 BremInfo 0
ExtraInfo [
 ] }
{ Track 1 CaloHypos 0 RichPID 0 MuonPID 0 GlobalChargedPID 0 NeutralPID 0
 CaloChargedPID 0 BremInfo 0
ExtraInfo [
 ] }
{ Track 1 CaloHypos 0 RichPID 0 MuonPID 0 GlobalChargedPID 0 NeutralPID 0
 CaloChargedPID 0 BremInfo 0
ExtraInfo [
 ] }
{ Track 1 CaloHypos 0 RichPID 0 MuonPID 0 GlobalChargedPID 0 NeutralPID 0
 CaloChargedPID 0 BremInfo 0
ExtraInfo [
 ] }
{ Track 1 CaloHypos 0 RichPID 1 MuonPID 0 GlobalChargedPID 1 NeutralPID 0
 CaloChargedPID 0 BremInfo 0
ExtraInfo [
 ] }
{ Track 1 CaloHypos 0 RichPID 0 MuonPID 0 GlobalChargedPID 0 NeutralPID 0
 CaloChargedPID 0 BremInfo 0
ExtraInfo [
 ] }
{ Track 1 CaloHypos 0 RichPID 0 MuonPID 0 GlobalChargedPID 0 NeutralPID 0
 CaloChargedPID 0 BremInfo 0
ExtraInfo [
 ] }
{ Track 1 CaloHypos 0 RichPID 0 MuonPID 0 GlobalChargedPID 0 NeutralPID 0
 CaloChargedPID 0 BremInfo 0
ExtraInfo [
 ] }
{ Track 1 CaloHypos 0 RichPID 0 MuonPID 0 GlobalChargedPID 0 NeutralPID 0
 CaloChargedPID 0 BremInfo 0
ExtraInfo [
 ] }
{ Track 1 CaloHypos 0 RichPID 0 MuonPID 0 GlobalChargedPID 0 NeutralPID 0
 CaloChargedPID 0 BremInfo 0
ExtraInfo [
 ] }
{ Track 1 CaloHypos 0 RichPID 0 MuonPID 0 GlobalChargedPID 0 NeutralPID 0
 CaloChargedPID 0 BremInfo 0
ExtraInfo [
 ] }
{ Track 1 CaloHypos 0 RichPID 0 MuonPID 0 GlobalChargedPID 0 NeutralPID 0
 CaloChargedPID 0 BremInfo 0
ExtraInfo [
 ] }
{ Track 1 CaloHypos 0 RichPID 0 MuonPID 0 GlobalChargedPID 0 NeutralPID 0
 CaloChargedPID 0 BremInfo 0
ExtraInfo [
 ] }
{ Track 1 CaloHypos 0 RichPID 0 MuonPID 0 GlobalChargedPID 0 NeutralPID 0
 CaloChargedPID 0 BremInfo 0
ExtraInfo [
 ] }
{ Track 1 CaloHypos 0 RichPID 0 MuonPID 0 GlobalChargedPID 0 NeutralPID 0
 CaloChargedPID 0 BremInfo 0
ExtraInfo [
 ] }
{ Track 1 CaloHypos 0 RichPID 0 MuonPID 0 GlobalChargedPID 0 NeutralPID 0
 CaloChargedPID 0 BremInfo 0
ExtraInfo [
 ] }
{ Track 1 CaloHypos 0 RichPID 1 MuonPID 0 GlobalChargedPID 1 NeutralPID 0
 CaloChargedPID 0 BremInfo 0
ExtraInfo [
 ] }
{ Track 1 CaloHypos 0 RichPID 1 MuonPID 0 GlobalChargedPID 1 NeutralPID 0
 CaloChargedPID 0 BremInfo 0
ExtraInfo [
 ] }
{ Track 1 CaloHypos 0 RichPID 0 MuonPID 0 GlobalChargedPID 0 NeutralPID 0
 CaloChargedPID 0 BremInfo 0
ExtraInfo [
 ] }
{ Track 1 CaloHypos 0 RichPID 1 MuonPID 0 GlobalChargedPID 1 NeutralPID 0
 CaloChargedPID 0 BremInfo 0
ExtraInfo [
 ] }
{ Track 1 CaloHypos 0 RichPID 1 MuonPID 0 GlobalChargedPID 1 NeutralPID 0
 CaloChargedPID 0 BremInfo 0
ExtraInfo [
 ] }
{ Track 1 CaloHypos 0 RichPID 1 MuonPID 0 GlobalChargedPID 1 NeutralPID 0
 CaloChargedPID 0 BremInfo 0
ExtraInfo [
 ] }
{ Track 1 CaloHypos 0 RichPID 0 MuonPID 0 GlobalChargedPID 0 NeutralPID 0
 CaloChargedPID 0 BremInfo 0
ExtraInfo [
 ] }
{ Track 1 CaloHypos 0 RichPID 0 MuonPID 0 GlobalChargedPID 0 NeutralPID 0
 CaloChargedPID 0 BremInfo 0
ExtraInfo [
 ] }
{ Track 1 CaloHypos 0 RichPID 0 MuonPID 0 GlobalChargedPID 0 NeutralPID 0
 CaloChargedPID 0 BremInfo 0
ExtraInfo [
 ] }
{ Track 1 CaloHypos 0 RichPID 1 MuonPID 0 GlobalChargedPID 1 NeutralPID 0
 CaloChargedPID 0 BremInfo 0
ExtraInfo [
 ] }
{ Track 1 CaloHypos 0 RichPID 1 MuonPID 0 GlobalChargedPID 1 NeutralPID 0
 CaloChargedPID 0 BremInfo 0
ExtraInfo [
 ] }
{ Track 1 CaloHypos 0 RichPID 1 MuonPID 0 GlobalChargedPID 1 NeutralPID 0
 CaloChargedPID 0 BremInfo 0
ExtraInfo [
 ] }
{ Track 1 CaloHypos 0 RichPID 0 MuonPID 0 GlobalChargedPID 0 NeutralPID 0
 CaloChargedPID 0 BremInfo 0
ExtraInfo [
 ] }
{ Track 1 CaloHypos 0 RichPID 0 MuonPID 0 GlobalChargedPID 0 NeutralPID 0
 CaloChargedPID 0 BremInfo 0
ExtraInfo [
 ] }
{ Track 1 CaloHypos 0 RichPID 1 MuonPID 0 GlobalChargedPID 1 NeutralPID 0
 CaloChargedPID 0 BremInfo 0
ExtraInfo [
 ] }
{ Track 1 CaloHypos 0 RichPID 0 MuonPID 0 GlobalChargedPID 0 NeutralPID 0
 CaloChargedPID 0 BremInfo 0
ExtraInfo [
 ] }
{ Track 1 CaloHypos 0 RichPID 0 MuonPID 0 GlobalChargedPID 0 NeutralPID 0
 CaloChargedPID 0 BremInfo 0
ExtraInfo [
 ] }
{ Track 1 CaloHypos 0 RichPID 1 MuonPID 0 GlobalChargedPID 1 NeutralPID 0
 CaloChargedPID 0 BremInfo 0
ExtraInfo [
 ] }
{ Track 1 CaloHypos 0 RichPID 1 MuonPID 0 GlobalChargedPID 1 NeutralPID 0
 CaloChargedPID 0 BremInfo 0
ExtraInfo [
 ] }
{ Track 1 CaloHypos 0 RichPID 1 MuonPID 0 GlobalChargedPID 1 NeutralPID 0
 CaloChargedPID 0 BremInfo 0
ExtraInfo [
 ] }
{ Track 1 CaloHypos 0 RichPID 0 MuonPID 0 GlobalChargedPID 0 NeutralPID 0
 CaloChargedPID 0 BremInfo 0
ExtraInfo [
 ] }
{ Track 1 CaloHypos 0 RichPID 1 MuonPID 0 GlobalChargedPID 1 NeutralPID 0
 CaloChargedPID 0 BremInfo 0
ExtraInfo [
 ] }
Printing ended
TtrackProtos                        SUCCESS Print all proto particles of an event
TtrackProtos                        SUCCESS { Track 1 CaloHypos 0 RichPID 1 MuonPID 0 GlobalChargedPID 1 NeutralPID 0
 CaloChargedPID 0 BremInfo 0
ExtraInfo [
 ] }
{ Track 1 CaloHypos 0 RichPID 1 MuonPID 0 GlobalChargedPID 1 NeutralPID 0
 CaloChargedPID 0 BremInfo 0
ExtraInfo [
 ] }
{ Track 1 CaloHypos 0 RichPID 1 MuonPID 0 GlobalChargedPID 1 NeutralPID 0
 CaloChargedPID 0 BremInfo 0
ExtraInfo [
 ] }
{ Track 1 CaloHypos 0 RichPID 1 MuonPID 0 GlobalChargedPID 1 NeutralPID 0
 CaloChargedPID 0 BremInfo 0
ExtraInfo [
 ] }
{ Track 1 CaloHypos 0 RichPID 1 MuonPID 0 GlobalChargedPID 1 NeutralPID 0
 CaloChargedPID 0 BremInfo 0
ExtraInfo [
 ] }
{ Track 1 CaloHypos 0 RichPID 1 MuonPID 0 GlobalChargedPID 1 NeutralPID 0
 CaloChargedPID 0 BremInfo 0
ExtraInfo [
 ] }
{ Track 1 CaloHypos 0 RichPID 1 MuonPID 0 GlobalChargedPID 1 NeutralPID 0
 CaloChargedPID 0 BremInfo 0
ExtraInfo [
 ] }
{ Track 1 CaloHypos 0 RichPID 1 MuonPID 0 GlobalChargedPID 1 NeutralPID 0
 CaloChargedPID 0 BremInfo 0
ExtraInfo [
 ] }
{ Track 1 CaloHypos 0 RichPID 1 MuonPID 0 GlobalChargedPID 1 NeutralPID 0
 CaloChargedPID 0 BremInfo 0
ExtraInfo [
 ] }
{ Track 1 CaloHypos 0 RichPID 1 MuonPID 0 GlobalChargedPID 1 NeutralPID 0
 CaloChargedPID 0 BremInfo 0
ExtraInfo [
 ] }
{ Track 1 CaloHypos 0 RichPID 1 MuonPID 0 GlobalChargedPID 1 NeutralPID 0
 CaloChargedPID 0 BremInfo 0
ExtraInfo [
 ] }
{ Track 1 CaloHypos 0 RichPID 0 MuonPID 0 GlobalChargedPID 0 NeutralPID 0
 CaloChargedPID 0 BremInfo 0
ExtraInfo [
 ] }
{ Track 1 CaloHypos 0 RichPID 0 MuonPID 0 GlobalChargedPID 0 NeutralPID 0
 CaloChargedPID 0 BremInfo 0
ExtraInfo [
 ] }
{ Track 1 CaloHypos 0 RichPID 0 MuonPID 0 GlobalChargedPID 0 NeutralPID 0
 CaloChargedPID 0 BremInfo 0
ExtraInfo [
 ] }
{ Track 1 CaloHypos 0 RichPID 0 MuonPID 0 GlobalChargedPID 0 NeutralPID 0
 CaloChargedPID 0 BremInfo 0
ExtraInfo [
 ] }
{ Track 1 CaloHypos 0 RichPID 0 MuonPID 0 GlobalChargedPID 0 NeutralPID 0
 CaloChargedPID 0 BremInfo 0
ExtraInfo [
 ] }
{ Track 1 CaloHypos 0 RichPID 0 MuonPID 0 GlobalChargedPID 0 NeutralPID 0
 CaloChargedPID 0 BremInfo 0
ExtraInfo [
 ] }
{ Track 1 CaloHypos 0 RichPID 1 MuonPID 0 GlobalChargedPID 1 NeutralPID 0
 CaloChargedPID 0 BremInfo 0
ExtraInfo [
 ] }
{ Track 1 CaloHypos 0 RichPID 0 MuonPID 0 GlobalChargedPID 0 NeutralPID 0
 CaloChargedPID 0 BremInfo 0
ExtraInfo [
 ] }
{ Track 1 CaloHypos 0 RichPID 0 MuonPID 0 GlobalChargedPID 0 NeutralPID 0
 CaloChargedPID 0 BremInfo 0
ExtraInfo [
 ] }
{ Track 1 CaloHypos 0 RichPID 0 MuonPID 0 GlobalChargedPID 0 NeutralPID 0
 CaloChargedPID 0 BremInfo 0
ExtraInfo [
 ] }
{ Track 1 CaloHypos 0 RichPID 0 MuonPID 0 GlobalChargedPID 0 NeutralPID 0
 CaloChargedPID 0 BremInfo 0
ExtraInfo [
 ] }
{ Track 1 CaloHypos 0 RichPID 0 MuonPID 0 GlobalChargedPID 0 NeutralPID 0
 CaloChargedPID 0 BremInfo 0
ExtraInfo [
 ] }
{ Track 1 CaloHypos 0 RichPID 0 MuonPID 0 GlobalChargedPID 0 NeutralPID 0
 CaloChargedPID 0 BremInfo 0
ExtraInfo [
 ] }
{ Track 1 CaloHypos 0 RichPID 0 MuonPID 0 GlobalChargedPID 0 NeutralPID 0
 CaloChargedPID 0 BremInfo 0
ExtraInfo [
 ] }
{ Track 1 CaloHypos 0 RichPID 0 MuonPID 0 GlobalChargedPID 0 NeutralPID 0
 CaloChargedPID 0 BremInfo 0
ExtraInfo [
 ] }
{ Track 1 CaloHypos 0 RichPID 0 MuonPID 0 GlobalChargedPID 0 NeutralPID 0
 CaloChargedPID 0 BremInfo 0
ExtraInfo [
 ] }
{ Track 1 CaloHypos 0 RichPID 1 MuonPID 0 GlobalChargedPID 1 NeutralPID 0
 CaloChargedPID 0 BremInfo 0
ExtraInfo [
 ] }
{ Track 1 CaloHypos 0 RichPID 1 MuonPID 0 GlobalChargedPID 1 NeutralPID 0
 CaloChargedPID 0 BremInfo 0
ExtraInfo [
 ] }
{ Track 1 CaloHypos 0 RichPID 1 MuonPID 0 GlobalChargedPID 1 NeutralPID 0
 CaloChargedPID 0 BremInfo 0
ExtraInfo [
 ] }
{ Track 1 CaloHypos 0 RichPID 1 MuonPID 0 GlobalChargedPID 1 NeutralPID 0
 CaloChargedPID 0 BremInfo 0
ExtraInfo [
 ] }
{ Track 1 CaloHypos 0 RichPID 1 MuonPID 0 GlobalChargedPID 1 NeutralPID 0
 CaloChargedPID 0 BremInfo 0
ExtraInfo [
 ] }
{ Track 1 CaloHypos 0 RichPID 1 MuonPID 0 GlobalChargedPID 1 NeutralPID 0
 CaloChargedPID 0 BremInfo 0
ExtraInfo [
 ] }
{ Track 1 CaloHypos 0 RichPID 1 MuonPID 0 GlobalChargedPID 1 NeutralPID 0
 CaloChargedPID 0 BremInfo 0
ExtraInfo [
 ] }
{ Track 1 CaloHypos 0 RichPID 1 MuonPID 0 GlobalChargedPID 1 NeutralPID 0
 CaloChargedPID 0 BremInfo 0
ExtraInfo [
 ] }
{ Track 1 CaloHypos 0 RichPID 1 MuonPID 0 GlobalChargedPID 1 NeutralPID 0
 CaloChargedPID 0 BremInfo 0
ExtraInfo [
 ] }
{ Track 1 CaloHypos 0 RichPID 1 MuonPID 0 GlobalChargedPID 1 NeutralPID 0
 CaloChargedPID 0 BremInfo 0
ExtraInfo [
 ] }
{ Track 1 CaloHypos 0 RichPID 1 MuonPID 0 GlobalChargedPID 1 NeutralPID 0
 CaloChargedPID 0 BremInfo 0
ExtraInfo [
 ] }
{ Track 1 CaloHypos 0 RichPID 0 MuonPID 0 GlobalChargedPID 0 NeutralPID 0
 CaloChargedPID 0 BremInfo 0
ExtraInfo [
 ] }
{ Track 1 CaloHypos 0 RichPID 0 MuonPID 0 GlobalChargedPID 0 NeutralPID 0
 CaloChargedPID 0 BremInfo 0
ExtraInfo [
 ] }
{ Track 1 CaloHypos 0 RichPID 0 MuonPID 0 GlobalChargedPID 0 NeutralPID 0
 CaloChargedPID 0 BremInfo 0
ExtraInfo [
 ] }
{ Track 1 CaloHypos 0 RichPID 0 MuonPID 0 GlobalChargedPID 0 NeutralPID 0
 CaloChargedPID 0 BremInfo 0
ExtraInfo [
 ] }
{ Track 1 CaloHypos 0 RichPID 0 MuonPID 0 GlobalChargedPID 0 NeutralPID 0
 CaloChargedPID 0 BremInfo 0
ExtraInfo [
 ] }
{ Track 1 CaloHypos 0 RichPID 0 MuonPID 0 GlobalChargedPID 0 NeutralPID 0
 CaloChargedPID 0 BremInfo 0
ExtraInfo [
 ] }
{ Track 1 CaloHypos 0 RichPID 0 MuonPID 0 GlobalChargedPID 0 NeutralPID 0
 CaloChargedPID 0 BremInfo 0
ExtraInfo [
 ] }
{ Track 1 CaloHypos 0 RichPID 0 MuonPID 0 GlobalChargedPID 0 NeutralPID 0
 CaloChargedPID 0 BremInfo 0
ExtraInfo [
 ] }
{ Track 1 CaloHypos 0 RichPID 0 MuonPID 0 GlobalChargedPID 0 NeutralPID 0
 CaloChargedPID 0 BremInfo 0
ExtraInfo [
 ] }
{ Track 1 CaloHypos 0 RichPID 1 MuonPID 0 GlobalChargedPID 1 NeutralPID 0
 CaloChargedPID 0 BremInfo 0
ExtraInfo [
 ] }
{ Track 1 CaloHypos 0 RichPID 1 MuonPID 0 GlobalChargedPID 1 NeutralPID 0
 CaloChargedPID 0 BremInfo 0
ExtraInfo [
 ] }
{ Track 1 CaloHypos 0 RichPID 0 MuonPID 0 GlobalChargedPID 0 NeutralPID 0
 CaloChargedPID 0 BremInfo 0
ExtraInfo [
 ] }
{ Track 1 CaloHypos 0 RichPID 0 MuonPID 0 GlobalChargedPID 0 NeutralPID 0
 CaloChargedPID 0 BremInfo 0
ExtraInfo [
 ] }
{ Track 1 CaloHypos 0 RichPID 0 MuonPID 0 GlobalChargedPID 0 NeutralPID 0
 CaloChargedPID 0 BremInfo 0
ExtraInfo [
 ] }
{ Track 1 CaloHypos 0 RichPID 0 MuonPID 0 GlobalChargedPID 0 NeutralPID 0
 CaloChargedPID 0 BremInfo 0
ExtraInfo [
 ] }
{ Track 1 CaloHypos 0 RichPID 0 MuonPID 0 GlobalChargedPID 0 NeutralPID 0
 CaloChargedPID 0 BremInfo 0
ExtraInfo [
 ] }
{ Track 1 CaloHypos 0 RichPID 1 MuonPID 0 GlobalChargedPID 1 NeutralPID 0
 CaloChargedPID 0 BremInfo 0
ExtraInfo [
 ] }
{ Track 1 CaloHypos 0 RichPID 1 MuonPID 0 GlobalChargedPID 1 NeutralPID 0
 CaloChargedPID 0 BremInfo 0
ExtraInfo [
 ] }
{ Track 1 CaloHypos 0 RichPID 1 MuonPID 0 GlobalChargedPID 1 NeutralPID 0
 CaloChargedPID 0 BremInfo 0
ExtraInfo [
 ] }
{ Track 1 CaloHypos 0 RichPID 0 MuonPID 0 GlobalChargedPID 0 NeutralPID 0
 CaloChargedPID 0 BremInfo 0
ExtraInfo [
 ] }
{ Track 1 CaloHypos 0 RichPID 1 MuonPID 0 GlobalChargedPID 1 NeutralPID 0
 CaloChargedPID 0 BremInfo 0
ExtraInfo [
 ] }
{ Track 1 CaloHypos 0 RichPID 0 MuonPID 0 GlobalChargedPID 0 NeutralPID 0
 CaloChargedPID 0 BremInfo 0
ExtraInfo [
 ] }
{ Track 1 CaloHypos 0 RichPID 0 MuonPID 0 GlobalChargedPID 0 NeutralPID 0
 CaloChargedPID 0 BremInfo 0
ExtraInfo [
 ] }
{ Track 1 CaloHypos 0 RichPID 1 MuonPID 0 GlobalChargedPID 1 NeutralPID 0
 CaloChargedPID 0 BremInfo 0
ExtraInfo [
 ] }
{ Track 1 CaloHypos 0 RichPID 0 MuonPID 0 GlobalChargedPID 0 NeutralPID 0
 CaloChargedPID 0 BremInfo 0
ExtraInfo [
 ] }
{ Track 1 CaloHypos 0 RichPID 0 MuonPID 0 GlobalChargedPID 0 NeutralPID 0
 CaloChargedPID 0 BremInfo 0
ExtraInfo [
 ] }
{ Track 1 CaloHypos 0 RichPID 0 MuonPID 0 GlobalChargedPID 0 NeutralPID 0
 CaloChargedPID 0 BremInfo 0
ExtraInfo [
 ] }
{ Track 1 CaloHypos 0 RichPID 1 MuonPID 0 GlobalChargedPID 1 NeutralPID 0
 CaloChargedPID 0 BremInfo 0
ExtraInfo [
 ] }
{ Track 1 CaloHypos 0 RichPID 0 MuonPID 0 GlobalChargedPID 0 NeutralPID 0
 CaloChargedPID 0 BremInfo 0
ExtraInfo [
 ] }
{ Track 1 CaloHypos 0 RichPID 1 MuonPID 0 GlobalChargedPID 1 NeutralPID 0
 CaloChargedPID 0 BremInfo 0
ExtraInfo [
 ] }
{ Track 1 CaloHypos 0 RichPID 0 MuonPID 0 GlobalChargedPID 0 NeutralPID 0
 CaloChargedPID 0 BremInfo 0
ExtraInfo [
 ] }
{ Track 1 CaloHypos 0 RichPID 1 MuonPID 0 GlobalChargedPID 1 NeutralPID 0
 CaloChargedPID 0 BremInfo 0
ExtraInfo [
 ] }
{ Track 1 CaloHypos 0 RichPID 0 MuonPID 0 GlobalChargedPID 0 NeutralPID 0
 CaloChargedPID 0 BremInfo 0
ExtraInfo [
 ] }
Printing ended
TtrackProtos                        SUCCESS Print all proto particles of an event
TtrackProtos                        SUCCESS { Track 1 CaloHypos 0 RichPID 1 MuonPID 0 GlobalChargedPID 1 NeutralPID 0
 CaloChargedPID 0 BremInfo 0
ExtraInfo [
 ] }
{ Track 1 CaloHypos 0 RichPID 1 MuonPID 0 GlobalChargedPID 1 NeutralPID 0
 CaloChargedPID 0 BremInfo 0
ExtraInfo [
 ] }
{ Track 1 CaloHypos 0 RichPID 1 MuonPID 0 GlobalChargedPID 1 NeutralPID 0
 CaloChargedPID 0 BremInfo 0
ExtraInfo [
 ] }
{ Track 1 CaloHypos 0 RichPID 0 MuonPID 0 GlobalChargedPID 0 NeutralPID 0
 CaloChargedPID 0 BremInfo 0
ExtraInfo [
 ] }
{ Track 1 CaloHypos 0 RichPID 0 MuonPID 0 GlobalChargedPID 0 NeutralPID 0
 CaloChargedPID 0 BremInfo 0
ExtraInfo [
 ] }
{ Track 1 CaloHypos 0 RichPID 0 MuonPID 0 GlobalChargedPID 0 NeutralPID 0
 CaloChargedPID 0 BremInfo 0
ExtraInfo [
 ] }
{ Track 1 CaloHypos 0 RichPID 1 MuonPID 0 GlobalChargedPID 1 NeutralPID 0
 CaloChargedPID 0 BremInfo 0
ExtraInfo [
 ] }
{ Track 1 CaloHypos 0 RichPID 0 MuonPID 0 GlobalChargedPID 0 NeutralPID 0
 CaloChargedPID 0 BremInfo 0
ExtraInfo [
 ] }
{ Track 1 CaloHypos 0 RichPID 0 MuonPID 0 GlobalChargedPID 0 NeutralPID 0
 CaloChargedPID 0 BremInfo 0
ExtraInfo [
 ] }
{ Track 1 CaloHypos 0 RichPID 0 MuonPID 0 GlobalChargedPID 0 NeutralPID 0
 CaloChargedPID 0 BremInfo 0
ExtraInfo [
 ] }
{ Track 1 CaloHypos 0 RichPID 0 MuonPID 0 GlobalChargedPID 0 NeutralPID 0
 CaloChargedPID 0 BremInfo 0
ExtraInfo [
 ] }
{ Track 1 CaloHypos 0 RichPID 1 MuonPID 0 GlobalChargedPID 1 NeutralPID 0
 CaloChargedPID 0 BremInfo 0
ExtraInfo [
 ] }
{ Track 1 CaloHypos 0 RichPID 1 MuonPID 0 GlobalChargedPID 1 NeutralPID 0
 CaloChargedPID 0 BremInfo 0
ExtraInfo [
 ] }
{ Track 1 CaloHypos 0 RichPID 1 MuonPID 0 GlobalChargedPID 1 NeutralPID 0
 CaloChargedPID 0 BremInfo 0
ExtraInfo [
 ] }
{ Track 1 CaloHypos 0 RichPID 0 MuonPID 0 GlobalChargedPID 0 NeutralPID 0
 CaloChargedPID 0 BremInfo 0
ExtraInfo [
 ] }
{ Track 1 CaloHypos 0 RichPID 0 MuonPID 0 GlobalChargedPID 0 NeutralPID 0
 CaloChargedPID 0 BremInfo 0
ExtraInfo [
 ] }
{ Track 1 CaloHypos 0 RichPID 0 MuonPID 0 GlobalChargedPID 0 NeutralPID 0
 CaloChargedPID 0 BremInfo 0
ExtraInfo [
 ] }
{ Track 1 CaloHypos 0 RichPID 0 MuonPID 0 GlobalChargedPID 0 NeutralPID 0
 CaloChargedPID 0 BremInfo 0
ExtraInfo [
 ] }
{ Track 1 CaloHypos 0 RichPID 0 MuonPID 0 GlobalChargedPID 0 NeutralPID 0
 CaloChargedPID 0 BremInfo 0
ExtraInfo [
 ] }
{ Track 1 CaloHypos 0 RichPID 1 MuonPID 0 GlobalChargedPID 1 NeutralPID 0
 CaloChargedPID 0 BremInfo 0
ExtraInfo [
 ] }
{ Track 1 CaloHypos 0 RichPID 0 MuonPID 0 GlobalChargedPID 0 NeutralPID 0
 CaloChargedPID 0 BremInfo 0
ExtraInfo [
 ] }
{ Track 1 CaloHypos 0 RichPID 0 MuonPID 0 GlobalChargedPID 0 NeutralPID 0
 CaloChargedPID 0 BremInfo 0
ExtraInfo [
 ] }
{ Track 1 CaloHypos 0 RichPID 0 MuonPID 0 GlobalChargedPID 0 NeutralPID 0
 CaloChargedPID 0 BremInfo 0
ExtraInfo [
 ] }
{ Track 1 CaloHypos 0 RichPID 0 MuonPID 0 GlobalChargedPID 0 NeutralPID 0
 CaloChargedPID 0 BremInfo 0
ExtraInfo [
 ] }
{ Track 1 CaloHypos 0 RichPID 1 MuonPID 0 GlobalChargedPID 1 NeutralPID 0
 CaloChargedPID 0 BremInfo 0
ExtraInfo [
 ] }
{ Track 1 CaloHypos 0 RichPID 0 MuonPID 0 GlobalChargedPID 0 NeutralPID 0
 CaloChargedPID 0 BremInfo 0
ExtraInfo [
 ] }
{ Track 1 CaloHypos 0 RichPID 0 MuonPID 0 GlobalChargedPID 0 NeutralPID 0
 CaloChargedPID 0 BremInfo 0
ExtraInfo [
 ] }
{ Track 1 CaloHypos 0 RichPID 1 MuonPID 0 GlobalChargedPID 1 NeutralPID 0
 CaloChargedPID 0 BremInfo 0
ExtraInfo [
 ] }
{ Track 1 CaloHypos 0 RichPID 1 MuonPID 0 GlobalChargedPID 1 NeutralPID 0
 CaloChargedPID 0 BremInfo 0
ExtraInfo [
 ] }
{ Track 1 CaloHypos 0 RichPID 0 MuonPID 0 GlobalChargedPID 0 NeutralPID 0
 CaloChargedPID 0 BremInfo 0
ExtraInfo [
 ] }
{ Track 1 CaloHypos 0 RichPID 0 MuonPID 0 GlobalChargedPID 0 NeutralPID 0
 CaloChargedPID 0 BremInfo 0
ExtraInfo [
 ] }
{ Track 1 CaloHypos 0 RichPID 0 MuonPID 0 GlobalChargedPID 0 NeutralPID 0
 CaloChargedPID 0 BremInfo 0
ExtraInfo [
 ] }
{ Track 1 CaloHypos 0 RichPID 0 MuonPID 0 GlobalChargedPID 0 NeutralPID 0
 CaloChargedPID 0 BremInfo 0
ExtraInfo [
 ] }
{ Track 1 CaloHypos 0 RichPID 1 MuonPID 0 GlobalChargedPID 1 NeutralPID 0
 CaloChargedPID 0 BremInfo 0
ExtraInfo [
 ] }
Printing ended
TtrackProtos                        SUCCESS Print all proto particles of an event
TtrackProtos                        SUCCESS { Track 1 CaloHypos 0 RichPID 1 MuonPID 0 GlobalChargedPID 1 NeutralPID 0
 CaloChargedPID 0 BremInfo 0
ExtraInfo [
 ] }
{ Track 1 CaloHypos 0 RichPID 1 MuonPID 0 GlobalChargedPID 1 NeutralPID 0
 CaloChargedPID 0 BremInfo 0
ExtraInfo [
 ] }
{ Track 1 CaloHypos 0 RichPID 1 MuonPID 0 GlobalChargedPID 1 NeutralPID 0
 CaloChargedPID 0 BremInfo 0
ExtraInfo [
 ] }
{ Track 1 CaloHypos 0 RichPID 1 MuonPID 0 GlobalChargedPID 1 NeutralPID 0
 CaloChargedPID 0 BremInfo 0
ExtraInfo [
 ] }
{ Track 1 CaloHypos 0 RichPID 0 MuonPID 0 GlobalChargedPID 0 NeutralPID 0
 CaloChargedPID 0 BremInfo 0
ExtraInfo [
 ] }
{ Track 1 CaloHypos 0 RichPID 0 MuonPID 0 GlobalChargedPID 0 NeutralPID 0
 CaloChargedPID 0 BremInfo 0
ExtraInfo [
 ] }
{ Track 1 CaloHypos 0 RichPID 0 MuonPID 0 GlobalChargedPID 0 NeutralPID 0
 CaloChargedPID 0 BremInfo 0
ExtraInfo [
 ] }
{ Track 1 CaloHypos 0 RichPID 1 MuonPID 0 GlobalChargedPID 1 NeutralPID 0
 CaloChargedPID 0 BremInfo 0
ExtraInfo [
 ] }
{ Track 1 CaloHypos 0 RichPID 0 MuonPID 0 GlobalChargedPID 0 NeutralPID 0
 CaloChargedPID 0 BremInfo 0
ExtraInfo [
 ] }
{ Track 1 CaloHypos 0 RichPID 0 MuonPID 0 GlobalChargedPID 0 NeutralPID 0
 CaloChargedPID 0 BremInfo 0
ExtraInfo [
 ] }
{ Track 1 CaloHypos 0 RichPID 0 MuonPID 0 GlobalChargedPID 0 NeutralPID 0
 CaloChargedPID 0 BremInfo 0
ExtraInfo [
 ] }
{ Track 1 CaloHypos 0 RichPID 0 MuonPID 0 GlobalChargedPID 0 NeutralPID 0
 CaloChargedPID 0 BremInfo 0
ExtraInfo [
 ] }
{ Track 1 CaloHypos 0 RichPID 0 MuonPID 0 GlobalChargedPID 0 NeutralPID 0
 CaloChargedPID 0 BremInfo 0
ExtraInfo [
 ] }
{ Track 1 CaloHypos 0 RichPID 1 MuonPID 0 GlobalChargedPID 1 NeutralPID 0
 CaloChargedPID 0 BremInfo 0
ExtraInfo [
 ] }
{ Track 1 CaloHypos 0 RichPID 1 MuonPID 0 GlobalChargedPID 1 NeutralPID 0
 CaloChargedPID 0 BremInfo 0
ExtraInfo [
 ] }
{ Track 1 CaloHypos 0 RichPID 1 MuonPID 0 GlobalChargedPID 1 NeutralPID 0
 CaloChargedPID 0 BremInfo 0
ExtraInfo [
 ] }
{ Track 1 CaloHypos 0 RichPID 1 MuonPID 0 GlobalChargedPID 1 NeutralPID 0
 CaloChargedPID 0 BremInfo 0
ExtraInfo [
 ] }
{ Track 1 CaloHypos 0 RichPID 1 MuonPID 0 GlobalChargedPID 1 NeutralPID 0
 CaloChargedPID 0 BremInfo 0
ExtraInfo [
 ] }
{ Track 1 CaloHypos 0 RichPID 0 MuonPID 0 GlobalChargedPID 0 NeutralPID 0
 CaloChargedPID 0 BremInfo 0
ExtraInfo [
 ] }
{ Track 1 CaloHypos 0 RichPID 0 MuonPID 0 GlobalChargedPID 0 NeutralPID 0
 CaloChargedPID 0 BremInfo 0
ExtraInfo [
 ] }
{ Track 1 CaloHypos 0 RichPID 0 MuonPID 0 GlobalChargedPID 0 NeutralPID 0
 CaloChargedPID 0 BremInfo 0
ExtraInfo [
 ] }
{ Track 1 CaloHypos 0 RichPID 0 MuonPID 0 GlobalChargedPID 0 NeutralPID 0
 CaloChargedPID 0 BremInfo 0
ExtraInfo [
 ] }
{ Track 1 CaloHypos 0 RichPID 1 MuonPID 0 GlobalChargedPID 1 NeutralPID 0
 CaloChargedPID 0 BremInfo 0
ExtraInfo [
 ] }
{ Track 1 CaloHypos 0 RichPID 0 MuonPID 0 GlobalChargedPID 0 NeutralPID 0
 CaloChargedPID 0 BremInfo 0
ExtraInfo [
 ] }
{ Track 1 CaloHypos 0 RichPID 0 MuonPID 0 GlobalChargedPID 0 NeutralPID 0
 CaloChargedPID 0 BremInfo 0
ExtraInfo [
 ] }
{ Track 1 CaloHypos 0 RichPID 0 MuonPID 0 GlobalChargedPID 0 NeutralPID 0
 CaloChargedPID 0 BremInfo 0
ExtraInfo [
 ] }
{ Track 1 CaloHypos 0 RichPID 0 MuonPID 0 GlobalChargedPID 0 NeutralPID 0
 CaloChargedPID 0 BremInfo 0
ExtraInfo [
 ] }
{ Track 1 CaloHypos 0 RichPID 0 MuonPID 0 GlobalChargedPID 0 NeutralPID 0
 CaloChargedPID 0 BremInfo 0
ExtraInfo [
 ] }
{ Track 1 CaloHypos 0 RichPID 1 MuonPID 0 GlobalChargedPID 1 NeutralPID 0
 CaloChargedPID 0 BremInfo 0
ExtraInfo [
 ] }
{ Track 1 CaloHypos 0 RichPID 1 MuonPID 0 GlobalChargedPID 1 NeutralPID 0
 CaloChargedPID 0 BremInfo 0
ExtraInfo [
 ] }
{ Track 1 CaloHypos 0 RichPID 0 MuonPID 0 GlobalChargedPID 0 NeutralPID 0
 CaloChargedPID 0 BremInfo 0
ExtraInfo [
 ] }
{ Track 1 CaloHypos 0 RichPID 0 MuonPID 0 GlobalChargedPID 0 NeutralPID 0
 CaloChargedPID 0 BremInfo 0
ExtraInfo [
 ] }
{ Track 1 CaloHypos 0 RichPID 0 MuonPID 0 GlobalChargedPID 0 NeutralPID 0
 CaloChargedPID 0 BremInfo 0
ExtraInfo [
 ] }
{ Track 1 CaloHypos 0 RichPID 0 MuonPID 0 GlobalChargedPID 0 NeutralPID 0
 CaloChargedPID 0 BremInfo 0
ExtraInfo [
 ] }
{ Track 1 CaloHypos 0 RichPID 1 MuonPID 0 GlobalChargedPID 1 NeutralPID 0
 CaloChargedPID 0 BremInfo 0
ExtraInfo [
 ] }
{ Track 1 CaloHypos 0 RichPID 0 MuonPID 0 GlobalChargedPID 0 NeutralPID 0
 CaloChargedPID 0 BremInfo 0
ExtraInfo [
 ] }
{ Track 1 CaloHypos 0 RichPID 1 MuonPID 0 GlobalChargedPID 1 NeutralPID 0
 CaloChargedPID 0 BremInfo 0
ExtraInfo [
 ] }
{ Track 1 CaloHypos 0 RichPID 0 MuonPID 0 GlobalChargedPID 0 NeutralPID 0
 CaloChargedPID 0 BremInfo 0
ExtraInfo [
 ] }
{ Track 1 CaloHypos 0 RichPID 1 MuonPID 0 GlobalChargedPID 1 NeutralPID 0
 CaloChargedPID 0 BremInfo 0
ExtraInfo [
 ] }
{ Track 1 CaloHypos 0 RichPID 0 MuonPID 0 GlobalChargedPID 0 NeutralPID 0
 CaloChargedPID 0 BremInfo 0
ExtraInfo [
 ] }
Printing ended
TBTCMatch_dd723256.TrackMasterFi... WARNING Material corrections currently not supported with DD4HEP and thus disabled.
TBTCMatch_dd723256.TrackMasterFi... WARNING See https://gitlab.cern.ch/lhcb/Rec/-/issues/326 for more details
TBTCMatch_dd723256.TrackMasterFi... WARNING TransportSvc is currently incompatible with DD4HEP. Disabling its use and thus any material corrections.
TBTCMatch_dd723256.TrackMasterFi... WARNING See https://gitlab.cern.ch/lhcb/Rec/-/issues/326 for more details
TBTC_Forward_b397f920.TrackMaste... WARNING Material corrections currently not supported with DD4HEP and thus disabled.
TBTC_Forward_b397f920.TrackMaste... WARNING See https://gitlab.cern.ch/lhcb/Rec/-/issues/326 for more details
TBTC_Forward_b397f920.TrackMaste... WARNING TransportSvc is currently incompatible with DD4HEP. Disabling its use and thus any material corrections.
TBTC_Forward_b397f920.TrackMaste... WARNING See https://gitlab.cern.ch/lhcb/Rec/-/issues/326 for more details
TBTC_Seed_1cb74de8.TrackMasterFi... WARNING Material corrections currently not supported with DD4HEP and thus disabled.
TBTC_Seed_1cb74de8.TrackMasterFi... WARNING See https://gitlab.cern.ch/lhcb/Rec/-/issues/326 for more details
TBTC_Seed_1cb74de8.TrackMasterFi... WARNING TransportSvc is currently incompatible with DD4HEP. Disabling its use and thus any material corrections.
TBTC_Seed_1cb74de8.TrackMasterFi... WARNING See https://gitlab.cern.ch/lhcb/Rec/-/issues/326 for more details
CloneKillerMatch_2ee65964              INFO Number of counters : 2
 |    Counter                                      |     #     |    sum     | mean/eff^* | rms/err^*  |     min     |     max     |
 | "nTracksInput"                                  |         4 |        313 |     78.250 |
 | "nTracksSelected"                               |         4 |        313 |     78.250 |
DefaultGECFilter                       INFO Number of counters : 2
 |    Counter                                      |     #     |    sum     | mean/eff^* | rms/err^*  |     min     |     max     |
 | "Nb Events Processed"                           |         5 |
 | "Nb events removed"                             |         1 |
FunctionalChargedProtoParticleMa...    INFO Number of counters : 1
 |    Counter                                      |     #     |    sum     | mean/eff^* | rms/err^*  |     min     |     max     |
 | "CreatedProtos"                                 |       210 |
HLTControlFlowMgr                      INFO Number of counters : 1
 |    Counter                                      |     #     |    sum     | mean/eff^* | rms/err^*  |     min     |     max     |
 | "Processed events"                              |         5 |
PrForwardTrackingVelo_2f7ad4e4         INFO Number of counters : 10
 |    Counter                                      |     #     |    sum     | mean/eff^* | rms/err^*  |     min     |     max     |
 | "Accepted input tracks"                         |         4 |        330 |     82.500 |
 | "Created long tracks"                           |         4 |         18 |     4.5000 |
 | "Input tracks"                                  |         4 |        363 |     90.750 |
 | "Number of candidate bins per track"            |       330 |        286 |    0.86667 |     1.2651 |      0.0000 |      7.0000 |
 | "Number of complete candidates/track 1st Loop"  |       156 |          9 |   0.057692 |    0.23316 |      0.0000 |      1.0000 |
 | "Number of complete candidates/track 2nd Loop"  |       149 |          9 |   0.060403 |    0.23823 |      0.0000 |      1.0000 |
 | "Number of x candidates per track 1st Loop"     |       156 |         49 |    0.31410 |    0.51645 |
 | "Number of x candidates per track 2nd Loop"     |       149 |        115 |    0.77181 |    0.82836 |
 | "Percentage second loop execution"              |       156 |        149 |    0.95513 |
 | "Removed duplicates"                            |         4 |          0 |     0.0000 |
PrForwardTrackingVelo_2f7ad4e4.P...    INFO Number of counters : 2
 |    Counter                                      |     #     |    sum     | mean/eff^* | rms/err^*  |     min     |     max     |
 | "#UT hits added"                                |        14 |         57 |     4.0714 |
 | "#tracks with hits added"                       |        14 |
PrHybridSeeding_4d0337cc               INFO Number of counters : 21
 |    Counter                                      |     #     |    sum     | mean/eff^* | rms/err^*  |     min     |     max     |
 | "Created T2x1 three-hit combinations in case 0" |      7430 |       4210 |    0.56662 |    0.57943 |      0.0000 |      4.0000 |
 | "Created T2x1 three-hit combinations in case 1" |     10813 |       6515 |    0.60252 |    0.64794 |      0.0000 |      5.0000 |
 | "Created T2x1 three-hit combinations in case 2" |     18097 |      12660 |    0.69956 |    0.77243 |      0.0000 |      10.000 |
 | "Created XZ tracks (part 0)"                    |        12 |        721 |     60.083 |     30.748 |      17.000 |      110.00 |
 | "Created XZ tracks (part 1)"                    |        12 |        605 |     50.417 |     30.390 |      15.000 |      104.00 |
 | "Created XZ tracks in case 0"                   |         8 |        441 |     55.125 |     29.294 |      21.000 |      101.00 |
 | "Created XZ tracks in case 1"                   |         8 |        495 |     61.875 |     29.565 |      29.000 |      110.00 |
 | "Created XZ tracks in case 2"                   |         8 |        390 |     48.750 |     32.484 |      15.000 |      104.00 |
 | "Created full hit combinations in case 0"       |       665 |        665 |     1.0000 |     0.0000 |      1.0000 |      1.0000 |
 | "Created full hit combinations in case 1"       |       581 |        581 |     1.0000 |     0.0000 |      1.0000 |      1.0000 |
 | "Created full hit combinations in case 2"       |       539 |        539 |     1.0000 |     0.0000 |      1.0000 |      1.0000 |
 | "Created seed tracks"                           |         8 |        481 |     60.125 |     21.699 |      34.000 |      91.000 |
 | "Created seed tracks (part 0)"                  |         4 |        291 |     72.750 |     22.873 |      46.000 |      101.00 |
 | "Created seed tracks (part 1)"                  |         4 |        251 |     62.750 |     26.061 |      37.000 |      99.000 |
 | "Created seed tracks in case 0"                 |         8 |        239 |     29.875 |     13.448 |      14.000 |      47.000 |
 | "Created seed tracks in case 1"                 |         8 |        443 |     55.375 |     21.029 |      28.000 |      82.000 |
 | "Created seed tracks in case 2"                 |         8 |        510 |     63.750 |     23.784 |      35.000 |      94.000 |
 | "Created seed tracks in recovery step"          |         4 |         32 |     8.0000 |     3.0000 |      5.0000 |      13.000 |
 | "Created two-hit combinations in case 0"        |      1352 |      30480 |     22.544 |     14.075 |      1.0000 |      57.000 |
 | "Created two-hit combinations in case 1"        |      1207 |      38143 |     31.601 |     15.786 |      4.0000 |      74.000 |
 | "Created two-hit combinations in case 2"        |      1006 |      47941 |     47.655 |     22.966 |      5.0000 |      99.000 |
PrKalmanFilterForward_4d9fbd43         INFO Number of counters : 5
 |    Counter                                      |     #     |    sum     | mean/eff^* | rms/err^*  |     min     |     max     |
 | "chi2 cut"                                      |         4 |
 | "nIterations"                                   |        18 |         46 |     2.5556 |
 | "nOutlierIterations"                            |        18 |         13 |    0.72222 |
 | "nTracksInput"                                  |         4 |         18 |     4.5000 |
 | "nTracksOutput"                                 |         4 |         14 |     3.5000 |
PrKalmanFilterMatch_c7ab9251           INFO Number of counters : 6
 |    Counter                                      |     #     |    sum     | mean/eff^* | rms/err^*  |     min     |     max     |
 | "Pre outlier chi2 cut"                          |         7 |
 | "chi2 cut"                                      |        46 |
 | "nIterations"                                   |       313 |        694 |     2.2173 |
 | "nOutlierIterations"                            |       306 |        197 |    0.64379 |
 | "nTracksInput"                                  |         4 |        313 |     78.250 |
 | "nTracksOutput"                                 |         4 |        260 |     65.000 |
PrKalmanFilter_Seed_67fafb18           INFO Number of counters : 5
 |    Counter                                      |     #     |    sum     | mean/eff^* | rms/err^*  |     min     |     max     |
 | "chi2 cut"                                      |         8 |
 | "nIterations"                                   |       481 |        979 |     2.0353 |
 | "nOutlierIterations"                            |       481 |        122 |    0.25364 |
 | "nTracksInput"                                  |         4 |        481 |     120.25 |
 | "nTracksOutput"                                 |         4 |        473 |     118.25 |
PrMatchNN_e4c71bc2                     INFO Number of counters : 3
 |    Counter                                      |     #     |    sum     | mean/eff^* | rms/err^*  |     min     |     max     |
 | "#MatchingChi2"                                 |         4 |   4386.752 |     1096.7 |
 | "#MatchingMLP"                                  |       313 |   263.8481 |    0.84297 |
 | "#MatchingTracks"                               |         4 |        313 |     78.250 |
PrMatchNN_e4c71bc2.PrAddUTHitsTool     INFO Number of counters : 2
 |    Counter                                      |     #     |    sum     | mean/eff^* | rms/err^*  |     min     |     max     |
 | "#UT hits added"                                |       266 |       1068 |     4.0150 |
 | "#tracks with hits added"                       |       266 |
PrStorePrUTHits_df75b912               INFO Number of counters : 1
 |    Counter                                      |     #     |    sum     | mean/eff^* | rms/err^*  |     min     |     max     |
 | "#banks"                                        |         4 |        864 |     216.00 |
PrStoreSciFiHits_fb0eba02              INFO Number of counters : 25
 |    Counter                                      |     #     |    sum     | mean/eff^* | rms/err^*  |     min     |     max     |
 | "Average X in T1U"                              |      1389 |   19726.06 |     14.202 |     1231.3 |     -2625.4 |      2642.8 |
 | "Average X in T1V"                              |      1437 |   -64480.5 |    -44.872 |     1221.0 |     -2650.6 |      2645.6 |
 | "Average X in T1X1"                             |      1352 |  -61013.72 |    -45.128 |     1231.8 |     -2640.7 |      2626.8 |
 | "Average X in T1X2"                             |      1405 |   25624.32 |     18.238 |     1188.6 |     -2640.2 |      2628.9 |
 | "Average X in T2U"                              |      1461 |   147894.1 |     101.23 |     1212.4 |     -2655.5 |      2646.6 |
 | "Average X in T2V"                              |      1460 |   93457.39 |     64.012 |     1184.4 |     -2650.8 |      2644.3 |
 | "Average X in T2X1"                             |      1306 |   -98676.4 |    -75.556 |     1241.7 |     -2644.0 |      2639.6 |
 | "Average X in T2X2"                             |      1547 |  -73247.82 |    -47.348 |     1237.8 |     -2645.5 |      2636.5 |
 | "Average X in T3U"                              |      1486 |  -59390.26 |    -39.967 |     1503.6 |     -3182.1 |      3184.2 |
 | "Average X in T3V"                              |      1503 |   26840.62 |     17.858 |     1436.0 |     -3187.0 |      3186.6 |
 | "Average X in T3X1"                             |      1419 |    52810.1 |     37.216 |     1456.6 |     -3164.4 |      3174.9 |
 | "Average X in T3X2"                             |      1597 |   96037.74 |     60.136 |     1451.1 |     -3167.6 |      3155.3 |
 | "Hits in T1U"                                   |        16 |       1389 |     86.812 |     18.676 |      49.000 |      115.00 |
 | "Hits in T1V"                                   |        16 |       1437 |     89.812 |     20.815 |      56.000 |      134.00 |
 | "Hits in T1X1"                                  |        16 |       1352 |     84.500 |     23.966 |      48.000 |      120.00 |
 | "Hits in T1X2"                                  |        16 |       1405 |     87.812 |     22.179 |      55.000 |      134.00 |
 | "Hits in T2U"                                   |        16 |       1461 |     91.312 |     26.074 |      52.000 |      146.00 |
 | "Hits in T2V"                                   |        16 |       1460 |     91.250 |     26.846 |      51.000 |      149.00 |
 | "Hits in T2X1"                                  |        16 |       1306 |     81.625 |     17.765 |      51.000 |      115.00 |
 | "Hits in T2X2"                                  |        16 |       1547 |     96.688 |     28.379 |      53.000 |      162.00 |
 | "Hits in T3U"                                   |        16 |       1486 |     92.875 |     24.059 |      57.000 |      140.00 |
 | "Hits in T3V"                                   |        16 |       1503 |     93.938 |     24.621 |      57.000 |      140.00 |
 | "Hits in T3X1"                                  |        16 |       1419 |     88.688 |     21.566 |      55.000 |      119.00 |
 | "Hits in T3X2"                                  |        16 |       1597 |     99.812 |     22.459 |      73.000 |      139.00 |
 | "Total number of hits"                          |         4 |      17362 |     4340.5 |     916.26 |      3142.0 |      5523.0 |
PrVPHitsToVPLightClusters_be1d4c28     INFO Number of counters : 1
 |    Counter                                      |     #     |    sum     | mean/eff^* | rms/err^*  |     min     |     max     |
 | "Nb of Produced Clusters"                       |         4 |      10224 |     2556.0 |
TBTCMatch_dd723256                     INFO Number of counters : 3
 |    Counter                                      |     #     |    sum     | mean/eff^* | rms/err^*  |     min     |     max     |
 |*"BadInput"                                      |       260 |          0 |( 0.000000 +- 0.000000)% |
 |*"FitFailed"                                     |       260 |          0 |( 0.000000 +- 0.000000)% |
 | "FittedBefore"                                  |       260 |
TBTC_Forward_b397f920                  INFO Number of counters : 3
 |    Counter                                      |     #     |    sum     | mean/eff^* | rms/err^*  |     min     |     max     |
 |*"BadInput"                                      |        14 |          0 |( 0.000000 +- 0.000000)% |
 |*"FitFailed"                                     |        14 |          0 |( 0.000000 +- 0.000000)% |
 | "FittedBefore"                                  |        14 |
TBTC_Seed_1cb74de8                     INFO Number of counters : 3
 |    Counter                                      |     #     |    sum     | mean/eff^* | rms/err^*  |     min     |     max     |
 |*"BadInput"                                      |       473 |          0 |( 0.000000 +- 0.000000)% |
 |*"FitFailed"                                     |       473 |          0 |( 0.000000 +- 0.000000)% |
 | "FittedBefore"                                  |       473 |
TtrackSel_TrackListRefiner_d9b52b84    INFO Number of counters : 2
 |    Counter                                      |     #     |    sum     | mean/eff^* | rms/err^*  |     min     |     max     |
 | "#passed"                                       |         4 |        210 |     52.500 |     15.788 |      34.000 |      71.000 |
 | "#seeds"                                        |         4 |        228 |     57.000 |     15.411 |      38.000 |      75.000 |
VeloRetinaClusterTrackingSIMD_3c...    INFO Number of counters : 2
 |    Counter                                      |     #     |    sum     | mean/eff^* | rms/err^*  |     min     |     max     |
 | "Nb of Produced Clusters"                       |         4 |      10224 |     2556.0 |
 | "Nb of Produced Tracks"                         |         4 |       1181 |     295.25 |
